<?xml version="1.0" encoding="UTF-8" standalone="no"?>
<svg
   xmlns:ns16="http://www.iki.fi/pav/software/textext/"
   xmlns:dc="http://purl.org/dc/elements/1.1/"
   xmlns:cc="http://creativecommons.org/ns#"
   xmlns:rdf="http://www.w3.org/1999/02/22-rdf-syntax-ns#"
   xmlns:svg="http://www.w3.org/2000/svg"
   xmlns="http://www.w3.org/2000/svg"
   xmlns:sodipodi="http://sodipodi.sourceforge.net/DTD/sodipodi-0.dtd"
   xmlns:inkscape="http://www.inkscape.org/namespaces/inkscape"
   inkscape:export-ydpi="200"
   inkscape:export-xdpi="200"
   inkscape:export-filename="C:\Users\Nu\Downloads\emailsymbol_122159.png"
   inkscape:version="1.0 (4035a4fb49, 2020-05-01)"
   height="12pt"
   width="13pt"
   sodipodi:docname="icon_mail_inverted.svg"
   xml:space="preserve"
   viewBox="0 0 17.333332 15.999999"
   y="0px"
   x="0px"
   id="Capa_1"
   version="1.1"><metadata
   id="metadata39"><rdf:RDF><cc:Work
       rdf:about=""><dc:format>image/svg+xml</dc:format><dc:type
         rdf:resource="http://purl.org/dc/dcmitype/StillImage" /><dc:title></dc:title></cc:Work></rdf:RDF></metadata><defs
   id="defs37"><inkscape:path-effect
     effect="fillet_chamfer"
     id="path-effect69"
     is_visible="true"
     lpeversion="1"
     satellites_param="F,0,0,1,0,0.52916667,0,1 @ F,0,0,1,0,0.52916667,0,1 @ F,0,0,1,0,0.52916667,0,1 @ F,0,0,1,0,0.52916667,0,1 @ F,0,0,1,0,0.52916667,0,1"
     unit="px"
     method="auto"
     mode="F"
     radius="2"
     chamfer_steps="1"
     flexible="false"
     use_knot_distance="true"
     apply_no_radius="true"
     apply_with_radius="true"
     only_selected="false"
     hide_knots="false" /><inkscape:path-effect
     effect="fillet_chamfer"
     id="path-effect67"
     is_visible="true"
     lpeversion="1"
     satellites_param="F,0,0,1,0,0.52916667,0,1 @ F,0,0,1,0,0.52916667,0,1 @ F,0,0,1,0,0.52916667,0,1"
     unit="px"
     method="auto"
     mode="F"
     radius="2"
     chamfer_steps="1"
     flexible="false"
     use_knot_distance="true"
     apply_no_radius="true"
     apply_with_radius="true"
     only_selected="false"
     hide_knots="false" /><inkscape:path-effect
     effect="fillet_chamfer"
     id="path-effect60"
     is_visible="true"
     lpeversion="1"
     satellites_param="F,0,0,1,0,0.52916667,0,1 @ F,0,0,1,0,0.52916667,0,1 @ F,0,0,1,0,0.52916667,0,1"
     unit="px"
     method="auto"
     mode="F"
     radius="2"
     chamfer_steps="1"
     flexible="false"
     use_knot_distance="true"
     apply_no_radius="true"
     apply_with_radius="true"
     only_selected="false"
     hide_knots="false" /><inkscape:path-effect
     effect="fillet_chamfer"
     id="path-effect53"
     is_visible="true"
     lpeversion="1"
     satellites_param="F,0,0,1,0,0.52916667,0,1 @ F,0,0,1,0,0,0,1 @ F,0,0,1,0,0.52916667,0,1"
     unit="px"
     method="auto"
     mode="F"
     radius="2"
     chamfer_steps="1"
     flexible="false"
     use_knot_distance="true"
     apply_no_radius="true"
     apply_with_radius="true"
     only_selected="false"
     hide_knots="false" /><inkscape:path-effect
     hide_knots="false"
     only_selected="false"
     apply_with_radius="true"
     apply_no_radius="true"
     use_knot_distance="true"
     flexible="false"
     chamfer_steps="1"
     radius="2"
     mode="F"
     method="auto"
     unit="px"
     satellites_param="F,0,0,1,0,0.52916667,0,1 @ F,0,0,1,0,0.52916667,0,1 @ F,0,0,1,0,0.52916667,0,1"
     lpeversion="1"
     is_visible="true"
     id="path-effect925"
     effect="fillet_chamfer" /><inkscape:path-effect
     hide_knots="false"
     only_selected="false"
     apply_with_radius="true"
     apply_no_radius="true"
     use_knot_distance="true"
     flexible="false"
     chamfer_steps="1"
     radius="2"
     mode="F"
     method="auto"
     unit="px"
     satellites_param="F,0,0,1,0,0.52916667,0,1 @ F,0,0,1,0,0.52916667,0,1 @ F,0,0,1,0,0,0,1 @ F,0,0,1,0,0.52916667,0,1 @ F,0,0,1,0,0.52916667,0,1"
     lpeversion="1"
     is_visible="true"
     id="path-effect923"
     effect="fillet_chamfer" /><inkscape:path-effect
     hide_knots="false"
     only_selected="false"
     apply_with_radius="true"
     apply_no_radius="true"
     use_knot_distance="true"
     flexible="false"
     chamfer_steps="1"
     radius="2"
     mode="F"
     method="auto"
     unit="px"
     satellites_param="F,0,0,1,0,0.52916667,0,1 @ F,0,0,1,0,0.52916667,0,1 @ F,0,0,1,0,0.52916667,0,1"
     lpeversion="1"
     is_visible="true"
     id="path-effect921"
     effect="fillet_chamfer" /><inkscape:path-effect
     hide_knots="false"
     only_selected="false"
     apply_with_radius="true"
     apply_no_radius="true"
     use_knot_distance="true"
     flexible="false"
     chamfer_steps="1"
     radius="2"
     mode="F"
     method="auto"
     unit="px"
     satellites_param="F,0,0,1,0,0.52916667,0,1 @ F,0,0,1,0,0,0,1 @ F,0,0,1,0,0.52916667,0,1"
     lpeversion="1"
     is_visible="true"
     id="path-effect919"
     effect="fillet_chamfer" /><inkscape:path-effect
     effect="fillet_chamfer"
     id="path-effect880"
     is_visible="true"
     lpeversion="1"
     satellites_param="F,0,0,1,0,0,0,1 @ F,0,0,1,0,1.5875,0,1 @ F,0,0,1,0,0,0,1"
     unit="px"
     method="auto"
     mode="F"
     radius="6"
     chamfer_steps="1"
     flexible="false"
     use_knot_distance="true"
     apply_no_radius="true"
     apply_with_radius="true"
     only_selected="false"
     hide_knots="false" /><inkscape:path-effect
     hide_knots="false"
     only_selected="false"
     apply_with_radius="true"
     apply_no_radius="true"
     use_knot_distance="true"
     flexible="false"
     chamfer_steps="1"
     radius="6"
     mode="F"
     method="auto"
     unit="px"
     satellites_param="F,0,0,1,0,0,0,1 @ F,0,0,1,0,1.5875,0,1 @ F,0,0,1,0,0,0,1"
     lpeversion="1"
     is_visible="true"
     id="path-effect861"
     effect="fillet_chamfer" /><inkscape:path-effect
     hide_knots="false"
     only_selected="false"
     apply_with_radius="true"
     apply_no_radius="true"
     use_knot_distance="true"
     flexible="false"
     chamfer_steps="1"
     radius="2"
     mode="F"
     method="auto"
     unit="px"
     satellites_param="F,0,0,1,0,2,0,2 @ F,0,0,1,0,2,0,2 @ F,0,0,1,0,2,0,2"
     lpeversion="1"
     is_visible="true"
     id="path-effect857"
     effect="fillet_chamfer" /></defs><sodipodi:namedview
   inkscape:snap-bbox-edge-midpoints="false"
   inkscape:snap-bbox-midpoints="false"
   inkscape:bbox-nodes="true"
   inkscape:snap-bbox="false"
   inkscape:snap-grids="true"
   inkscape:snap-to-guides="true"
   inkscape:object-paths="false"
   inkscape:snap-nodes="true"
   inkscape:snap-others="false"
   inkscape:object-nodes="true"
   inkscape:snap-smooth-nodes="false"
   units="pt"
   inkscape:document-units="mm"
   inkscape:document-rotation="0"
   pagecolor="#ffffff"
   bordercolor="#666666"
   borderopacity="1"
   objecttolerance="10"
   gridtolerance="10000"
   guidetolerance="10"
   inkscape:pageopacity="0"
   inkscape:pageshadow="2"
   inkscape:window-width="1920"
   inkscape:window-height="1001"
   id="namedview35"
   showgrid="true"
   fit-margin-top="0"
   fit-margin-left="0"
   fit-margin-right="0"
   fit-margin-bottom="0"
   inkscape:zoom="19.367683"
   inkscape:cx="6.6969708"
   inkscape:cy="6.8522528"
   inkscape:window-x="-9"
   inkscape:window-y="-9"
   inkscape:window-maximized="1"
   inkscape:current-layer="Capa_1"><inkscape:grid
     dotted="false"
     empspacing="4"
     spacingy="0.33333331"
     spacingx="0.33333331"
     units="pt"
     type="xygrid"
     id="grid864"
     originx="0"
     originy="0" /></sodipodi:namedview>

<rect
   ry="3.4015746"
   y="2.6666689"
   x="0"
   height="11.999996"
   width="17.333326"
   id="rect962-4-3"
   style="fill:#ffffff;fill-opacity:1;fill-rule:evenodd;stroke:none;stroke-width:2;stroke-linecap:round" /><rect
   style="fill:#114b76;fill-opacity:1;fill-rule:evenodd;stroke:none;stroke-width:2;stroke-linecap:round"
   id="rect962"
   width="17.333332"
   height="11.999999"
   x="-19.999998"
   y="2.6666665"
   ry="1.6666698" /><g
   id="g4"
   transform="translate(0,-5.83)">
</g>
<g
   id="g6"
   transform="translate(0,-5.83)">
</g>
<g
   id="g8"
   transform="translate(0,-5.83)">
</g>
<g
   id="g10"
   transform="translate(0,-5.83)">
</g>
<g
   id="g12"
   transform="translate(0,-5.83)">
</g>
<g
   id="g14"
   transform="translate(0,-5.83)">
</g>
<g
   id="g16"
   transform="translate(0,-5.83)">
</g>
<g
   id="g18"
   transform="translate(0,-5.83)">
</g>
<g
   id="g20"
   transform="translate(0,-5.83)">
</g>
<g
   id="g22"
   transform="translate(0,-5.83)">
</g>
<g
   id="g24"
   transform="translate(0,-5.83)">
</g>
<g
   id="g26"
   transform="translate(0,-5.83)">
</g>
<g
   id="g28"
   transform="translate(0,-5.83)">
</g>
<g
   id="g30"
   transform="translate(0,-5.83)">
</g>
<g
   id="g32"
   transform="translate(0,-5.83)">
</g>
<path
   sodipodi:nodetypes="cccccc"
   id="path890"
   d="m -20.511676,28.315843 4.584979,-4.58498 a 0.52916655,0.52916655 8.9524701e-7 0 1 0.748354,0 l 3.251645,3.251646 a 0.52916661,0.52916661 3.9390855e-6 0 0 0.748354,0 l 3.2516458,-3.251646 a 0.52916663,0.52916663 3.0438385e-6 0 1 0.7483546,0 l 4.5849784,4.58498 A 0.21918804,0.21918804 112.5 0 1 -2.7483546,28.69002 H -20.356686 a 0.21918804,0.21918804 67.499997 0 1 -0.15499,-0.374177 z"
   style="fill:#114b76;fill-opacity:1;stroke:none;stroke-width:1px;stroke-linecap:butt;stroke-linejoin:miter;stroke-opacity:1"
   inkscape:path-effect="#path-effect69"
   inkscape:original-d="m -20.885853,28.69002 5.333333,-5.333334 3.999999,4 4.0000001,-4 5.333333,5.333334 z" /><path
   sodipodi:nodetypes="cccc"
   id="path892"
   d="m -20.511676,26.315843 3.584979,-3.58498 a 0.52916673,0.52916673 89.999997 0 0 0,-0.748354 l -3.584979,-3.584979 a 0.21918801,0.21918801 157.5 0 0 -0.374177,0.15499 l 0,7.608333 a 0.21918798,0.21918798 22.499997 0 0 0.374177,0.15499 z"
   style="fill:#114b76;fill-opacity:1;stroke:none;stroke-width:1px;stroke-linecap:butt;stroke-linejoin:miter;stroke-opacity:1"
   inkscape:path-effect="#path-effect60"
   inkscape:original-d="m -20.885853,26.69002 4.333333,-4.333334 -4.333333,-4.333333 z" /><path
   sodipodi:nodetypes="cccc"
   id="path894"
   d="m -19.84501,17.064197 8.292489,8.29249 8.2924898,-8.29249 A 0.21918801,0.21918801 67.5 0 0 -3.4150206,16.69002 H -19.69002 a 0.21918803,0.21918803 112.5 0 0 -0.15499,0.374177 z"
   style="fill:#114b76;fill-opacity:1;stroke:none;stroke-width:1px;stroke-linecap:butt;stroke-linejoin:miter;stroke-opacity:1"
   inkscape:path-effect="#path-effect53"
   inkscape:original-d="m -20.219187,16.69002 8.666666,8.666667 8.6666671,-8.666667 z" /><path
   style="fill:#114b76;fill-opacity:1;stroke:none;stroke-width:1px;stroke-linecap:butt;stroke-linejoin:miter;stroke-opacity:1"
   d="m -2.5933652,26.315843 -3.5849784,-3.58498 a 0.52916673,0.52916673 90.000003 0 1 0,-0.748354 l 3.5849784,-3.584979 a 0.21918801,0.21918801 22.5 0 1 0.3741773,0.15499 v 7.608333 a 0.21918798,0.21918798 157.5 0 1 -0.3741773,0.15499 z"
   id="path892-4"
   sodipodi:nodetypes="cccc"
   inkscape:path-effect="#path-effect67"
   inkscape:original-d="m -2.2191879,26.69002 -4.333333,-4.333334 4.333333,-4.333333 z" /><g
   transform="matrix(1.33333,0,0,1.33333,22.885243,2.2895928)"
   ns16:version="1.0.1"
   ns16:texconverter="lualatex"
   ns16:pdfconverter="inkscape"
   ns16:text="\\setmainfont{Calibri}\n\\fontsize{12pt}{12pt}\\selectfont\nexample@mail.com"
   ns16:preamble="C:\\Users\\Nu\\AppData\\Roaming\\inkscape\\extensions\\textext\\packages_opti.tex"
   ns16:scale="1.0000000283464388"
   ns16:alignment="middle center"
   ns16:inkscapeversion="1.0"
   ns16:jacobian_sqrt="1.33333"
   id="g508"><defs
   id="id-5a037bfb-b683-4de1-b08e-288f1b856b3c">
    <g
   id="id-8b78ee0e-c78f-4e23-aebd-93d929be4572">
      <symbol
   id="id-4301cdb5-9546-43f1-9e27-d9ce8d169e3f"
   overflow="visible">
        <path
   id="id-989522ad-a1a7-44ae-8897-3791021fff00"
   d="M 5.703125,-7.546875 V 0 H 0.25 v -7.546875 z m -0.5,7.078125 V -7.078125 H 0.75 v 6.609375 z m -0.71875,-4.515625 c 0,0.230469 -0.039062,0.433594 -0.109375,0.609375 -0.074219,0.179687 -0.171875,0.328125 -0.296875,0.453125 -0.117187,0.125 -0.257812,0.226562 -0.421875,0.296875 -0.167969,0.0625 -0.351562,0.101562 -0.546875,0.109375 L 3.078125,-2.625 c 0,0.042969 -0.03125,0.074219 -0.09375,0.09375 -0.054687,0.011719 -0.132812,0.015625 -0.234375,0.015625 -0.0625,0 -0.117187,0 -0.15625,0 C 2.5625,-2.523438 2.53125,-2.535156 2.5,-2.546875 2.476563,-2.554688 2.460938,-2.566406 2.453125,-2.578125 2.441406,-2.585938 2.4375,-2.601563 2.4375,-2.625 L 2.40625,-3.703125 C 2.394531,-3.816406 2.41406,-3.894531 2.46875,-3.9375 2.53125,-3.988281 2.609375,-4.015625 2.703125,-4.015625 h 0.09375 c 0.175781,0 0.320313,-0.019531 0.4375,-0.0625 0.125,-0.050781 0.21875,-0.117188 0.28125,-0.203125 0.070313,-0.082031 0.125,-0.179688 0.15625,-0.296875 C 3.703125,-4.691406 3.71875,-4.8125 3.71875,-4.9375 c 0,-0.289063 -0.085937,-0.519531 -0.25,-0.6875 C 3.3125,-5.789063 3.054688,-5.875 2.703125,-5.875 2.554688,-5.875 2.425781,-5.859375 2.3125,-5.828125 2.195313,-5.796875 2.09375,-5.757813 2,-5.71875 1.914063,-5.6875 1.84375,-5.65625 1.78125,-5.625 1.726563,-5.59375 1.6875,-5.578125 1.65625,-5.578125 1.644531,-5.578125 1.632813,-5.582031 1.625,-5.59375 1.613281,-5.601563 1.597656,-5.617188 1.578125,-5.640625 1.566406,-5.660156 1.554688,-5.6875 1.546875,-5.71875 c 0,-0.039063 0,-0.09375 0,-0.15625 0,-0.0625 0.00391,-0.113281 0.015625,-0.15625 0.00781,-0.039063 0.03125,-0.078125 0.0625,-0.109375 0.03125,-0.03125 0.082031,-0.0625 0.15625,-0.09375 C 1.863281,-6.273438 1.957031,-6.3125 2.0625,-6.34375 2.164063,-6.375 2.28125,-6.398438 2.40625,-6.421875 2.539063,-6.453125 2.675781,-6.46875 2.8125,-6.46875 c 0.289063,0 0.539063,0.042969 0.75,0.125 0.207031,0.074219 0.378906,0.179687 0.515625,0.3125 0.132813,0.136719 0.234375,0.292969 0.296875,0.46875 0.070313,0.179687 0.109375,0.371094 0.109375,0.578125 z m -1.28125,3.390625 c 0,0.085937 -0.011719,0.152344 -0.03125,0.203125 -0.011719,0.054687 -0.03125,0.101562 -0.0625,0.140625 -0.03125,0.03125 -0.078125,0.058594 -0.140625,0.078125 -0.054687,0.011719 -0.121094,0.015625 -0.203125,0.015625 -0.085937,0 -0.15625,-0.00391 -0.21875,-0.015625 C 2.492188,-1.191406 2.453125,-1.21875 2.421875,-1.25 2.390625,-1.289063 2.363281,-1.335938 2.34375,-1.390625 2.332031,-1.441406 2.328125,-1.507813 2.328125,-1.59375 c 0,-0.082031 0.00391,-0.148438 0.015625,-0.203125 0.019531,-0.0625 0.046875,-0.109375 0.078125,-0.140625 0.03125,-0.03125 0.070313,-0.050781 0.125,-0.0625 0.0625,-0.019531 0.132813,-0.03125 0.21875,-0.03125 0.082031,0 0.148438,0.011719 0.203125,0.03125 0.0625,0.011719 0.109375,0.03125 0.140625,0.0625 0.03125,0.03125 0.050781,0.078125 0.0625,0.140625 0.019531,0.054687 0.03125,0.121094 0.03125,0.203125 z M 0,2.3125 Z m 0,0"
   style="stroke:none" />
      </symbol>
      <symbol
   id="id-b97209c7-38ce-4b2c-be8e-d942e690a1cc"
   overflow="visible">
        <path
   id="id-23386cc8-5268-4860-b236-62f302a142fc"
   d="m 5.375,-3 c 0,0.15625 -0.042969,0.265625 -0.125,0.328125 -0.074219,0.0625 -0.15625,0.09375 -0.25,0.09375 H 1.5625 c 0,0.292969 0.023438,0.558594 0.078125,0.796875 0.0625,0.230469 0.160156,0.429687 0.296875,0.59375 0.132813,0.167969 0.3125,0.296875 0.53125,0.390625 0.21875,0.085937 0.484375,0.125 0.796875,0.125 0.25,0 0.46875,-0.019531 0.65625,-0.0625 C 4.117188,-0.773438 4.289063,-0.820313 4.4375,-0.875 4.582031,-0.925781 4.695313,-0.96875 4.78125,-1 4.875,-1.039063 4.945313,-1.0625 5,-1.0625 c 0.019531,0 0.039063,0.00781 0.0625,0.015625 0.019531,0.011719 0.035156,0.03125 0.046875,0.0625 0.019531,0.023437 0.03125,0.058594 0.03125,0.109375 0.00781,0.054687 0.015625,0.117187 0.015625,0.1875 0,0.042969 -0.00781,0.085937 -0.015625,0.125 0,0.042969 -0.00781,0.078125 -0.015625,0.109375 0,0.023437 -0.011719,0.046875 -0.03125,0.078125 -0.011719,0.023437 -0.027344,0.042969 -0.046875,0.0625 -0.023437,0.023437 -0.085937,0.058594 -0.1875,0.109375 C 4.753906,-0.160156 4.617188,-0.113281 4.453125,-0.0625 4.285156,-0.0195313 4.09375,0.015625 3.875,0.046875 3.65625,0.0859375 3.421875,0.109375 3.171875,0.109375 2.734375,0.109375 2.351563,0.0507813 2.03125,-0.0625 1.707031,-0.1875 1.429688,-0.367188 1.203125,-0.609375 0.984375,-0.847656 0.816406,-1.144531 0.703125,-1.5 0.597656,-1.851563 0.546875,-2.269531 0.546875,-2.75 c 0,-0.445313 0.054688,-0.847656 0.171875,-1.203125 C 0.832031,-4.316406 1,-4.625 1.21875,-4.875 1.4375,-5.132813 1.703125,-5.328125 2.015625,-5.453125 2.328125,-5.585938 2.675781,-5.65625 3.0625,-5.65625 c 0.414063,0 0.765625,0.070312 1.046875,0.203125 0.289063,0.125 0.53125,0.304687 0.71875,0.53125 0.1875,0.21875 0.320313,0.480469 0.40625,0.78125 0.09375,0.304687 0.140625,0.625 0.140625,0.96875 z M 4.40625,-3.28125 C 4.414063,-3.789063 4.300781,-4.1875 4.0625,-4.46875 3.832031,-4.757813 3.484375,-4.90625 3.015625,-4.90625 c -0.230469,0 -0.4375,0.046875 -0.625,0.140625 C 2.210938,-4.679688 2.0625,-4.566406 1.9375,-4.421875 1.820313,-4.273438 1.726563,-4.101563 1.65625,-3.90625 1.59375,-3.707031 1.5625,-3.5 1.5625,-3.28125 Z m 0,0"
   style="stroke:none" />
      </symbol>
      <symbol
   id="id-9d766d75-a845-4b6f-9fa1-53277bf5e9c1"
   overflow="visible">
        <path
   id="id-f4d392e4-491f-4edd-981c-c8842bd96fb6"
   d="m 4.875,-0.25 c 0.03125,0.054687 0.046875,0.101562 0.046875,0.140625 0,0.03125 -0.023437,0.0585937 -0.0625,0.078125 C 4.828125,-0.0078125 4.769531,0.00390625 4.6875,0.015625 4.613281,0.0234375 4.519531,0.03125 4.40625,0.03125 4.28125,0.03125 4.179688,0.0234375 4.109375,0.015625 4.046875,0.015625 3.992188,0.0078125 3.953125,0 3.921875,-0.0078125 3.890625,-0.0234375 3.859375,-0.046875 3.835938,-0.078125 3.820313,-0.101563 3.8125,-0.125 l -1.265625,-2.09375 -1.25,2.09375 C 1.273438,-0.101563 1.253906,-0.078125 1.234375,-0.046875 1.210938,-0.0234375 1.179688,-0.0078125 1.140625,0 1.097656,0.0078125 1.046875,0.015625 0.984375,0.015625 0.921875,0.0234375 0.832031,0.03125 0.71875,0.03125 0.601563,0.03125 0.507813,0.0234375 0.4375,0.015625 0.375,0.00390625 0.320313,-0.0078125 0.28125,-0.03125 0.25,-0.0507813 0.234375,-0.078125 0.234375,-0.109375 0.242188,-0.148438 0.265625,-0.195313 0.296875,-0.25 L 1.9375,-2.8125 0.390625,-5.28125 c -0.03125,-0.0625 -0.054687,-0.109375 -0.0625,-0.140625 0,-0.039063 0.015625,-0.070313 0.046875,-0.09375 0.039063,-0.03125 0.097656,-0.046875 0.171875,-0.046875 0.082031,-0.00781 0.1875,-0.015625 0.3125,-0.015625 0.113281,0 0.203125,0.00781 0.265625,0.015625 0.070313,0 0.125,0.00781 0.15625,0.015625 0.039063,0.011719 0.070313,0.027344 0.09375,0.046875 0.019531,0.023437 0.039063,0.046875 0.0625,0.078125 L 2.625,-3.46875 3.84375,-5.421875 c 0.00781,-0.03125 0.023438,-0.050781 0.046875,-0.0625 C 3.910156,-5.503906 3.9375,-5.519531 3.96875,-5.53125 4,-5.550781 4.046875,-5.5625 4.109375,-5.5625 c 0.0625,-0.00781 0.144531,-0.015625 0.25,-0.015625 0.113281,0 0.207031,0.00781 0.28125,0.015625 0.070313,0 0.125,0.015625 0.15625,0.046875 0.03125,0.023437 0.046875,0.054687 0.046875,0.09375 0,0.03125 -0.023437,0.078125 -0.0625,0.140625 L 3.25,-2.84375 Z m 0,0"
   style="stroke:none" />
      </symbol>
      <symbol
   id="id-0ae5b31c-68bb-4194-a684-af2037c932a9"
   overflow="visible">
        <path
   id="id-bbc36591-6597-48be-941d-12f973df7c5c"
   d="m 4.84375,-0.140625 c 0,0.0546875 -0.015625,0.0898437 -0.046875,0.109375 -0.03125,0.0234375 -0.074219,0.03515625 -0.125,0.046875 C 4.617188,0.0234375 4.539063,0.03125 4.4375,0.03125 4.332031,0.03125 4.25,0.0234375 4.1875,0.015625 4.132813,0.00390625 4.09375,-0.0078125 4.0625,-0.03125 4.03125,-0.0507813 4.015625,-0.0859375 4.015625,-0.140625 v -0.53125 C 3.785156,-0.421875 3.53125,-0.226563 3.25,-0.09375 2.96875,0.0390625 2.671875,0.109375 2.359375,0.109375 2.078125,0.109375 1.820313,0.0703125 1.59375,0 1.375,-0.0703125 1.1875,-0.175781 1.03125,-0.3125 0.875,-0.445313 0.75,-0.613281 0.65625,-0.8125 c -0.085937,-0.195313 -0.125,-0.421875 -0.125,-0.671875 0,-0.300781 0.0625,-0.554688 0.1875,-0.765625 0.125,-0.21875 0.296875,-0.398438 0.515625,-0.546875 C 1.460938,-2.941406 1.738281,-3.050781 2.0625,-3.125 2.394531,-3.195313 2.765625,-3.234375 3.171875,-3.234375 h 0.71875 v -0.40625 c 0,-0.207031 -0.023437,-0.382813 -0.0625,-0.53125 C 3.785156,-4.328125 3.71875,-4.457031 3.625,-4.5625 3.53125,-4.664063 3.40625,-4.742188 3.25,-4.796875 3.09375,-4.847656 2.90625,-4.875 2.6875,-4.875 c -0.242187,0 -0.453125,0.03125 -0.640625,0.09375 -0.1875,0.054687 -0.355469,0.117187 -0.5,0.1875 -0.136719,0.0625 -0.25,0.121094 -0.34375,0.171875 -0.09375,0.054687 -0.167969,0.078125 -0.21875,0.078125 -0.03125,0 -0.058594,-0.00391 -0.078125,-0.015625 C 0.882813,-4.378906 0.863281,-4.40625 0.84375,-4.4375 0.820313,-4.46875 0.804688,-4.503906 0.796875,-4.546875 c 0,-0.050781 0,-0.101563 0,-0.15625 0,-0.101563 0.003906,-0.179688 0.015625,-0.234375 C 0.820313,-5 0.851563,-5.050781 0.90625,-5.09375 0.96875,-5.144531 1.0625,-5.203125 1.1875,-5.265625 c 0.125,-0.070313 0.269531,-0.132813 0.4375,-0.1875 0.164063,-0.0625 0.347656,-0.109375 0.546875,-0.140625 0.195313,-0.039063 0.398438,-0.0625 0.609375,-0.0625 0.375,0 0.691406,0.042969 0.953125,0.125 0.269531,0.085937 0.484375,0.210937 0.640625,0.375 0.164063,0.167969 0.285156,0.375 0.359375,0.625 0.070313,0.242187 0.109375,0.523437 0.109375,0.84375 z M 3.890625,-2.53125 H 3.0625 c -0.261719,0 -0.492187,0.023437 -0.6875,0.0625 -0.1875,0.042969 -0.351562,0.109375 -0.484375,0.203125 -0.125,0.085937 -0.21875,0.1875 -0.28125,0.3125 -0.0625,0.117187 -0.09375,0.257812 -0.09375,0.421875 0,0.273437 0.085938,0.492187 0.265625,0.65625 0.175781,0.15625 0.421875,0.234375 0.734375,0.234375 0.25,0 0.476563,-0.0625 0.6875,-0.1875 0.21875,-0.132813 0.445313,-0.332031 0.6875,-0.59375 z m 0,0"
   style="stroke:none" />
      </symbol>
      <symbol
   id="id-44c3cecd-a798-48ae-a8b5-6fd0e277eab6"
   overflow="visible">
        <path
   id="id-145d1e32-d888-4075-a371-4f30d87c8c09"
   d="m 8.6875,-0.140625 c 0,0.03125 -0.011719,0.0585937 -0.03125,0.078125 C 8.644531,-0.0390625 8.617188,-0.0195313 8.578125,0 8.546875,0.0078125 8.5,0.015625 8.4375,0.015625 8.375,0.0234375 8.296875,0.03125 8.203125,0.03125 8.109375,0.03125 8.03125,0.0234375 7.96875,0.015625 7.90625,0.015625 7.851563,0.0078125 7.8125,0 7.78125,-0.0195313 7.753906,-0.0390625 7.734375,-0.0625 7.722656,-0.0820313 7.71875,-0.109375 7.71875,-0.140625 V -3.34375 c 0,-0.21875 -0.023437,-0.414063 -0.0625,-0.59375 C 7.613281,-4.125 7.550781,-4.28125 7.46875,-4.40625 7.382813,-4.539063 7.273438,-4.644531 7.140625,-4.71875 c -0.125,-0.070313 -0.28125,-0.109375 -0.46875,-0.109375 -0.21875,0 -0.445312,0.089844 -0.671875,0.265625 -0.21875,0.167969 -0.464844,0.417969 -0.734375,0.75 v 3.671875 c 0,0.03125 -0.011719,0.0585937 -0.03125,0.078125 C 5.222656,-0.0390625 5.195313,-0.0195313 5.15625,0 5.125,0.0078125 5.078125,0.015625 5.015625,0.015625 4.953125,0.0234375 4.875,0.03125 4.78125,0.03125 4.695313,0.03125 4.617188,0.0234375 4.546875,0.015625 4.484375,0.015625 4.429688,0.0078125 4.390625,0 4.359375,-0.0195313 4.335938,-0.0390625 4.328125,-0.0625 4.316406,-0.0820313 4.3125,-0.109375 4.3125,-0.140625 V -3.34375 C 4.3125,-3.5625 4.285156,-3.757813 4.234375,-3.9375 4.191406,-4.125 4.128906,-4.28125 4.046875,-4.40625 3.960938,-4.539063 3.851563,-4.644531 3.71875,-4.71875 3.59375,-4.789063 3.441406,-4.828125 3.265625,-4.828125 c -0.21875,0 -0.445312,0.089844 -0.671875,0.265625 -0.230469,0.167969 -0.476562,0.417969 -0.734375,0.75 v 3.671875 c 0,0.03125 -0.011719,0.0585937 -0.03125,0.078125 C 1.816406,-0.0390625 1.789063,-0.0195313 1.75,0 1.71875,0.0078125 1.671875,0.015625 1.609375,0.015625 1.546875,0.0234375 1.46875,0.03125 1.375,0.03125 1.28125,0.03125 1.203125,0.0234375 1.140625,0.015625 1.078125,0.015625 1.023438,0.0078125 0.984375,0 0.953125,-0.0195313 0.925781,-0.0390625 0.90625,-0.0625 0.894531,-0.0820313 0.890625,-0.109375 0.890625,-0.140625 V -5.40625 c 0,-0.03125 0.003906,-0.054688 0.015625,-0.078125 0.007813,-0.019531 0.03125,-0.035156 0.0625,-0.046875 0.039063,-0.019531 0.085938,-0.03125 0.140625,-0.03125 0.0625,-0.00781 0.132813,-0.015625 0.21875,-0.015625 0.082031,0 0.148438,0.00781 0.203125,0.015625 0.0625,0 0.109375,0.011719 0.140625,0.03125 0.03125,0.011719 0.050781,0.027344 0.0625,0.046875 0.019531,0.023437 0.03125,0.046875 0.03125,0.078125 v 0.703125 C 2.054688,-5.035156 2.34375,-5.273438 2.625,-5.421875 2.90625,-5.578125 3.1875,-5.65625 3.46875,-5.65625 c 0.21875,0 0.410156,0.027344 0.578125,0.078125 C 4.222656,-5.535156 4.375,-5.46875 4.5,-5.375 c 0.132813,0.09375 0.25,0.203125 0.34375,0.328125 0.09375,0.125 0.171875,0.265625 0.234375,0.421875 0.175781,-0.1875 0.34375,-0.347656 0.5,-0.484375 0.15625,-0.132813 0.304688,-0.238281 0.453125,-0.3125 0.144531,-0.082031 0.285156,-0.140625 0.421875,-0.171875 0.144531,-0.039063 0.285156,-0.0625 0.421875,-0.0625 0.34375,0 0.628906,0.058594 0.859375,0.171875 C 7.960938,-5.367188 8.144531,-5.207031 8.28125,-5 c 0.144531,0.199219 0.25,0.433594 0.3125,0.703125 0.0625,0.261719 0.09375,0.539062 0.09375,0.828125 z m 0,0"
   style="stroke:none" />
      </symbol>
      <symbol
   id="id-3b3484f2-0696-4752-b8a9-9a3b4e453648"
   overflow="visible">
        <path
   id="id-ab272153-0a08-46d4-acfe-c5754a853a98"
   d="m 5.71875,-2.859375 c 0,0.460937 -0.054687,0.875 -0.15625,1.25 -0.09375,0.367187 -0.242187,0.679687 -0.4375,0.9375 -0.1875,0.25 -0.421875,0.445312 -0.703125,0.578125 -0.28125,0.1328125 -0.605469,0.203125 -0.96875,0.203125 -0.15625,0 -0.304687,-0.015625 -0.4375,-0.046875 C 2.878906,0.03125 2.75,-0.015625 2.625,-0.078125 2.5,-0.148438 2.375,-0.234375 2.25,-0.328125 2.125,-0.429688 1.992188,-0.550781 1.859375,-0.6875 v 2.625 c 0,0.03125 -0.011719,0.054688 -0.03125,0.078125 C 1.816406,2.035156 1.789063,2.050781 1.75,2.0625 1.71875,2.082031 1.671875,2.097656 1.609375,2.109375 1.546875,2.117188 1.46875,2.125 1.375,2.125 1.28125,2.125 1.203125,2.117188 1.140625,2.109375 1.078125,2.097656 1.023438,2.082031 0.984375,2.0625 0.953125,2.050781 0.925781,2.035156 0.90625,2.015625 0.894531,1.992188 0.890625,1.96875 0.890625,1.9375 v -7.34375 c 0,-0.03125 0.003906,-0.054688 0.015625,-0.078125 0.007813,-0.019531 0.03125,-0.035156 0.0625,-0.046875 0.039063,-0.019531 0.085938,-0.03125 0.140625,-0.03125 0.0625,-0.00781 0.128906,-0.015625 0.203125,-0.015625 0.082031,0 0.148438,0.00781 0.203125,0.015625 0.050781,0 0.09375,0.011719 0.125,0.03125 0.039063,0.011719 0.066406,0.027344 0.078125,0.046875 0.00781,0.023437 0.015625,0.046875 0.015625,0.078125 v 0.71875 c 0.164063,-0.164063 0.320313,-0.304688 0.46875,-0.421875 0.144531,-0.125 0.289063,-0.222656 0.4375,-0.296875 0.15625,-0.082031 0.3125,-0.144531 0.46875,-0.1875 0.15625,-0.039063 0.320313,-0.0625 0.5,-0.0625 0.375,0 0.695313,0.074219 0.96875,0.21875 0.269531,0.148437 0.488281,0.351562 0.65625,0.609375 0.164063,0.25 0.285156,0.546875 0.359375,0.890625 0.082031,0.34375 0.125,0.703125 0.125,1.078125 z M 4.703125,-2.75 c 0,-0.257813 -0.023437,-0.515625 -0.0625,-0.765625 C 4.609375,-3.773438 4.539063,-4 4.4375,-4.1875 4.34375,-4.382813 4.207031,-4.539063 4.03125,-4.65625 3.863281,-4.769531 3.660156,-4.828125 3.421875,-4.828125 c -0.125,0 -0.25,0.023437 -0.375,0.0625 -0.125,0.03125 -0.25,0.089844 -0.375,0.171875 -0.125,0.074219 -0.257812,0.179687 -0.390625,0.3125 C 2.144531,-4.15625 2.003906,-4 1.859375,-3.8125 v 2.09375 c 0.257813,0.324219 0.507813,0.574219 0.75,0.75 0.238281,0.167969 0.488281,0.25 0.75,0.25 0.238281,0 0.441406,-0.054688 0.609375,-0.171875 0.175781,-0.113281 0.316406,-0.269531 0.421875,-0.46875 C 4.503906,-1.554688 4.582031,-1.773438 4.625,-2.015625 4.675781,-2.253906 4.703125,-2.5 4.703125,-2.75 Z m 0,0"
   style="stroke:none" />
      </symbol>
      <symbol
   id="id-fa1033f2-849b-4ed2-a8ce-b163f376b04c"
   overflow="visible">
        <path
   id="id-d2e8e329-a9d3-4a2e-b47d-9de23a8d26e0"
   d="m 1.859375,-0.140625 c 0,0.03125 -0.011719,0.0585937 -0.03125,0.078125 C 1.816406,-0.0390625 1.789063,-0.0195313 1.75,0 1.71875,0.0078125 1.671875,0.015625 1.609375,0.015625 1.546875,0.0234375 1.46875,0.03125 1.375,0.03125 1.28125,0.03125 1.203125,0.0234375 1.140625,0.015625 1.078125,0.015625 1.023438,0.0078125 0.984375,0 0.953125,-0.0195313 0.925781,-0.0390625 0.90625,-0.0625 0.894531,-0.0820313 0.890625,-0.109375 0.890625,-0.140625 V -7.9375 c 0,-0.03125 0.003906,-0.054688 0.015625,-0.078125 0.019531,-0.03125 0.046875,-0.050781 0.078125,-0.0625 0.039063,-0.019531 0.09375,-0.03125 0.15625,-0.03125 C 1.203125,-8.117188 1.28125,-8.125 1.375,-8.125 c 0.09375,0 0.171875,0.00781 0.234375,0.015625 0.0625,0 0.109375,0.011719 0.140625,0.03125 0.039063,0.011719 0.066406,0.03125 0.078125,0.0625 0.019531,0.023437 0.03125,0.046875 0.03125,0.078125 z m 0,0"
   style="stroke:none" />
      </symbol>
      <symbol
   id="id-4e2912c4-4639-47a5-9dc2-85f992c60cfd"
   overflow="visible">
        <path
   id="id-9cf658d4-8c58-4ec1-86ed-52fac142b81d"
   d="m 9.671875,-4.484375 c 0,0.261719 -0.023437,0.53125 -0.0625,0.8125 C 9.578125,-3.398438 9.523438,-3.132813 9.453125,-2.875 9.378906,-2.613281 9.28125,-2.363281 9.15625,-2.125 9.039063,-1.894531 8.894531,-1.691406 8.71875,-1.515625 8.539063,-1.347656 8.335938,-1.210938 8.109375,-1.109375 7.878906,-1.015625 7.613281,-0.96875 7.3125,-0.96875 7.15625,-0.96875 7.007813,-0.984375 6.875,-1.015625 6.738281,-1.054688 6.613281,-1.109375 6.5,-1.171875 6.394531,-1.242188 6.304688,-1.332031 6.234375,-1.4375 6.171875,-1.550781 6.125,-1.679688 6.09375,-1.828125 c -0.15625,0.15625 -0.308594,0.292969 -0.453125,0.40625 -0.148437,0.105469 -0.292969,0.195312 -0.4375,0.265625 -0.136719,0.0625 -0.273437,0.109375 -0.40625,0.140625 -0.136719,0.03125 -0.265625,0.046875 -0.390625,0.046875 -0.167969,0 -0.320312,-0.015625 -0.453125,-0.046875 -0.125,-0.03125 -0.242187,-0.078125 -0.34375,-0.140625 -0.09375,-0.0625 -0.179687,-0.140625 -0.25,-0.234375 C 3.296875,-1.484375 3.238281,-1.585938 3.1875,-1.703125 3.144531,-1.828125 3.113281,-1.957031 3.09375,-2.09375 3.070313,-2.238281 3.0625,-2.390625 3.0625,-2.546875 3.0625,-2.710938 3.07031,-2.90625 3.09375,-3.125 3.125,-3.34375 3.171875,-3.566406 3.234375,-3.796875 c 0.0625,-0.226563 0.144531,-0.453125 0.25,-0.671875 0.113281,-0.21875 0.25,-0.410156 0.40625,-0.578125 C 4.054688,-5.222656 4.25,-5.363281 4.46875,-5.46875 4.695313,-5.582031 4.957031,-5.640625 5.25,-5.640625 c 0.125,0 0.242188,0.015625 0.359375,0.046875 0.113281,0.03125 0.222656,0.078125 0.328125,0.140625 0.101563,0.0625 0.203125,0.140625 0.296875,0.234375 0.101563,0.09375 0.207031,0.203125 0.3125,0.328125 L 6.640625,-5.40625 C 6.660156,-5.457031 6.695313,-5.492188 6.75,-5.515625 6.800781,-5.546875 6.898438,-5.5625 7.046875,-5.5625 c 0.070313,0 0.128906,0.00781 0.171875,0.015625 0.050781,0 0.09375,0.011719 0.125,0.03125 0.03125,0.011719 0.046875,0.027344 0.046875,0.046875 0.00781,0.011719 0.015625,0.03125 0.015625,0.0625 L 6.875,-2.71875 c -0.0625,0.335937 -0.046875,0.585937 0.046875,0.75 0.09375,0.15625 0.269531,0.234375 0.53125,0.234375 0.164063,0 0.3125,-0.035156 0.4375,-0.109375 0.125,-0.082031 0.234375,-0.191406 0.328125,-0.328125 0.101563,-0.132813 0.1875,-0.289063 0.25,-0.46875 0.070313,-0.1875 0.128906,-0.378906 0.171875,-0.578125 0.039063,-0.195313 0.070313,-0.398438 0.09375,-0.609375 C 8.753906,-4.046875 8.765625,-4.25 8.765625,-4.4375 8.765625,-4.78125 8.71875,-5.101563 8.625,-5.40625 8.53125,-5.707031 8.375,-5.972656 8.15625,-6.203125 7.9375,-6.441406 7.640625,-6.628906 7.265625,-6.765625 c -0.375,-0.132813 -0.84375,-0.203125 -1.40625,-0.203125 -0.460937,0 -0.867187,0.054687 -1.21875,0.15625 C 4.285156,-6.71875 3.96875,-6.582031 3.6875,-6.40625 3.414063,-6.238281 3.179688,-6.039063 2.984375,-5.8125 2.796875,-5.582031 2.632813,-5.335938 2.5,-5.078125 c -0.136719,0.25 -0.246094,0.511719 -0.328125,0.78125 -0.085937,0.261719 -0.148437,0.515625 -0.1875,0.765625 -0.042969,0.242187 -0.070312,0.46875 -0.078125,0.6875 -0.011719,0.21875 -0.015625,0.40625 -0.015625,0.5625 0,0.429687 0.046875,0.824219 0.140625,1.1875 0.101563,0.355469 0.273438,0.664062 0.515625,0.921875 0.25,0.2578125 0.578125,0.457031 0.984375,0.59375 0.414063,0.144531 0.9375,0.21875 1.5625,0.21875 C 5.375,0.640625 5.628906,0.625 5.859375,0.59375 6.085938,0.5625 6.285156,0.523438 6.453125,0.484375 6.628906,0.453125 6.769531,0.421875 6.875,0.390625 6.976563,0.359375 7.050781,0.34375 7.09375,0.34375 c 0.019531,0 0.035156,0.003906 0.046875,0.015625 0.019531,0.007813 0.035156,0.03125 0.046875,0.0625 0.00781,0.03125 0.015625,0.066406 0.015625,0.109375 0.00781,0.039063 0.015625,0.097656 0.015625,0.171875 0,0.050781 0,0.09375 0,0.125 0,0.039063 -0.00781,0.070313 -0.015625,0.09375 C 7.191406,0.953125 7.179688,0.976563 7.171875,1 7.160156,1.03125 7.140625,1.054688 7.109375,1.078125 7.085938,1.097656 7.019531,1.125 6.90625,1.15625 6.800781,1.195313 6.65625,1.238281 6.46875,1.28125 6.28125,1.320313 6.054688,1.351563 5.796875,1.375 5.546875,1.40625 5.269531,1.421875 4.96875,1.421875 4.238281,1.421875 3.617188,1.332031 3.109375,1.15625 2.609375,0.988281 2.195313,0.742188 1.875,0.421875 1.5625,0.109375 1.335938,-0.269531 1.203125,-0.71875 1.066406,-1.164063 1,-1.664063 1,-2.21875 1,-2.425781 1.007813,-2.660156 1.03125,-2.921875 1.050781,-3.179688 1.085938,-3.457031 1.140625,-3.75 c 0.0625,-0.300781 0.144531,-0.609375 0.25,-0.921875 0.113281,-0.3125 0.253906,-0.613281 0.421875,-0.90625 0.175781,-0.289063 0.390625,-0.566406 0.640625,-0.828125 0.25,-0.269531 0.539063,-0.503906 0.875,-0.703125 0.332031,-0.195313 0.71875,-0.347656 1.15625,-0.453125 0.4375,-0.113281 0.925781,-0.171875 1.46875,-0.171875 0.644531,0 1.195313,0.078125 1.65625,0.234375 0.46875,0.148437 0.851563,0.359375 1.15625,0.640625 0.300781,0.28125 0.523438,0.625 0.671875,1.03125 0.15625,0.398437 0.234375,0.84375 0.234375,1.34375 z m -3.390625,0.375 c -0.148437,-0.25 -0.296875,-0.4375 -0.453125,-0.5625 C 5.671875,-4.804688 5.492188,-4.875 5.296875,-4.875 c -0.167969,0 -0.320312,0.042969 -0.453125,0.125 -0.125,0.074219 -0.242187,0.171875 -0.34375,0.296875 -0.09375,0.125 -0.179687,0.273437 -0.25,0.4375 C 4.1875,-3.859375 4.132813,-3.695313 4.09375,-3.53125 4.050781,-3.363281 4.019531,-3.203125 4,-3.046875 3.976563,-2.890625 3.96875,-2.75 3.96875,-2.625 c 0,0.292969 0.050781,0.515625 0.15625,0.671875 0.101563,0.148437 0.28125,0.21875 0.53125,0.21875 C 4.75,-1.734375 4.84375,-1.75 4.9375,-1.78125 5.03125,-1.8125 5.128906,-1.859375 5.234375,-1.921875 5.347656,-1.992188 5.46875,-2.082031 5.59375,-2.1875 5.71875,-2.300781 5.851563,-2.4375 6,-2.59375 Z M 0,-7.546875 Z m 0,0"
   style="stroke:none" />
      </symbol>
      <symbol
   id="id-f0e5811e-4087-4245-a02d-e76846cc32b5"
   overflow="visible">
        <path
   id="id-6259c3a4-0217-4e08-84de-24d6233ab71c"
   d="m 1.859375,-0.140625 c 0,0.03125 -0.011719,0.0585937 -0.03125,0.078125 C 1.816406,-0.0390625 1.789063,-0.0195313 1.75,0 1.71875,0.0078125 1.671875,0.015625 1.609375,0.015625 1.546875,0.0234375 1.46875,0.03125 1.375,0.03125 1.28125,0.03125 1.203125,0.0234375 1.140625,0.015625 1.078125,0.015625 1.023438,0.0078125 0.984375,0 0.953125,-0.0195313 0.925781,-0.0390625 0.90625,-0.0625 0.894531,-0.0820313 0.890625,-0.109375 0.890625,-0.140625 V -5.40625 c 0,-0.019531 0.003906,-0.039063 0.015625,-0.0625 C 0.925781,-5.5 0.953125,-5.519531 0.984375,-5.53125 1.023438,-5.550781 1.078125,-5.5625 1.140625,-5.5625 1.203125,-5.57031 1.28125,-5.578125 1.375,-5.578125 c 0.09375,0 0.171875,0.00781 0.234375,0.015625 0.0625,0 0.109375,0.011719 0.140625,0.03125 0.039063,0.011719 0.066406,0.03125 0.078125,0.0625 0.019531,0.023437 0.03125,0.042969 0.03125,0.0625 z m 0.109375,-7.03125 c 0,0.230469 -0.046875,0.386719 -0.140625,0.46875 -0.085937,0.074219 -0.242187,0.109375 -0.46875,0.109375 -0.21875,0 -0.371094,-0.035156 -0.453125,-0.109375 -0.085937,-0.082031 -0.125,-0.234375 -0.125,-0.453125 0,-0.226563 0.039063,-0.382813 0.125,-0.46875 0.082031,-0.082031 0.238281,-0.125 0.46875,-0.125 0.226563,0 0.382813,0.042969 0.46875,0.125 0.082031,0.085937 0.125,0.234375 0.125,0.453125 z m 0,0"
   style="stroke:none" />
      </symbol>
      <symbol
   id="id-172088b0-d0cb-4d9d-938e-d7cccde9bf09"
   overflow="visible">
        <path
   id="id-1a9f52f8-5800-498f-942e-b5a79aebdf86"
   d="m 2.140625,-0.640625 c 0,0.28125 -0.046875,0.46875 -0.140625,0.5625 -0.09375,0.08203125 -0.261719,0.125 -0.5,0.125 -0.230469,0 -0.390625,-0.04296875 -0.484375,-0.125 C 0.921875,-0.171875 0.875,-0.351563 0.875,-0.625 c 0,-0.269531 0.046875,-0.453125 0.140625,-0.546875 0.09375,-0.09375 0.257813,-0.140625 0.5,-0.140625 0.238281,0 0.398438,0.046875 0.484375,0.140625 0.09375,0.09375 0.140625,0.273437 0.140625,0.53125 z m 0,0"
   style="stroke:none" />
      </symbol>
      <symbol
   id="id-e7b518ee-bae4-4a68-8af9-cb7f9925b0f1"
   overflow="visible">
        <path
   id="id-44c80d27-b800-40ec-a064-507a1ec1224e"
   d="m 4.671875,-0.953125 c 0,0.074219 -0.00781,0.136719 -0.015625,0.1875 0,0.042969 -0.00781,0.085937 -0.015625,0.125 -0.011719,0.03125 -0.023437,0.058594 -0.03125,0.078125 -0.011719,0.023437 -0.042969,0.058594 -0.09375,0.109375 -0.054687,0.054687 -0.136719,0.117187 -0.25,0.1875 -0.117187,0.074219 -0.246094,0.136719 -0.390625,0.1875 -0.148437,0.0546875 -0.308594,0.09375 -0.484375,0.125 -0.167969,0.0390625 -0.34375,0.0625 -0.53125,0.0625 -0.375,0 -0.710937,-0.0625 -1,-0.1875 C 1.566406,-0.203125 1.320313,-0.382813 1.125,-0.625 0.925781,-0.863281 0.773438,-1.15625 0.671875,-1.5 0.578125,-1.851563 0.53125,-2.253906 0.53125,-2.703125 c 0,-0.519531 0.0625,-0.960938 0.1875,-1.328125 0.125,-0.375 0.296875,-0.679688 0.515625,-0.921875 C 1.453125,-5.191406 1.707031,-5.367188 2,-5.484375 2.300781,-5.597656 2.628906,-5.65625 2.984375,-5.65625 c 0.164063,0 0.328125,0.015625 0.484375,0.046875 0.15625,0.03125 0.296875,0.074219 0.421875,0.125 C 4.023438,-5.429688 4.144531,-5.375 4.25,-5.3125 4.351563,-5.25 4.425781,-5.191406 4.46875,-5.140625 4.519531,-5.097656 4.550781,-5.0625 4.5625,-5.03125 4.582031,-5 4.597656,-4.960938 4.609375,-4.921875 c 0.019531,0.03125 0.03125,0.074219 0.03125,0.125 0,0.042969 0,0.09375 0,0.15625 C 4.640625,-4.484375 4.625,-4.375 4.59375,-4.3125 4.5625,-4.25 4.519531,-4.21875 4.46875,-4.21875 4.40625,-4.21875 4.335938,-4.25 4.265625,-4.3125 4.191406,-4.382813 4.09375,-4.457031 3.96875,-4.53125 3.851563,-4.613281 3.710938,-4.6875 3.546875,-4.75 3.378906,-4.8125 3.1875,-4.84375 2.96875,-4.84375 2.5,-4.84375 2.140625,-4.664063 1.890625,-4.3125 1.648438,-3.957031 1.53125,-3.441406 1.53125,-2.765625 c 0,0.34375 0.03125,0.648437 0.09375,0.90625 0.0625,0.25 0.15625,0.464844 0.28125,0.640625 0.125,0.167969 0.273438,0.292969 0.453125,0.375 0.1875,0.085937 0.394531,0.125 0.625,0.125 0.226563,0 0.425781,-0.035156 0.59375,-0.109375 C 3.742188,-0.898438 3.882813,-0.976563 4,-1.0625 c 0.125,-0.082031 0.226563,-0.15625 0.3125,-0.21875 0.082031,-0.070313 0.148438,-0.109375 0.203125,-0.109375 0.019531,0 0.039063,0.011719 0.0625,0.03125 0.019531,0.011719 0.035156,0.039062 0.046875,0.078125 0.019531,0.03125 0.03125,0.078125 0.03125,0.140625 0.00781,0.054687 0.015625,0.117187 0.015625,0.1875 z m 0,0"
   style="stroke:none" />
      </symbol>
      <symbol
   id="id-bdb27dfd-41f6-4204-8d7a-fc6508347e83"
   overflow="visible">
        <path
   id="id-2f0a4afd-d87a-4710-be03-a8af9cc1a9ca"
   d="m 5.78125,-2.828125 c 0,0.429687 -0.058594,0.824219 -0.171875,1.1875 C 5.492188,-1.285156 5.320313,-0.976563 5.09375,-0.71875 4.875,-0.457031 4.597656,-0.253906 4.265625,-0.109375 3.929688,0.0351563 3.539063,0.109375 3.09375,0.109375 c -0.429687,0 -0.804687,-0.0625 -1.125,-0.1875 C 1.644531,-0.210938 1.375,-0.398438 1.15625,-0.640625 0.945313,-0.890625 0.789063,-1.1875 0.6875,-1.53125 c -0.105469,-0.351563 -0.15625,-0.75 -0.15625,-1.1875 0,-0.4375 0.050781,-0.832031 0.15625,-1.1875 0.113281,-0.363281 0.28125,-0.675781 0.5,-0.9375 0.226563,-0.257813 0.507813,-0.457031 0.84375,-0.59375 0.332031,-0.144531 0.722656,-0.21875 1.171875,-0.21875 0.4375,0 0.8125,0.0625 1.125,0.1875 0.320313,0.125 0.585938,0.3125 0.796875,0.5625 0.21875,0.242187 0.378906,0.539062 0.484375,0.890625 0.113281,0.355469 0.171875,0.75 0.171875,1.1875 z m -1.015625,0.0625 C 4.765625,-3.046875 4.738281,-3.3125 4.6875,-3.5625 4.632813,-3.820313 4.546875,-4.046875 4.421875,-4.234375 4.304688,-4.421875 4.144531,-4.570313 3.9375,-4.6875 3.726563,-4.800781 3.46875,-4.859375 3.15625,-4.859375 c -0.28125,0 -0.527344,0.054687 -0.734375,0.15625 -0.199219,0.105469 -0.367187,0.25 -0.5,0.4375 -0.125,0.179687 -0.226562,0.398437 -0.296875,0.65625 -0.0625,0.25 -0.09375,0.523437 -0.09375,0.8125 0,0.292969 0.023438,0.570312 0.078125,0.828125 C 1.660156,-1.71875 1.75,-1.5 1.875,-1.3125 2,-1.125 2.160156,-0.972656 2.359375,-0.859375 c 0.207031,0.105469 0.46875,0.15625 0.78125,0.15625 0.28125,0 0.519531,-0.046875 0.71875,-0.140625 0.207031,-0.101563 0.378906,-0.242188 0.515625,-0.421875 0.132813,-0.1875 0.234375,-0.40625 0.296875,-0.65625 0.0625,-0.257813 0.09375,-0.539063 0.09375,-0.84375 z m 0,0"
   style="stroke:none" />
      </symbol>
    </g>
  </defs>
  <g
   transform="translate(-149.259,-126.64)"
   id="id-033ca623-d1bc-42a7-9550-eb668846f213">
    <g
   id="id-3f402f61-ef95-4ea3-9c52-bd8d506a6fdd"
   style="fill:#000000;fill-opacity:1">
      <g
   transform="translate(148.712,134.765)"
   id="g456"><path
   id="id-03db1d1a-f7a8-4814-96fb-d3ab1594608a"
   d="m 5.375,-3 c 0,0.15625 -0.042969,0.265625 -0.125,0.328125 -0.074219,0.0625 -0.15625,0.09375 -0.25,0.09375 H 1.5625 c 0,0.292969 0.023438,0.558594 0.078125,0.796875 0.0625,0.230469 0.160156,0.429687 0.296875,0.59375 0.132813,0.167969 0.3125,0.296875 0.53125,0.390625 0.21875,0.085937 0.484375,0.125 0.796875,0.125 0.25,0 0.46875,-0.019531 0.65625,-0.0625 C 4.117188,-0.773438 4.289063,-0.820313 4.4375,-0.875 4.582031,-0.925781 4.695313,-0.96875 4.78125,-1 4.875,-1.039063 4.945313,-1.0625 5,-1.0625 c 0.019531,0 0.039063,0.00781 0.0625,0.015625 0.019531,0.011719 0.035156,0.03125 0.046875,0.0625 0.019531,0.023437 0.03125,0.058594 0.03125,0.109375 0.00781,0.054687 0.015625,0.117187 0.015625,0.1875 0,0.042969 -0.00781,0.085937 -0.015625,0.125 0,0.042969 -0.00781,0.078125 -0.015625,0.109375 0,0.023437 -0.011719,0.046875 -0.03125,0.078125 -0.011719,0.023437 -0.027344,0.042969 -0.046875,0.0625 -0.023437,0.023437 -0.085937,0.058594 -0.1875,0.109375 C 4.753906,-0.160156 4.617188,-0.113281 4.453125,-0.0625 4.285156,-0.0195313 4.09375,0.015625 3.875,0.046875 3.65625,0.0859375 3.421875,0.109375 3.171875,0.109375 2.734375,0.109375 2.351563,0.0507813 2.03125,-0.0625 1.707031,-0.1875 1.429688,-0.367188 1.203125,-0.609375 0.984375,-0.847656 0.816406,-1.144531 0.703125,-1.5 0.597656,-1.851563 0.546875,-2.269531 0.546875,-2.75 c 0,-0.445313 0.054688,-0.847656 0.171875,-1.203125 C 0.832031,-4.316406 1,-4.625 1.21875,-4.875 1.4375,-5.132813 1.703125,-5.328125 2.015625,-5.453125 2.328125,-5.585938 2.675781,-5.65625 3.0625,-5.65625 c 0.414063,0 0.765625,0.070312 1.046875,0.203125 0.289063,0.125 0.53125,0.304687 0.71875,0.53125 0.1875,0.21875 0.320313,0.480469 0.40625,0.78125 0.09375,0.304687 0.140625,0.625 0.140625,0.96875 z M 4.40625,-3.28125 C 4.414063,-3.789063 4.300781,-4.1875 4.0625,-4.46875 3.832031,-4.757813 3.484375,-4.90625 3.015625,-4.90625 c -0.230469,0 -0.4375,0.046875 -0.625,0.140625 C 2.210938,-4.679688 2.0625,-4.566406 1.9375,-4.421875 1.820313,-4.273438 1.726563,-4.101563 1.65625,-3.90625 1.59375,-3.707031 1.5625,-3.5 1.5625,-3.28125 Z m 0,0"
   style="stroke:none" />
      </g></g>
    <g
   id="id-2654d603-9c96-4d63-82f4-23c00876b83b"
   style="fill:#000000;fill-opacity:1">
      <g
   transform="translate(154.482,134.765)"
   id="g460"><path
   id="id-84d3a0b8-8bfc-447c-8d74-94cbc703a8d8"
   d="m 4.875,-0.25 c 0.03125,0.054687 0.046875,0.101562 0.046875,0.140625 0,0.03125 -0.023437,0.0585937 -0.0625,0.078125 C 4.828125,-0.0078125 4.769531,0.00390625 4.6875,0.015625 4.613281,0.0234375 4.519531,0.03125 4.40625,0.03125 4.28125,0.03125 4.179688,0.0234375 4.109375,0.015625 4.046875,0.015625 3.992188,0.0078125 3.953125,0 3.921875,-0.0078125 3.890625,-0.0234375 3.859375,-0.046875 3.835938,-0.078125 3.820313,-0.101563 3.8125,-0.125 l -1.265625,-2.09375 -1.25,2.09375 C 1.273438,-0.101563 1.253906,-0.078125 1.234375,-0.046875 1.210938,-0.0234375 1.179688,-0.0078125 1.140625,0 1.097656,0.0078125 1.046875,0.015625 0.984375,0.015625 0.921875,0.0234375 0.832031,0.03125 0.71875,0.03125 0.601563,0.03125 0.507813,0.0234375 0.4375,0.015625 0.375,0.00390625 0.320313,-0.0078125 0.28125,-0.03125 0.25,-0.0507813 0.234375,-0.078125 0.234375,-0.109375 0.242188,-0.148438 0.265625,-0.195313 0.296875,-0.25 L 1.9375,-2.8125 0.390625,-5.28125 c -0.03125,-0.0625 -0.054687,-0.109375 -0.0625,-0.140625 0,-0.039063 0.015625,-0.070313 0.046875,-0.09375 0.039063,-0.03125 0.097656,-0.046875 0.171875,-0.046875 0.082031,-0.00781 0.1875,-0.015625 0.3125,-0.015625 0.113281,0 0.203125,0.00781 0.265625,0.015625 0.070313,0 0.125,0.00781 0.15625,0.015625 0.039063,0.011719 0.070313,0.027344 0.09375,0.046875 0.019531,0.023437 0.039063,0.046875 0.0625,0.078125 L 2.625,-3.46875 3.84375,-5.421875 c 0.00781,-0.03125 0.023438,-0.050781 0.046875,-0.0625 C 3.910156,-5.503906 3.9375,-5.519531 3.96875,-5.53125 4,-5.550781 4.046875,-5.5625 4.109375,-5.5625 c 0.0625,-0.00781 0.144531,-0.015625 0.25,-0.015625 0.113281,0 0.207031,0.00781 0.28125,0.015625 0.070313,0 0.125,0.015625 0.15625,0.046875 0.03125,0.023437 0.046875,0.054687 0.046875,0.09375 0,0.03125 -0.023437,0.078125 -0.0625,0.140625 L 3.25,-2.84375 Z m 0,0"
   style="stroke:none" />
      </g></g>
    <g
   id="id-16e36257-3556-4dc6-8746-9b74bab80a35"
   style="fill:#000000;fill-opacity:1">
      <g
   transform="translate(159.444,134.765)"
   id="g464"><path
   id="id-125af00d-f0d7-4a38-bc06-4e594b09776c"
   d="m 4.84375,-0.140625 c 0,0.0546875 -0.015625,0.0898437 -0.046875,0.109375 -0.03125,0.0234375 -0.074219,0.03515625 -0.125,0.046875 C 4.617188,0.0234375 4.539063,0.03125 4.4375,0.03125 4.332031,0.03125 4.25,0.0234375 4.1875,0.015625 4.132813,0.00390625 4.09375,-0.0078125 4.0625,-0.03125 4.03125,-0.0507813 4.015625,-0.0859375 4.015625,-0.140625 v -0.53125 C 3.785156,-0.421875 3.53125,-0.226563 3.25,-0.09375 2.96875,0.0390625 2.671875,0.109375 2.359375,0.109375 2.078125,0.109375 1.820313,0.0703125 1.59375,0 1.375,-0.0703125 1.1875,-0.175781 1.03125,-0.3125 0.875,-0.445313 0.75,-0.613281 0.65625,-0.8125 c -0.085937,-0.195313 -0.125,-0.421875 -0.125,-0.671875 0,-0.300781 0.0625,-0.554688 0.1875,-0.765625 0.125,-0.21875 0.296875,-0.398438 0.515625,-0.546875 C 1.460938,-2.941406 1.738281,-3.050781 2.0625,-3.125 2.394531,-3.195313 2.765625,-3.234375 3.171875,-3.234375 h 0.71875 v -0.40625 c 0,-0.207031 -0.023437,-0.382813 -0.0625,-0.53125 C 3.785156,-4.328125 3.71875,-4.457031 3.625,-4.5625 3.53125,-4.664063 3.40625,-4.742188 3.25,-4.796875 3.09375,-4.847656 2.90625,-4.875 2.6875,-4.875 c -0.242187,0 -0.453125,0.03125 -0.640625,0.09375 -0.1875,0.054687 -0.355469,0.117187 -0.5,0.1875 -0.136719,0.0625 -0.25,0.121094 -0.34375,0.171875 -0.09375,0.054687 -0.167969,0.078125 -0.21875,0.078125 -0.03125,0 -0.058594,-0.00391 -0.078125,-0.015625 C 0.882813,-4.378906 0.863281,-4.40625 0.84375,-4.4375 0.820313,-4.46875 0.804688,-4.503906 0.796875,-4.546875 c 0,-0.050781 0,-0.101563 0,-0.15625 0,-0.101563 0.003906,-0.179688 0.015625,-0.234375 C 0.820313,-5 0.851563,-5.050781 0.90625,-5.09375 0.96875,-5.144531 1.0625,-5.203125 1.1875,-5.265625 c 0.125,-0.070313 0.269531,-0.132813 0.4375,-0.1875 0.164063,-0.0625 0.347656,-0.109375 0.546875,-0.140625 0.195313,-0.039063 0.398438,-0.0625 0.609375,-0.0625 0.375,0 0.691406,0.042969 0.953125,0.125 0.269531,0.085937 0.484375,0.210937 0.640625,0.375 0.164063,0.167969 0.285156,0.375 0.359375,0.625 0.070313,0.242187 0.109375,0.523437 0.109375,0.84375 z M 3.890625,-2.53125 H 3.0625 c -0.261719,0 -0.492187,0.023437 -0.6875,0.0625 -0.1875,0.042969 -0.351562,0.109375 -0.484375,0.203125 -0.125,0.085937 -0.21875,0.1875 -0.28125,0.3125 -0.0625,0.117187 -0.09375,0.257812 -0.09375,0.421875 0,0.273437 0.085938,0.492187 0.265625,0.65625 0.175781,0.15625 0.421875,0.234375 0.734375,0.234375 0.25,0 0.476563,-0.0625 0.6875,-0.1875 0.21875,-0.132813 0.445313,-0.332031 0.6875,-0.59375 z m 0,0"
   style="stroke:none" />
      </g><g
   transform="translate(165.171,134.765)"
   id="g467"><path
   id="id-14b1ec5c-bf64-467b-8ed9-ec39eb5a2925"
   d="m 8.6875,-0.140625 c 0,0.03125 -0.011719,0.0585937 -0.03125,0.078125 C 8.644531,-0.0390625 8.617188,-0.0195313 8.578125,0 8.546875,0.0078125 8.5,0.015625 8.4375,0.015625 8.375,0.0234375 8.296875,0.03125 8.203125,0.03125 8.109375,0.03125 8.03125,0.0234375 7.96875,0.015625 7.90625,0.015625 7.851563,0.0078125 7.8125,0 7.78125,-0.0195313 7.753906,-0.0390625 7.734375,-0.0625 7.722656,-0.0820313 7.71875,-0.109375 7.71875,-0.140625 V -3.34375 c 0,-0.21875 -0.023437,-0.414063 -0.0625,-0.59375 C 7.613281,-4.125 7.550781,-4.28125 7.46875,-4.40625 7.382813,-4.539063 7.273438,-4.644531 7.140625,-4.71875 c -0.125,-0.070313 -0.28125,-0.109375 -0.46875,-0.109375 -0.21875,0 -0.445312,0.089844 -0.671875,0.265625 -0.21875,0.167969 -0.464844,0.417969 -0.734375,0.75 v 3.671875 c 0,0.03125 -0.011719,0.0585937 -0.03125,0.078125 C 5.222656,-0.0390625 5.195313,-0.0195313 5.15625,0 5.125,0.0078125 5.078125,0.015625 5.015625,0.015625 4.953125,0.0234375 4.875,0.03125 4.78125,0.03125 4.695313,0.03125 4.617188,0.0234375 4.546875,0.015625 4.484375,0.015625 4.429688,0.0078125 4.390625,0 4.359375,-0.0195313 4.335938,-0.0390625 4.328125,-0.0625 4.316406,-0.0820313 4.3125,-0.109375 4.3125,-0.140625 V -3.34375 C 4.3125,-3.5625 4.285156,-3.757813 4.234375,-3.9375 4.191406,-4.125 4.128906,-4.28125 4.046875,-4.40625 3.960938,-4.539063 3.851563,-4.644531 3.71875,-4.71875 3.59375,-4.789063 3.441406,-4.828125 3.265625,-4.828125 c -0.21875,0 -0.445312,0.089844 -0.671875,0.265625 -0.230469,0.167969 -0.476562,0.417969 -0.734375,0.75 v 3.671875 c 0,0.03125 -0.011719,0.0585937 -0.03125,0.078125 C 1.816406,-0.0390625 1.789063,-0.0195313 1.75,0 1.71875,0.0078125 1.671875,0.015625 1.609375,0.015625 1.546875,0.0234375 1.46875,0.03125 1.375,0.03125 1.28125,0.03125 1.203125,0.0234375 1.140625,0.015625 1.078125,0.015625 1.023438,0.0078125 0.984375,0 0.953125,-0.0195313 0.925781,-0.0390625 0.90625,-0.0625 0.894531,-0.0820313 0.890625,-0.109375 0.890625,-0.140625 V -5.40625 c 0,-0.03125 0.003906,-0.054688 0.015625,-0.078125 0.007813,-0.019531 0.03125,-0.035156 0.0625,-0.046875 0.039063,-0.019531 0.085938,-0.03125 0.140625,-0.03125 0.0625,-0.00781 0.132813,-0.015625 0.21875,-0.015625 0.082031,0 0.148438,0.00781 0.203125,0.015625 0.0625,0 0.109375,0.011719 0.140625,0.03125 0.03125,0.011719 0.050781,0.027344 0.0625,0.046875 0.019531,0.023437 0.03125,0.046875 0.03125,0.078125 v 0.703125 C 2.054688,-5.035156 2.34375,-5.273438 2.625,-5.421875 2.90625,-5.578125 3.1875,-5.65625 3.46875,-5.65625 c 0.21875,0 0.410156,0.027344 0.578125,0.078125 C 4.222656,-5.535156 4.375,-5.46875 4.5,-5.375 c 0.132813,0.09375 0.25,0.203125 0.34375,0.328125 0.09375,0.125 0.171875,0.265625 0.234375,0.421875 0.175781,-0.1875 0.34375,-0.347656 0.5,-0.484375 0.15625,-0.132813 0.304688,-0.238281 0.453125,-0.3125 0.144531,-0.082031 0.285156,-0.140625 0.421875,-0.171875 0.144531,-0.039063 0.285156,-0.0625 0.421875,-0.0625 0.34375,0 0.628906,0.058594 0.859375,0.171875 C 7.960938,-5.367188 8.144531,-5.207031 8.28125,-5 c 0.144531,0.199219 0.25,0.433594 0.3125,0.703125 0.0625,0.261719 0.09375,0.539062 0.09375,0.828125 z m 0,0"
   style="stroke:none" />
      </g><g
   transform="translate(174.72,134.765)"
   id="g470"><path
   id="id-b01f4bbc-0ad7-4893-937d-f1b6561dcc03"
   d="m 5.71875,-2.859375 c 0,0.460937 -0.054687,0.875 -0.15625,1.25 -0.09375,0.367187 -0.242187,0.679687 -0.4375,0.9375 -0.1875,0.25 -0.421875,0.445312 -0.703125,0.578125 -0.28125,0.1328125 -0.605469,0.203125 -0.96875,0.203125 -0.15625,0 -0.304687,-0.015625 -0.4375,-0.046875 C 2.878906,0.03125 2.75,-0.015625 2.625,-0.078125 2.5,-0.148438 2.375,-0.234375 2.25,-0.328125 2.125,-0.429688 1.992188,-0.550781 1.859375,-0.6875 v 2.625 c 0,0.03125 -0.011719,0.054688 -0.03125,0.078125 C 1.816406,2.035156 1.789063,2.050781 1.75,2.0625 1.71875,2.082031 1.671875,2.097656 1.609375,2.109375 1.546875,2.117188 1.46875,2.125 1.375,2.125 1.28125,2.125 1.203125,2.117188 1.140625,2.109375 1.078125,2.097656 1.023438,2.082031 0.984375,2.0625 0.953125,2.050781 0.925781,2.035156 0.90625,2.015625 0.894531,1.992188 0.890625,1.96875 0.890625,1.9375 v -7.34375 c 0,-0.03125 0.003906,-0.054688 0.015625,-0.078125 0.007813,-0.019531 0.03125,-0.035156 0.0625,-0.046875 0.039063,-0.019531 0.085938,-0.03125 0.140625,-0.03125 0.0625,-0.00781 0.128906,-0.015625 0.203125,-0.015625 0.082031,0 0.148438,0.00781 0.203125,0.015625 0.050781,0 0.09375,0.011719 0.125,0.03125 0.039063,0.011719 0.066406,0.027344 0.078125,0.046875 0.00781,0.023437 0.015625,0.046875 0.015625,0.078125 v 0.71875 c 0.164063,-0.164063 0.320313,-0.304688 0.46875,-0.421875 0.144531,-0.125 0.289063,-0.222656 0.4375,-0.296875 0.15625,-0.082031 0.3125,-0.144531 0.46875,-0.1875 0.15625,-0.039063 0.320313,-0.0625 0.5,-0.0625 0.375,0 0.695313,0.074219 0.96875,0.21875 0.269531,0.148437 0.488281,0.351562 0.65625,0.609375 0.164063,0.25 0.285156,0.546875 0.359375,0.890625 0.082031,0.34375 0.125,0.703125 0.125,1.078125 z M 4.703125,-2.75 c 0,-0.257813 -0.023437,-0.515625 -0.0625,-0.765625 C 4.609375,-3.773438 4.539063,-4 4.4375,-4.1875 4.34375,-4.382813 4.207031,-4.539063 4.03125,-4.65625 3.863281,-4.769531 3.660156,-4.828125 3.421875,-4.828125 c -0.125,0 -0.25,0.023437 -0.375,0.0625 -0.125,0.03125 -0.25,0.089844 -0.375,0.171875 -0.125,0.074219 -0.257812,0.179687 -0.390625,0.3125 C 2.144531,-4.15625 2.003906,-4 1.859375,-3.8125 v 2.09375 c 0.257813,0.324219 0.507813,0.574219 0.75,0.75 0.238281,0.167969 0.488281,0.25 0.75,0.25 0.238281,0 0.441406,-0.054688 0.609375,-0.171875 0.175781,-0.113281 0.316406,-0.269531 0.421875,-0.46875 C 4.503906,-1.554688 4.582031,-1.773438 4.625,-2.015625 4.675781,-2.253906 4.703125,-2.5 4.703125,-2.75 Z m 0,0"
   style="stroke:none" />
      </g><g
   transform="translate(181.002,134.765)"
   id="g473"><path
   id="id-a0c59a4b-c347-4e09-b46b-a2164aa8a196"
   d="m 1.859375,-0.140625 c 0,0.03125 -0.011719,0.0585937 -0.03125,0.078125 C 1.816406,-0.0390625 1.789063,-0.0195313 1.75,0 1.71875,0.0078125 1.671875,0.015625 1.609375,0.015625 1.546875,0.0234375 1.46875,0.03125 1.375,0.03125 1.28125,0.03125 1.203125,0.0234375 1.140625,0.015625 1.078125,0.015625 1.023438,0.0078125 0.984375,0 0.953125,-0.0195313 0.925781,-0.0390625 0.90625,-0.0625 0.894531,-0.0820313 0.890625,-0.109375 0.890625,-0.140625 V -7.9375 c 0,-0.03125 0.003906,-0.054688 0.015625,-0.078125 0.019531,-0.03125 0.046875,-0.050781 0.078125,-0.0625 0.039063,-0.019531 0.09375,-0.03125 0.15625,-0.03125 C 1.203125,-8.117188 1.28125,-8.125 1.375,-8.125 c 0.09375,0 0.171875,0.00781 0.234375,0.015625 0.0625,0 0.109375,0.011719 0.140625,0.03125 0.039063,0.011719 0.066406,0.03125 0.078125,0.0625 0.019531,0.023437 0.03125,0.046875 0.03125,0.078125 z m 0,0"
   style="stroke:none" />
      </g><g
   transform="translate(183.745,134.765)"
   id="g476"><path
   id="id-b1f9a5fd-5e7f-4f12-9bff-0e4bf335950b"
   d="m 5.375,-3 c 0,0.15625 -0.042969,0.265625 -0.125,0.328125 -0.074219,0.0625 -0.15625,0.09375 -0.25,0.09375 H 1.5625 c 0,0.292969 0.023438,0.558594 0.078125,0.796875 0.0625,0.230469 0.160156,0.429687 0.296875,0.59375 0.132813,0.167969 0.3125,0.296875 0.53125,0.390625 0.21875,0.085937 0.484375,0.125 0.796875,0.125 0.25,0 0.46875,-0.019531 0.65625,-0.0625 C 4.117188,-0.773438 4.289063,-0.820313 4.4375,-0.875 4.582031,-0.925781 4.695313,-0.96875 4.78125,-1 4.875,-1.039063 4.945313,-1.0625 5,-1.0625 c 0.019531,0 0.039063,0.00781 0.0625,0.015625 0.019531,0.011719 0.035156,0.03125 0.046875,0.0625 0.019531,0.023437 0.03125,0.058594 0.03125,0.109375 0.00781,0.054687 0.015625,0.117187 0.015625,0.1875 0,0.042969 -0.00781,0.085937 -0.015625,0.125 0,0.042969 -0.00781,0.078125 -0.015625,0.109375 0,0.023437 -0.011719,0.046875 -0.03125,0.078125 -0.011719,0.023437 -0.027344,0.042969 -0.046875,0.0625 -0.023437,0.023437 -0.085937,0.058594 -0.1875,0.109375 C 4.753906,-0.160156 4.617188,-0.113281 4.453125,-0.0625 4.285156,-0.0195313 4.09375,0.015625 3.875,0.046875 3.65625,0.0859375 3.421875,0.109375 3.171875,0.109375 2.734375,0.109375 2.351563,0.0507813 2.03125,-0.0625 1.707031,-0.1875 1.429688,-0.367188 1.203125,-0.609375 0.984375,-0.847656 0.816406,-1.144531 0.703125,-1.5 0.597656,-1.851563 0.546875,-2.269531 0.546875,-2.75 c 0,-0.445313 0.054688,-0.847656 0.171875,-1.203125 C 0.832031,-4.316406 1,-4.625 1.21875,-4.875 1.4375,-5.132813 1.703125,-5.328125 2.015625,-5.453125 2.328125,-5.585938 2.675781,-5.65625 3.0625,-5.65625 c 0.414063,0 0.765625,0.070312 1.046875,0.203125 0.289063,0.125 0.53125,0.304687 0.71875,0.53125 0.1875,0.21875 0.320313,0.480469 0.40625,0.78125 0.09375,0.304687 0.140625,0.625 0.140625,0.96875 z M 4.40625,-3.28125 C 4.414063,-3.789063 4.300781,-4.1875 4.0625,-4.46875 3.832031,-4.757813 3.484375,-4.90625 3.015625,-4.90625 c -0.230469,0 -0.4375,0.046875 -0.625,0.140625 C 2.210938,-4.679688 2.0625,-4.566406 1.9375,-4.421875 1.820313,-4.273438 1.726563,-4.101563 1.65625,-3.90625 1.59375,-3.707031 1.5625,-3.5 1.5625,-3.28125 Z m 0,0"
   style="stroke:none" />
      </g><g
   transform="translate(189.694,134.765)"
   id="g479"><path
   id="id-9ec1e12c-16bb-4f8d-a170-e1bd348b0277"
   d="m 9.671875,-4.484375 c 0,0.261719 -0.023437,0.53125 -0.0625,0.8125 C 9.578125,-3.398438 9.523438,-3.132813 9.453125,-2.875 9.378906,-2.613281 9.28125,-2.363281 9.15625,-2.125 9.039063,-1.894531 8.894531,-1.691406 8.71875,-1.515625 8.539063,-1.347656 8.335938,-1.210938 8.109375,-1.109375 7.878906,-1.015625 7.613281,-0.96875 7.3125,-0.96875 7.15625,-0.96875 7.007813,-0.984375 6.875,-1.015625 6.738281,-1.054688 6.613281,-1.109375 6.5,-1.171875 6.394531,-1.242188 6.304688,-1.332031 6.234375,-1.4375 6.171875,-1.550781 6.125,-1.679688 6.09375,-1.828125 c -0.15625,0.15625 -0.308594,0.292969 -0.453125,0.40625 -0.148437,0.105469 -0.292969,0.195312 -0.4375,0.265625 -0.136719,0.0625 -0.273437,0.109375 -0.40625,0.140625 -0.136719,0.03125 -0.265625,0.046875 -0.390625,0.046875 -0.167969,0 -0.320312,-0.015625 -0.453125,-0.046875 -0.125,-0.03125 -0.242187,-0.078125 -0.34375,-0.140625 -0.09375,-0.0625 -0.179687,-0.140625 -0.25,-0.234375 C 3.296875,-1.484375 3.238281,-1.585938 3.1875,-1.703125 3.144531,-1.828125 3.113281,-1.957031 3.09375,-2.09375 3.070313,-2.238281 3.0625,-2.390625 3.0625,-2.546875 3.0625,-2.710938 3.07031,-2.90625 3.09375,-3.125 3.125,-3.34375 3.171875,-3.566406 3.234375,-3.796875 c 0.0625,-0.226563 0.144531,-0.453125 0.25,-0.671875 0.113281,-0.21875 0.25,-0.410156 0.40625,-0.578125 C 4.054688,-5.222656 4.25,-5.363281 4.46875,-5.46875 4.695313,-5.582031 4.957031,-5.640625 5.25,-5.640625 c 0.125,0 0.242188,0.015625 0.359375,0.046875 0.113281,0.03125 0.222656,0.078125 0.328125,0.140625 0.101563,0.0625 0.203125,0.140625 0.296875,0.234375 0.101563,0.09375 0.207031,0.203125 0.3125,0.328125 L 6.640625,-5.40625 C 6.660156,-5.457031 6.695313,-5.492188 6.75,-5.515625 6.800781,-5.546875 6.898438,-5.5625 7.046875,-5.5625 c 0.070313,0 0.128906,0.00781 0.171875,0.015625 0.050781,0 0.09375,0.011719 0.125,0.03125 0.03125,0.011719 0.046875,0.027344 0.046875,0.046875 0.00781,0.011719 0.015625,0.03125 0.015625,0.0625 L 6.875,-2.71875 c -0.0625,0.335937 -0.046875,0.585937 0.046875,0.75 0.09375,0.15625 0.269531,0.234375 0.53125,0.234375 0.164063,0 0.3125,-0.035156 0.4375,-0.109375 0.125,-0.082031 0.234375,-0.191406 0.328125,-0.328125 0.101563,-0.132813 0.1875,-0.289063 0.25,-0.46875 0.070313,-0.1875 0.128906,-0.378906 0.171875,-0.578125 0.039063,-0.195313 0.070313,-0.398438 0.09375,-0.609375 C 8.753906,-4.046875 8.765625,-4.25 8.765625,-4.4375 8.765625,-4.78125 8.71875,-5.101563 8.625,-5.40625 8.53125,-5.707031 8.375,-5.972656 8.15625,-6.203125 7.9375,-6.441406 7.640625,-6.628906 7.265625,-6.765625 c -0.375,-0.132813 -0.84375,-0.203125 -1.40625,-0.203125 -0.460937,0 -0.867187,0.054687 -1.21875,0.15625 C 4.285156,-6.71875 3.96875,-6.582031 3.6875,-6.40625 3.414063,-6.238281 3.179688,-6.039063 2.984375,-5.8125 2.796875,-5.582031 2.632813,-5.335938 2.5,-5.078125 c -0.136719,0.25 -0.246094,0.511719 -0.328125,0.78125 -0.085937,0.261719 -0.148437,0.515625 -0.1875,0.765625 -0.042969,0.242187 -0.070312,0.46875 -0.078125,0.6875 -0.011719,0.21875 -0.015625,0.40625 -0.015625,0.5625 0,0.429687 0.046875,0.824219 0.140625,1.1875 0.101563,0.355469 0.273438,0.664062 0.515625,0.921875 0.25,0.2578125 0.578125,0.457031 0.984375,0.59375 0.414063,0.144531 0.9375,0.21875 1.5625,0.21875 C 5.375,0.640625 5.628906,0.625 5.859375,0.59375 6.085938,0.5625 6.285156,0.523438 6.453125,0.484375 6.628906,0.453125 6.769531,0.421875 6.875,0.390625 6.976563,0.359375 7.050781,0.34375 7.09375,0.34375 c 0.019531,0 0.035156,0.003906 0.046875,0.015625 0.019531,0.007813 0.035156,0.03125 0.046875,0.0625 0.00781,0.03125 0.015625,0.066406 0.015625,0.109375 0.00781,0.039063 0.015625,0.097656 0.015625,0.171875 0,0.050781 0,0.09375 0,0.125 0,0.039063 -0.00781,0.070313 -0.015625,0.09375 C 7.191406,0.953125 7.179688,0.976563 7.171875,1 7.160156,1.03125 7.140625,1.054688 7.109375,1.078125 7.085938,1.097656 7.019531,1.125 6.90625,1.15625 6.800781,1.195313 6.65625,1.238281 6.46875,1.28125 6.28125,1.320313 6.054688,1.351563 5.796875,1.375 5.546875,1.40625 5.269531,1.421875 4.96875,1.421875 4.238281,1.421875 3.617188,1.332031 3.109375,1.15625 2.609375,0.988281 2.195313,0.742188 1.875,0.421875 1.5625,0.109375 1.335938,-0.269531 1.203125,-0.71875 1.066406,-1.164063 1,-1.664063 1,-2.21875 1,-2.425781 1.007813,-2.660156 1.03125,-2.921875 1.050781,-3.179688 1.085938,-3.457031 1.140625,-3.75 c 0.0625,-0.300781 0.144531,-0.609375 0.25,-0.921875 0.113281,-0.3125 0.253906,-0.613281 0.421875,-0.90625 0.175781,-0.289063 0.390625,-0.566406 0.640625,-0.828125 0.25,-0.269531 0.539063,-0.503906 0.875,-0.703125 0.332031,-0.195313 0.71875,-0.347656 1.15625,-0.453125 0.4375,-0.113281 0.925781,-0.171875 1.46875,-0.171875 0.644531,0 1.195313,0.078125 1.65625,0.234375 0.46875,0.148437 0.851563,0.359375 1.15625,0.640625 0.300781,0.28125 0.523438,0.625 0.671875,1.03125 0.15625,0.398437 0.234375,0.84375 0.234375,1.34375 z m -3.390625,0.375 c -0.148437,-0.25 -0.296875,-0.4375 -0.453125,-0.5625 C 5.671875,-4.804688 5.492188,-4.875 5.296875,-4.875 c -0.167969,0 -0.320312,0.042969 -0.453125,0.125 -0.125,0.074219 -0.242187,0.171875 -0.34375,0.296875 -0.09375,0.125 -0.179687,0.273437 -0.25,0.4375 C 4.1875,-3.859375 4.132813,-3.695313 4.09375,-3.53125 4.050781,-3.363281 4.019531,-3.203125 4,-3.046875 3.976563,-2.890625 3.96875,-2.75 3.96875,-2.625 c 0,0.292969 0.050781,0.515625 0.15625,0.671875 0.101563,0.148437 0.28125,0.21875 0.53125,0.21875 C 4.75,-1.734375 4.84375,-1.75 4.9375,-1.78125 5.03125,-1.8125 5.128906,-1.859375 5.234375,-1.921875 5.347656,-1.992188 5.46875,-2.082031 5.59375,-2.1875 5.71875,-2.300781 5.851563,-2.4375 6,-2.59375 Z M 0,-7.546875 Z m 0,0"
   style="stroke:none" />
      </g><g
   transform="translate(200.382,134.765)"
   id="g482"><path
   id="id-fd346214-e45c-4d6e-9ca6-b20624a4e3c6"
   d="m 8.6875,-0.140625 c 0,0.03125 -0.011719,0.0585937 -0.03125,0.078125 C 8.644531,-0.0390625 8.617188,-0.0195313 8.578125,0 8.546875,0.0078125 8.5,0.015625 8.4375,0.015625 8.375,0.0234375 8.296875,0.03125 8.203125,0.03125 8.109375,0.03125 8.03125,0.0234375 7.96875,0.015625 7.90625,0.015625 7.851563,0.0078125 7.8125,0 7.78125,-0.0195313 7.753906,-0.0390625 7.734375,-0.0625 7.722656,-0.0820313 7.71875,-0.109375 7.71875,-0.140625 V -3.34375 c 0,-0.21875 -0.023437,-0.414063 -0.0625,-0.59375 C 7.613281,-4.125 7.550781,-4.28125 7.46875,-4.40625 7.382813,-4.539063 7.273438,-4.644531 7.140625,-4.71875 c -0.125,-0.070313 -0.28125,-0.109375 -0.46875,-0.109375 -0.21875,0 -0.445312,0.089844 -0.671875,0.265625 -0.21875,0.167969 -0.464844,0.417969 -0.734375,0.75 v 3.671875 c 0,0.03125 -0.011719,0.0585937 -0.03125,0.078125 C 5.222656,-0.0390625 5.195313,-0.0195313 5.15625,0 5.125,0.0078125 5.078125,0.015625 5.015625,0.015625 4.953125,0.0234375 4.875,0.03125 4.78125,0.03125 4.695313,0.03125 4.617188,0.0234375 4.546875,0.015625 4.484375,0.015625 4.429688,0.0078125 4.390625,0 4.359375,-0.0195313 4.335938,-0.0390625 4.328125,-0.0625 4.316406,-0.0820313 4.3125,-0.109375 4.3125,-0.140625 V -3.34375 C 4.3125,-3.5625 4.285156,-3.757813 4.234375,-3.9375 4.191406,-4.125 4.128906,-4.28125 4.046875,-4.40625 3.960938,-4.539063 3.851563,-4.644531 3.71875,-4.71875 3.59375,-4.789063 3.441406,-4.828125 3.265625,-4.828125 c -0.21875,0 -0.445312,0.089844 -0.671875,0.265625 -0.230469,0.167969 -0.476562,0.417969 -0.734375,0.75 v 3.671875 c 0,0.03125 -0.011719,0.0585937 -0.03125,0.078125 C 1.816406,-0.0390625 1.789063,-0.0195313 1.75,0 1.71875,0.0078125 1.671875,0.015625 1.609375,0.015625 1.546875,0.0234375 1.46875,0.03125 1.375,0.03125 1.28125,0.03125 1.203125,0.0234375 1.140625,0.015625 1.078125,0.015625 1.023438,0.0078125 0.984375,0 0.953125,-0.0195313 0.925781,-0.0390625 0.90625,-0.0625 0.894531,-0.0820313 0.890625,-0.109375 0.890625,-0.140625 V -5.40625 c 0,-0.03125 0.003906,-0.054688 0.015625,-0.078125 0.007813,-0.019531 0.03125,-0.035156 0.0625,-0.046875 0.039063,-0.019531 0.085938,-0.03125 0.140625,-0.03125 0.0625,-0.00781 0.132813,-0.015625 0.21875,-0.015625 0.082031,0 0.148438,0.00781 0.203125,0.015625 0.0625,0 0.109375,0.011719 0.140625,0.03125 0.03125,0.011719 0.050781,0.027344 0.0625,0.046875 0.019531,0.023437 0.03125,0.046875 0.03125,0.078125 v 0.703125 C 2.054688,-5.035156 2.34375,-5.273438 2.625,-5.421875 2.90625,-5.578125 3.1875,-5.65625 3.46875,-5.65625 c 0.21875,0 0.410156,0.027344 0.578125,0.078125 C 4.222656,-5.535156 4.375,-5.46875 4.5,-5.375 c 0.132813,0.09375 0.25,0.203125 0.34375,0.328125 0.09375,0.125 0.171875,0.265625 0.234375,0.421875 0.175781,-0.1875 0.34375,-0.347656 0.5,-0.484375 0.15625,-0.132813 0.304688,-0.238281 0.453125,-0.3125 0.144531,-0.082031 0.285156,-0.140625 0.421875,-0.171875 0.144531,-0.039063 0.285156,-0.0625 0.421875,-0.0625 0.34375,0 0.628906,0.058594 0.859375,0.171875 C 7.960938,-5.367188 8.144531,-5.207031 8.28125,-5 c 0.144531,0.199219 0.25,0.433594 0.3125,0.703125 0.0625,0.261719 0.09375,0.539062 0.09375,0.828125 z m 0,0"
   style="stroke:none" />
      </g><g
   transform="translate(209.932,134.765)"
   id="g485"><path
   id="id-fbb73ba4-1ad6-42e6-b1ef-8ef73cc68a13"
   d="m 4.84375,-0.140625 c 0,0.0546875 -0.015625,0.0898437 -0.046875,0.109375 -0.03125,0.0234375 -0.074219,0.03515625 -0.125,0.046875 C 4.617188,0.0234375 4.539063,0.03125 4.4375,0.03125 4.332031,0.03125 4.25,0.0234375 4.1875,0.015625 4.132813,0.00390625 4.09375,-0.0078125 4.0625,-0.03125 4.03125,-0.0507813 4.015625,-0.0859375 4.015625,-0.140625 v -0.53125 C 3.785156,-0.421875 3.53125,-0.226563 3.25,-0.09375 2.96875,0.0390625 2.671875,0.109375 2.359375,0.109375 2.078125,0.109375 1.820313,0.0703125 1.59375,0 1.375,-0.0703125 1.1875,-0.175781 1.03125,-0.3125 0.875,-0.445313 0.75,-0.613281 0.65625,-0.8125 c -0.085937,-0.195313 -0.125,-0.421875 -0.125,-0.671875 0,-0.300781 0.0625,-0.554688 0.1875,-0.765625 0.125,-0.21875 0.296875,-0.398438 0.515625,-0.546875 C 1.460938,-2.941406 1.738281,-3.050781 2.0625,-3.125 2.394531,-3.195313 2.765625,-3.234375 3.171875,-3.234375 h 0.71875 v -0.40625 c 0,-0.207031 -0.023437,-0.382813 -0.0625,-0.53125 C 3.785156,-4.328125 3.71875,-4.457031 3.625,-4.5625 3.53125,-4.664063 3.40625,-4.742188 3.25,-4.796875 3.09375,-4.847656 2.90625,-4.875 2.6875,-4.875 c -0.242187,0 -0.453125,0.03125 -0.640625,0.09375 -0.1875,0.054687 -0.355469,0.117187 -0.5,0.1875 -0.136719,0.0625 -0.25,0.121094 -0.34375,0.171875 -0.09375,0.054687 -0.167969,0.078125 -0.21875,0.078125 -0.03125,0 -0.058594,-0.00391 -0.078125,-0.015625 C 0.882813,-4.378906 0.863281,-4.40625 0.84375,-4.4375 0.820313,-4.46875 0.804688,-4.503906 0.796875,-4.546875 c 0,-0.050781 0,-0.101563 0,-0.15625 0,-0.101563 0.003906,-0.179688 0.015625,-0.234375 C 0.820313,-5 0.851563,-5.050781 0.90625,-5.09375 0.96875,-5.144531 1.0625,-5.203125 1.1875,-5.265625 c 0.125,-0.070313 0.269531,-0.132813 0.4375,-0.1875 0.164063,-0.0625 0.347656,-0.109375 0.546875,-0.140625 0.195313,-0.039063 0.398438,-0.0625 0.609375,-0.0625 0.375,0 0.691406,0.042969 0.953125,0.125 0.269531,0.085937 0.484375,0.210937 0.640625,0.375 0.164063,0.167969 0.285156,0.375 0.359375,0.625 0.070313,0.242187 0.109375,0.523437 0.109375,0.84375 z M 3.890625,-2.53125 H 3.0625 c -0.261719,0 -0.492187,0.023437 -0.6875,0.0625 -0.1875,0.042969 -0.351562,0.109375 -0.484375,0.203125 -0.125,0.085937 -0.21875,0.1875 -0.28125,0.3125 -0.0625,0.117187 -0.09375,0.257812 -0.09375,0.421875 0,0.273437 0.085938,0.492187 0.265625,0.65625 0.175781,0.15625 0.421875,0.234375 0.734375,0.234375 0.25,0 0.476563,-0.0625 0.6875,-0.1875 0.21875,-0.132813 0.445313,-0.332031 0.6875,-0.59375 z m 0,0"
   style="stroke:none" />
      </g><g
   transform="translate(215.659,134.765)"
   id="g488"><path
   id="id-7ec32387-b893-4b47-8c92-d65b36cd7654"
   d="m 1.859375,-0.140625 c 0,0.03125 -0.011719,0.0585937 -0.03125,0.078125 C 1.816406,-0.0390625 1.789063,-0.0195313 1.75,0 1.71875,0.0078125 1.671875,0.015625 1.609375,0.015625 1.546875,0.0234375 1.46875,0.03125 1.375,0.03125 1.28125,0.03125 1.203125,0.0234375 1.140625,0.015625 1.078125,0.015625 1.023438,0.0078125 0.984375,0 0.953125,-0.0195313 0.925781,-0.0390625 0.90625,-0.0625 0.894531,-0.0820313 0.890625,-0.109375 0.890625,-0.140625 V -5.40625 c 0,-0.019531 0.003906,-0.039063 0.015625,-0.0625 C 0.925781,-5.5 0.953125,-5.519531 0.984375,-5.53125 1.023438,-5.550781 1.078125,-5.5625 1.140625,-5.5625 1.203125,-5.57031 1.28125,-5.578125 1.375,-5.578125 c 0.09375,0 0.171875,0.00781 0.234375,0.015625 0.0625,0 0.109375,0.011719 0.140625,0.03125 0.039063,0.011719 0.066406,0.03125 0.078125,0.0625 0.019531,0.023437 0.03125,0.042969 0.03125,0.0625 z m 0.109375,-7.03125 c 0,0.230469 -0.046875,0.386719 -0.140625,0.46875 -0.085937,0.074219 -0.242187,0.109375 -0.46875,0.109375 -0.21875,0 -0.371094,-0.035156 -0.453125,-0.109375 -0.085937,-0.082031 -0.125,-0.234375 -0.125,-0.453125 0,-0.226563 0.039063,-0.382813 0.125,-0.46875 0.082031,-0.082031 0.238281,-0.125 0.46875,-0.125 0.226563,0 0.382813,0.042969 0.46875,0.125 0.082031,0.085937 0.125,0.234375 0.125,0.453125 z m 0,0"
   style="stroke:none" />
      </g><g
   transform="translate(218.402,134.765)"
   id="g491"><path
   id="id-d583aea8-3434-4d2c-919c-bc08675e9a7f"
   d="m 1.859375,-0.140625 c 0,0.03125 -0.011719,0.0585937 -0.03125,0.078125 C 1.816406,-0.0390625 1.789063,-0.0195313 1.75,0 1.71875,0.0078125 1.671875,0.015625 1.609375,0.015625 1.546875,0.0234375 1.46875,0.03125 1.375,0.03125 1.28125,0.03125 1.203125,0.0234375 1.140625,0.015625 1.078125,0.015625 1.023438,0.0078125 0.984375,0 0.953125,-0.0195313 0.925781,-0.0390625 0.90625,-0.0625 0.894531,-0.0820313 0.890625,-0.109375 0.890625,-0.140625 V -7.9375 c 0,-0.03125 0.003906,-0.054688 0.015625,-0.078125 0.019531,-0.03125 0.046875,-0.050781 0.078125,-0.0625 0.039063,-0.019531 0.09375,-0.03125 0.15625,-0.03125 C 1.203125,-8.117188 1.28125,-8.125 1.375,-8.125 c 0.09375,0 0.171875,0.00781 0.234375,0.015625 0.0625,0 0.109375,0.011719 0.140625,0.03125 0.039063,0.011719 0.066406,0.03125 0.078125,0.0625 0.019531,0.023437 0.03125,0.046875 0.03125,0.078125 z m 0,0"
   style="stroke:none" />
      </g><g
   transform="translate(221.146,134.765)"
   id="g494"><path
   id="id-c00d3551-c4b0-40e5-a8b7-54d7100b7709"
   d="m 2.140625,-0.640625 c 0,0.28125 -0.046875,0.46875 -0.140625,0.5625 -0.09375,0.08203125 -0.261719,0.125 -0.5,0.125 -0.230469,0 -0.390625,-0.04296875 -0.484375,-0.125 C 0.921875,-0.171875 0.875,-0.351563 0.875,-0.625 c 0,-0.269531 0.046875,-0.453125 0.140625,-0.546875 0.09375,-0.09375 0.257813,-0.140625 0.5,-0.140625 0.238281,0 0.398438,0.046875 0.484375,0.140625 0.09375,0.09375 0.140625,0.273437 0.140625,0.53125 z m 0,0"
   style="stroke:none" />
      </g><g
   transform="translate(224.163,134.765)"
   id="g497"><path
   id="id-cc224c09-bb82-46a7-a1a6-703dbec01e07"
   d="m 4.671875,-0.953125 c 0,0.074219 -0.00781,0.136719 -0.015625,0.1875 0,0.042969 -0.00781,0.085937 -0.015625,0.125 -0.011719,0.03125 -0.023437,0.058594 -0.03125,0.078125 -0.011719,0.023437 -0.042969,0.058594 -0.09375,0.109375 -0.054687,0.054687 -0.136719,0.117187 -0.25,0.1875 -0.117187,0.074219 -0.246094,0.136719 -0.390625,0.1875 -0.148437,0.0546875 -0.308594,0.09375 -0.484375,0.125 -0.167969,0.0390625 -0.34375,0.0625 -0.53125,0.0625 -0.375,0 -0.710937,-0.0625 -1,-0.1875 C 1.566406,-0.203125 1.320313,-0.382813 1.125,-0.625 0.925781,-0.863281 0.773438,-1.15625 0.671875,-1.5 0.578125,-1.851563 0.53125,-2.253906 0.53125,-2.703125 c 0,-0.519531 0.0625,-0.960938 0.1875,-1.328125 0.125,-0.375 0.296875,-0.679688 0.515625,-0.921875 C 1.453125,-5.191406 1.707031,-5.367188 2,-5.484375 2.300781,-5.597656 2.628906,-5.65625 2.984375,-5.65625 c 0.164063,0 0.328125,0.015625 0.484375,0.046875 0.15625,0.03125 0.296875,0.074219 0.421875,0.125 C 4.023438,-5.429688 4.144531,-5.375 4.25,-5.3125 4.351563,-5.25 4.425781,-5.191406 4.46875,-5.140625 4.519531,-5.097656 4.550781,-5.0625 4.5625,-5.03125 4.582031,-5 4.597656,-4.960938 4.609375,-4.921875 c 0.019531,0.03125 0.03125,0.074219 0.03125,0.125 0,0.042969 0,0.09375 0,0.15625 C 4.640625,-4.484375 4.625,-4.375 4.59375,-4.3125 4.5625,-4.25 4.519531,-4.21875 4.46875,-4.21875 4.40625,-4.21875 4.335938,-4.25 4.265625,-4.3125 4.191406,-4.382813 4.09375,-4.457031 3.96875,-4.53125 3.851563,-4.613281 3.710938,-4.6875 3.546875,-4.75 3.378906,-4.8125 3.1875,-4.84375 2.96875,-4.84375 2.5,-4.84375 2.140625,-4.664063 1.890625,-4.3125 1.648438,-3.957031 1.53125,-3.441406 1.53125,-2.765625 c 0,0.34375 0.03125,0.648437 0.09375,0.90625 0.0625,0.25 0.15625,0.464844 0.28125,0.640625 0.125,0.167969 0.273438,0.292969 0.453125,0.375 0.1875,0.085937 0.394531,0.125 0.625,0.125 0.226563,0 0.425781,-0.035156 0.59375,-0.109375 C 3.742188,-0.898438 3.882813,-0.976563 4,-1.0625 c 0.125,-0.082031 0.226563,-0.15625 0.3125,-0.21875 0.082031,-0.070313 0.148438,-0.109375 0.203125,-0.109375 0.019531,0 0.039063,0.011719 0.0625,0.03125 0.019531,0.011719 0.035156,0.039062 0.046875,0.078125 0.019531,0.03125 0.03125,0.078125 0.03125,0.140625 0.00781,0.054687 0.015625,0.117187 0.015625,0.1875 z m 0,0"
   style="stroke:none" />
      </g></g>
    <g
   id="id-e22c72f4-73d6-4ebc-84e6-f6b9f05316bb"
   style="fill:#000000;fill-opacity:1">
      <g
   transform="translate(229.124,134.765)"
   id="g501"><path
   id="id-726f7c29-0af2-418a-ad95-447826c76f00"
   d="m 5.78125,-2.828125 c 0,0.429687 -0.058594,0.824219 -0.171875,1.1875 C 5.492188,-1.285156 5.320313,-0.976563 5.09375,-0.71875 4.875,-0.457031 4.597656,-0.253906 4.265625,-0.109375 3.929688,0.0351563 3.539063,0.109375 3.09375,0.109375 c -0.429687,0 -0.804687,-0.0625 -1.125,-0.1875 C 1.644531,-0.210938 1.375,-0.398438 1.15625,-0.640625 0.945313,-0.890625 0.789063,-1.1875 0.6875,-1.53125 c -0.105469,-0.351563 -0.15625,-0.75 -0.15625,-1.1875 0,-0.4375 0.050781,-0.832031 0.15625,-1.1875 0.113281,-0.363281 0.28125,-0.675781 0.5,-0.9375 0.226563,-0.257813 0.507813,-0.457031 0.84375,-0.59375 0.332031,-0.144531 0.722656,-0.21875 1.171875,-0.21875 0.4375,0 0.8125,0.0625 1.125,0.1875 0.320313,0.125 0.585938,0.3125 0.796875,0.5625 0.21875,0.242187 0.378906,0.539062 0.484375,0.890625 0.113281,0.355469 0.171875,0.75 0.171875,1.1875 z m -1.015625,0.0625 C 4.765625,-3.046875 4.738281,-3.3125 4.6875,-3.5625 4.632813,-3.820313 4.546875,-4.046875 4.421875,-4.234375 4.304688,-4.421875 4.144531,-4.570313 3.9375,-4.6875 3.726563,-4.800781 3.46875,-4.859375 3.15625,-4.859375 c -0.28125,0 -0.527344,0.054687 -0.734375,0.15625 -0.199219,0.105469 -0.367187,0.25 -0.5,0.4375 -0.125,0.179687 -0.226562,0.398437 -0.296875,0.65625 -0.0625,0.25 -0.09375,0.523437 -0.09375,0.8125 0,0.292969 0.023438,0.570312 0.078125,0.828125 C 1.660156,-1.71875 1.75,-1.5 1.875,-1.3125 2,-1.125 2.160156,-0.972656 2.359375,-0.859375 c 0.207031,0.105469 0.46875,0.15625 0.78125,0.15625 0.28125,0 0.519531,-0.046875 0.71875,-0.140625 0.207031,-0.101563 0.378906,-0.242188 0.515625,-0.421875 0.132813,-0.1875 0.234375,-0.40625 0.296875,-0.65625 0.0625,-0.257813 0.09375,-0.539063 0.09375,-0.84375 z m 0,0"
   style="stroke:none" />
      </g><g
   transform="translate(235.428,134.765)"
   id="g504"><path
   id="id-ae7dd33e-0134-4576-ab8e-f4173f822902"
   d="m 8.6875,-0.140625 c 0,0.03125 -0.011719,0.0585937 -0.03125,0.078125 C 8.644531,-0.0390625 8.617188,-0.0195313 8.578125,0 8.546875,0.0078125 8.5,0.015625 8.4375,0.015625 8.375,0.0234375 8.296875,0.03125 8.203125,0.03125 8.109375,0.03125 8.03125,0.0234375 7.96875,0.015625 7.90625,0.015625 7.851563,0.0078125 7.8125,0 7.78125,-0.0195313 7.753906,-0.0390625 7.734375,-0.0625 7.722656,-0.0820313 7.71875,-0.109375 7.71875,-0.140625 V -3.34375 c 0,-0.21875 -0.023437,-0.414063 -0.0625,-0.59375 C 7.613281,-4.125 7.550781,-4.28125 7.46875,-4.40625 7.382813,-4.539063 7.273438,-4.644531 7.140625,-4.71875 c -0.125,-0.070313 -0.28125,-0.109375 -0.46875,-0.109375 -0.21875,0 -0.445312,0.089844 -0.671875,0.265625 -0.21875,0.167969 -0.464844,0.417969 -0.734375,0.75 v 3.671875 c 0,0.03125 -0.011719,0.0585937 -0.03125,0.078125 C 5.222656,-0.0390625 5.195313,-0.0195313 5.15625,0 5.125,0.0078125 5.078125,0.015625 5.015625,0.015625 4.953125,0.0234375 4.875,0.03125 4.78125,0.03125 4.695313,0.03125 4.617188,0.0234375 4.546875,0.015625 4.484375,0.015625 4.429688,0.0078125 4.390625,0 4.359375,-0.0195313 4.335938,-0.0390625 4.328125,-0.0625 4.316406,-0.0820313 4.3125,-0.109375 4.3125,-0.140625 V -3.34375 C 4.3125,-3.5625 4.285156,-3.757813 4.234375,-3.9375 4.191406,-4.125 4.128906,-4.28125 4.046875,-4.40625 3.960938,-4.539063 3.851563,-4.644531 3.71875,-4.71875 3.59375,-4.789063 3.441406,-4.828125 3.265625,-4.828125 c -0.21875,0 -0.445312,0.089844 -0.671875,0.265625 -0.230469,0.167969 -0.476562,0.417969 -0.734375,0.75 v 3.671875 c 0,0.03125 -0.011719,0.0585937 -0.03125,0.078125 C 1.816406,-0.0390625 1.789063,-0.0195313 1.75,0 1.71875,0.0078125 1.671875,0.015625 1.609375,0.015625 1.546875,0.0234375 1.46875,0.03125 1.375,0.03125 1.28125,0.03125 1.203125,0.0234375 1.140625,0.015625 1.078125,0.015625 1.023438,0.0078125 0.984375,0 0.953125,-0.0195313 0.925781,-0.0390625 0.90625,-0.0625 0.894531,-0.0820313 0.890625,-0.109375 0.890625,-0.140625 V -5.40625 c 0,-0.03125 0.003906,-0.054688 0.015625,-0.078125 0.007813,-0.019531 0.03125,-0.035156 0.0625,-0.046875 0.039063,-0.019531 0.085938,-0.03125 0.140625,-0.03125 0.0625,-0.00781 0.132813,-0.015625 0.21875,-0.015625 0.082031,0 0.148438,0.00781 0.203125,0.015625 0.0625,0 0.109375,0.011719 0.140625,0.03125 0.03125,0.011719 0.050781,0.027344 0.0625,0.046875 0.019531,0.023437 0.03125,0.046875 0.03125,0.078125 v 0.703125 C 2.054688,-5.035156 2.34375,-5.273438 2.625,-5.421875 2.90625,-5.578125 3.1875,-5.65625 3.46875,-5.65625 c 0.21875,0 0.410156,0.027344 0.578125,0.078125 C 4.222656,-5.535156 4.375,-5.46875 4.5,-5.375 c 0.132813,0.09375 0.25,0.203125 0.34375,0.328125 0.09375,0.125 0.171875,0.265625 0.234375,0.421875 0.175781,-0.1875 0.34375,-0.347656 0.5,-0.484375 0.15625,-0.132813 0.304688,-0.238281 0.453125,-0.3125 0.144531,-0.082031 0.285156,-0.140625 0.421875,-0.171875 0.144531,-0.039063 0.285156,-0.0625 0.421875,-0.0625 0.34375,0 0.628906,0.058594 0.859375,0.171875 C 7.960938,-5.367188 8.144531,-5.207031 8.28125,-5 c 0.144531,0.199219 0.25,0.433594 0.3125,0.703125 0.0625,0.261719 0.09375,0.539062 0.09375,0.828125 z m 0,0"
   style="stroke:none" />
      </g></g>
  </g>
</g><path
   id="path978"
   style="fill:none;stroke:#000000;stroke-width:0.245669;stroke-linecap:butt;stroke-linejoin:miter;stroke-miterlimit:4;stroke-dasharray:none;stroke-opacity:1"
   d="m -8.6666661,8.6666661 5.9999997,5.6666659 m -17.3333326,0 6,-5.6666659 m -6,-5.6666663 6.333333,5.9999996 c 2.333333,1.9999996 2.333333,1.9999996 4.6666666,0 l 6.3333329,-5.9999996" /><path
   style="fill:none;fill-opacity:1;stroke:none;stroke-width:0.417681;stroke-opacity:1"
   id="path2"
   d="m 18.201234,1.5838552 c -0.0013,-0.00165 -0.0017,-0.00375 -0.0034,-0.00497 -0.0022,-0.00204 -0.0048,-0.00254 -0.0066,-0.00458 C 17.919698,1.3057273 17.547127,1.1390728 17.136127,1.1390728 H 1.5812561 c -0.4109993,0 -0.78357135,0.1666545 -1.05506464,0.4352249 -0.002067,0.00204 -0.004998,0.00254 -0.006685,0.00458 -0.001649,0.00128 -0.002115,0.00332 -0.003348,0.00497 -0.26939702,0.2715006 -0.4364697,0.6449079 -0.4364697,1.0567426 V 13.32531 c 0,0.827845 0.67330319,1.501567 1.50156654,1.501567 H 17.136146 c 0.398051,0 0.768535,-0.155378 1.05047,-0.433971 0.003,-0.003 0.007,-0.0034 0.01043,-0.0061 0.0021,-0.0017 0.0026,-0.0043 0.0048,-0.0061 0.0043,-0.0048 0.0096,-0.0074 0.01378,-0.01169 0.01713,-0.01754 0.02465,-0.03969 0.03802,-0.05973 0.01544,-0.02298 0.03383,-0.04386 0.04427,-0.06892 0.01086,-0.0259 0.01378,-0.05346 0.01921,-0.08062 0.0049,-0.02507 0.01296,-0.04886 0.01337,-0.07435 4.17e-4,-0.02841 -0.007,-0.05513 -0.01252,-0.08311 -0.0048,-0.02506 -0.0061,-0.04971 -0.01544,-0.07351 -0.01042,-0.02631 -0.0284,-0.04886 -0.04427,-0.07309 -0.01252,-0.01921 -0.01921,-0.04093 -0.03549,-0.05847 L 12.569302,7.6244834 17.793668,2.5534083 c 0.0039,0.02882 0.0087,0.057219 0.0087,0.087295 v 9.0364957 c 0,0.230976 0.186702,0.41768 0.417681,0.41768 0.230978,0 0.417682,-0.186704 0.417682,-0.41768 V 2.6405922 c 0,-0.4118347 -0.167073,-0.785242 -0.436478,-1.0567351 z m -1.065088,0.3905321 c 0.01671,0 0.03257,0.00375 0.04929,0.00497 L 9.3568204,9.5786761 7.0123707,7.3018921 c -4.165e-4,-4.176e-4 -4.165e-4,-8.252e-4 -8.646e-4,-0.00127 -4.165e-4,-4.176e-4 -4.165e-4,-4.176e-4 -8.646e-4,-4.176e-4 L 1.5319711,1.9793465 c 0.01629,-0.00128 0.032162,-0.00497 0.049286,-0.00497 z M 0.91630635,13.336169 c -4.176e-4,-0.0039 -0.00126,-0.007 -0.00126,-0.01086 V 2.6405903 c 0,-0.029653 0.00502,-0.05806 0.00877,-0.086878 L 6.14693,7.6260407 Z m 16.34096865,0.64323 c -0.03969,0.007 -0.07979,0.01213 -0.121129,0.01213 H 1.5812562 c -0.041351,0 -0.081448,-0.0049 -0.1211278,-0.01213 L 6.7463099,8.2087068 9.0652796,10.460849 c 0.081029,0.07853 0.1862847,0.118203 0.2911245,0.118203 0.104839,0 0.2096759,-0.03926 0.2907056,-0.117786 L 11.96942,8.2074539 Z" /><path
   d="m 0.51615316,1.5838552 c 0.001241,-0.00165 0.001649,-0.00375 0.003348,-0.00497 0.002067,-0.00204 0.00459,-0.00254 0.006685,-0.00458 C 0.79767145,1.3057312 1.1702435,1.1390768 1.5812426,1.1390768 H 17.136133 c 0.410998,0 0.783569,0.1666544 1.055064,0.4352249 0.0022,0.00204 0.0049,0.00254 0.0066,0.00458 0.0017,0.00128 0.0021,0.00332 0.0034,0.00497 0.269405,0.2714931 0.436478,0.6449003 0.436478,1.056735 V 13.32531 c 0,0.827846 -0.673304,1.501567 -1.501567,1.501567 H 1.5812419 c -0.398051,0 -0.76853485,-0.155378 -1.05046993,-0.433971 -0.00294,-0.003 -0.007112,-0.0034 -0.0104414,-0.0061 -0.002067,-0.0017 -0.002523,-0.0043 -0.00459,-0.0061 -0.004172,-0.0048 -0.009606,-0.0074 -0.0137832,-0.01169 -0.0171248,-0.01754 -0.0246427,-0.03969 -0.0380096,-0.05973 -0.0154539,-0.02298 -0.0338324,-0.04386 -0.0442748,-0.06892 -0.0108596,-0.0259 -0.0137831,-0.05346 -0.0192139,-0.08062 -0.004998,-0.02507 -0.0129477,-0.04886 -0.0133649,-0.07435 -4.1762e-4,-0.02841 0.007112,-0.05513 0.0125305,-0.08311 0.00459,-0.02506 0.006258,-0.04971 0.0154539,-0.07351 0.0104424,-0.02631 0.0284026,-0.04886 0.0442748,-0.07309 0.0125305,-0.01921 0.0192139,-0.04093 0.0355033,-0.05847 L 6.148175,7.6243719 0.92381075,2.5532965 c -0.00375,0.02882 -0.00877,0.057219 -0.00877,0.087295 v 9.0365475 c 0,0.230978 -0.1867036,0.417683 -0.41768175,0.417683 -0.23097813,0 -0.41768189,-0.186705 -0.41768189,-0.417683 V 2.6405924 c 0,-0.4118348 0.16707277,-0.7852422 0.43647764,-1.0567353 z M 1.5812419,1.9743873 c -0.016707,0 -0.032579,0.00375 -0.049286,0.00497 l 7.8286106,7.5993008 2.3444475,-2.276784 c 4.18e-4,-4.177e-4 4.18e-4,-8.252e-4 8.64e-4,-0.00128 4.19e-4,-4.178e-4 4.19e-4,-4.178e-4 8.66e-4,-4.178e-4 l 5.478733,-5.320849 c -0.01628,-0.00128 -0.03216,-0.00497 -0.04929,-0.00497 z M 17.801083,13.336169 c 4.17e-4,-0.0039 0.0013,-0.007 0.0013,-0.01086 V 2.6405903 c 0,-0.029653 -0.0049,-0.058059 -0.0087,-0.086878 l -5.223139,5.0723284 z m -16.3409689,0.64323 c 0.039678,0.007 0.079778,0.01213 0.1211278,0.01213 H 17.136133 c 0.04135,0 0.08145,-0.0049 0.121126,-0.01213 L 11.971078,8.2087069 9.6521092,10.460849 c -0.081029,0.07853 -0.1862867,0.118203 -0.2911246,0.118203 -0.1048398,0 -0.2096768,-0.03926 -0.2907075,-0.117785 L 6.747966,8.207454 Z"
   id="path2-1"
   style="fill:none;fill-opacity:1;stroke:none;stroke-width:0.417681;stroke-opacity:1" /><rect
   ry="1.6666697"
   y="-10.666665"
   x="-19.999998"
   height="11.999998"
   width="17.33333"
   id="rect962-4"
   style="fill:#114b76;fill-opacity:1;fill-rule:evenodd;stroke:none;stroke-width:2;stroke-linecap:round" /><path
   d="m -8.6666661,-4.6666659 5.6666663,5.33333285 m -16.6666652,0 5.666666,-5.33333285 m -5.666666,-5.3333334 5.999999,5.6666666 c 2.333333,1.9999997 2.333333,1.9999997 4.6666659,0 l 6.0000003,-5.6666666"
   style="fill:none;stroke:#ffffff;stroke-width:1.13386;stroke-linecap:butt;stroke-linejoin:miter;stroke-miterlimit:4;stroke-dasharray:none;stroke-opacity:1"
   id="path978-3"
   sodipodi:nodetypes="cccccccc" /><path
   style="fill:none;stroke:#ffffff;stroke-width:0.377953;stroke-linecap:butt;stroke-linejoin:miter;stroke-miterlimit:4;stroke-dasharray:none;stroke-opacity:1"
   d="m -20.094487,-0.23884502 c 0,1 0.666667,1.66666602 1.666667,1.66666602 h 13.9999985 c 1,0 1.666667,-0.66666602 1.666667,-1.66666602 V -8.9055113 c 0,-0.9999999 -0.666667,-1.6666667 -1.666667,-1.6666667 H -18.42782 c -1,0 -1.666667,0.6666668 -1.666667,1.6666667 z"
   id="path971"
   sodipodi:nodetypes="ccccccccc" /><path
   d="m 11.389263,8.7454984 5.277403,4.9211676 m -15.99999938,0 L 6.0559331,8.7454984 M 0.66666662,3.6666664 6.3892662,9.0788324 c 2.3333329,1.9999996 2.3333329,1.9999996 4.6666628,0 l 5.610736,-5.412166"
   style="fill:none;stroke:#0f2b46;stroke-width:1.51181;stroke-linecap:butt;stroke-linejoin:miter;stroke-miterlimit:4;stroke-dasharray:none;stroke-opacity:1"
   id="path978-3-1"
   sodipodi:nodetypes="cccccccc" /><path
   style="fill:none;stroke:#0f2b46;stroke-width:0.377953;stroke-linecap:butt;stroke-linejoin:miter;stroke-miterlimit:4;stroke-dasharray:none;stroke-opacity:1"
   d="m 0,11.666666 c 0,1.666666 1.3333332,3 2.9999998,3 H 14.333332 c 1.666667,0 3,-1.333334 3,-3 V 5.6666663 c 0,-1.6666666 -1.333333,-2.9999998 -3,-2.9999998 l -11.3333322,0 C 1.3333332,2.6666665 0,3.9999997 0,5.6666663 Z"
   id="path971-5"
   sodipodi:nodetypes="ccccccccc" /></svg>
