<?xml version="1.0" encoding="UTF-8" standalone="no"?>
<svg
   xmlns:ns16="http://www.iki.fi/pav/software/textext/"
   xmlns:dc="http://purl.org/dc/elements/1.1/"
   xmlns:cc="http://creativecommons.org/ns#"
   xmlns:rdf="http://www.w3.org/1999/02/22-rdf-syntax-ns#"
   xmlns:svg="http://www.w3.org/2000/svg"
   xmlns="http://www.w3.org/2000/svg"
   xmlns:sodipodi="http://sodipodi.sourceforge.net/DTD/sodipodi-0.dtd"
   xmlns:inkscape="http://www.inkscape.org/namespaces/inkscape"
   inkscape:export-ydpi="200"
   inkscape:export-xdpi="200"
   inkscape:export-filename="C:\Users\Nu\Downloads\symbol_address_grey.png"
   inkscape:version="1.0 (4035a4fb49, 2020-05-01)"
   sodipodi:docname="icon_github.svg"
   xml:space="preserve"
   viewBox="0 0 16.4 16"
   height="12pt"
   width="12.3pt"
   y="0px"
   x="0px"
   id="Capa_1"
   version="1.1"><metadata
   id="metadata41"><rdf:RDF><cc:Work
       rdf:about=""><dc:format>image/svg+xml</dc:format><dc:type
         rdf:resource="http://purl.org/dc/dcmitype/StillImage" /><dc:title /></cc:Work></rdf:RDF></metadata><defs
   id="defs39">
	
<g
   id="id-fd6e5fe8-297b-47c6-b933-93412c23b6af"><symbol
     id="id-dc403cf1-0767-4722-9e0d-6ff69f2c889f"
     overflow="visible"><path
       id="id-a2d03d85-8bac-4b4c-80cc-0adfa7a43617"
       d="M 5.703125,-7.546875 V 0 H 0.25 v -7.546875 z m -0.5,7.078125 V -7.078125 H 0.75 v 6.609375 z m -0.71875,-4.515625 c 0,0.230469 -0.039062,0.433594 -0.109375,0.609375 -0.074219,0.179687 -0.171875,0.328125 -0.296875,0.453125 -0.117187,0.125 -0.257812,0.226562 -0.421875,0.296875 -0.167969,0.0625 -0.351562,0.101562 -0.546875,0.109375 L 3.078125,-2.625 c 0,0.042969 -0.03125,0.074219 -0.09375,0.09375 -0.054687,0.011719 -0.132812,0.015625 -0.234375,0.015625 -0.0625,0 -0.117187,0 -0.15625,0 C 2.5625,-2.523438 2.53125,-2.535156 2.5,-2.546875 2.476563,-2.554688 2.460938,-2.566406 2.453125,-2.578125 2.441406,-2.585938 2.4375,-2.601563 2.4375,-2.625 L 2.40625,-3.703125 C 2.394531,-3.816406 2.41406,-3.894531 2.46875,-3.9375 2.53125,-3.988281 2.609375,-4.015625 2.703125,-4.015625 h 0.09375 c 0.175781,0 0.320313,-0.019531 0.4375,-0.0625 0.125,-0.050781 0.21875,-0.117188 0.28125,-0.203125 0.070313,-0.082031 0.125,-0.179688 0.15625,-0.296875 C 3.703125,-4.691406 3.71875,-4.8125 3.71875,-4.9375 c 0,-0.289063 -0.085937,-0.519531 -0.25,-0.6875 C 3.3125,-5.789063 3.054688,-5.875 2.703125,-5.875 2.554688,-5.875 2.425781,-5.859375 2.3125,-5.828125 2.195313,-5.796875 2.09375,-5.757813 2,-5.71875 1.914063,-5.6875 1.84375,-5.65625 1.78125,-5.625 1.726563,-5.59375 1.6875,-5.578125 1.65625,-5.578125 1.644531,-5.578125 1.632813,-5.582031 1.625,-5.59375 1.613281,-5.601563 1.597656,-5.617188 1.578125,-5.640625 1.566406,-5.660156 1.554688,-5.6875 1.546875,-5.71875 c 0,-0.039063 0,-0.09375 0,-0.15625 0,-0.0625 0.00391,-0.113281 0.015625,-0.15625 0.00781,-0.039063 0.03125,-0.078125 0.0625,-0.109375 0.03125,-0.03125 0.082031,-0.0625 0.15625,-0.09375 C 1.863281,-6.273438 1.957031,-6.3125 2.0625,-6.34375 2.164063,-6.375 2.28125,-6.398438 2.40625,-6.421875 2.539063,-6.453125 2.675781,-6.46875 2.8125,-6.46875 c 0.289063,0 0.539063,0.042969 0.75,0.125 0.207031,0.074219 0.378906,0.179687 0.515625,0.3125 0.132813,0.136719 0.234375,0.292969 0.296875,0.46875 0.070313,0.179687 0.109375,0.371094 0.109375,0.578125 z m -1.28125,3.390625 c 0,0.085937 -0.011719,0.152344 -0.03125,0.203125 -0.011719,0.054687 -0.03125,0.101562 -0.0625,0.140625 -0.03125,0.03125 -0.078125,0.058594 -0.140625,0.078125 -0.054687,0.011719 -0.121094,0.015625 -0.203125,0.015625 -0.085937,0 -0.15625,-0.00391 -0.21875,-0.015625 C 2.492188,-1.191406 2.453125,-1.21875 2.421875,-1.25 2.390625,-1.289063 2.363281,-1.335938 2.34375,-1.390625 2.332031,-1.441406 2.328125,-1.507813 2.328125,-1.59375 c 0,-0.082031 0.00391,-0.148438 0.015625,-0.203125 0.019531,-0.0625 0.046875,-0.109375 0.078125,-0.140625 0.03125,-0.03125 0.070313,-0.050781 0.125,-0.0625 0.0625,-0.019531 0.132813,-0.03125 0.21875,-0.03125 0.082031,0 0.148438,0.011719 0.203125,0.03125 0.0625,0.011719 0.109375,0.03125 0.140625,0.0625 0.03125,0.03125 0.050781,0.078125 0.0625,0.140625 0.019531,0.054687 0.03125,0.121094 0.03125,0.203125 z M 0,2.3125 Z m 0,0"
       style="stroke:none" /></symbol><symbol
     id="id-f5be60a3-ec8a-4d40-adca-b1644c168989"
     overflow="visible"><path
       id="id-34adb989-7d7b-4e79-adba-f3000fbcc127"
       d="m 5.546875,-3.359375 c 0,0.074219 -0.00781,0.136719 -0.015625,0.1875 C 5.519531,-3.117188 5.503906,-3.070313 5.484375,-3.03125 5.460938,-3 5.4375,-2.972656 5.40625,-2.953125 5.382813,-2.941406 5.359375,-2.9375 5.328125,-2.9375 H 3.40625 v 2.125 c 0,0.03125 -0.011719,0.058594 -0.03125,0.078125 -0.011719,0.023437 -0.03125,0.042969 -0.0625,0.0625 -0.03125,0.011719 -0.078125,0.023437 -0.140625,0.03125 -0.054687,0.011719 -0.117187,0.015625 -0.1875,0.015625 -0.085937,0 -0.15625,-0.003906 -0.21875,-0.015625 -0.054687,-0.007813 -0.09375,-0.019531 -0.125,-0.03125 C 2.609375,-0.691406 2.582031,-0.710938 2.5625,-0.734375 2.550781,-0.753906 2.546875,-0.78125 2.546875,-0.8125 v -2.125 H 0.625 c -0.03125,0 -0.0625,-0.00391 -0.09375,-0.015625 C 0.507813,-2.972656 0.488281,-3 0.46875,-3.03125 0.445313,-3.070313 0.429688,-3.117188 0.421875,-3.171875 0.410156,-3.222656 0.40625,-3.285156 0.40625,-3.359375 c 0,-0.070313 0.003906,-0.132813 0.015625,-0.1875 0.007813,-0.050781 0.023438,-0.09375 0.046875,-0.125 C 0.488281,-3.710938 0.507813,-3.738281 0.53125,-3.75 0.5625,-3.769531 0.59375,-3.78125 0.625,-3.78125 h 1.921875 v -2.125 c 0,-0.03125 0.00391,-0.054688 0.015625,-0.078125 0.019531,-0.019531 0.046875,-0.039063 0.078125,-0.0625 0.03125,-0.019531 0.070313,-0.035156 0.125,-0.046875 0.0625,-0.00781 0.132813,-0.015625 0.21875,-0.015625 0.070313,0 0.132813,0.00781 0.1875,0.015625 0.0625,0.011719 0.109375,0.027344 0.140625,0.046875 0.03125,0.023437 0.050781,0.042969 0.0625,0.0625 0.019531,0.023437 0.03125,0.046875 0.03125,0.078125 v 2.125 h 1.921875 c 0.03125,0 0.054688,0.011719 0.078125,0.03125 0.03125,0.011719 0.054688,0.039062 0.078125,0.078125 0.019531,0.03125 0.035156,0.074219 0.046875,0.125 0.00781,0.054687 0.015625,0.117187 0.015625,0.1875 z m 0,0"
       style="stroke:none" /></symbol><symbol
     id="id-0034db17-6b4b-43d1-a925-71136526f630"
     overflow="visible"><path
       id="id-63778aa6-6ab1-4ece-84e0-5c5cddc696bc"
       d="m 5.71875,-2.140625 c 0,0.125 -0.023437,0.226562 -0.0625,0.296875 -0.042969,0.074219 -0.101562,0.109375 -0.171875,0.109375 h -0.84375 v 1.59375 c 0,0.03125 -0.011719,0.0585937 -0.03125,0.078125 C 4.597656,-0.0390625 4.570313,-0.0195313 4.53125,0 4.5,0.0078125 4.453125,0.015625 4.390625,0.015625 4.328125,0.0234375 4.242188,0.03125 4.140625,0.03125 4.046875,0.03125 3.96875,0.0234375 3.90625,0.015625 3.84375,0.015625 3.789063,0.0078125 3.75,0 3.71875,-0.0195313 3.695313,-0.0390625 3.6875,-0.0625 3.675781,-0.0820313 3.671875,-0.109375 3.671875,-0.140625 v -1.59375 h -3.125 C 0.503906,-1.734375 0.46875,-1.738281 0.4375,-1.75 0.40625,-1.757813 0.375,-1.78125 0.34375,-1.8125 0.320313,-1.84375 0.304688,-1.882813 0.296875,-1.9375 0.285156,-2 0.28125,-2.078125 0.28125,-2.171875 c 0,-0.070313 0,-0.140625 0,-0.203125 0.007813,-0.0625 0.019531,-0.113281 0.03125,-0.15625 0.007813,-0.050781 0.023438,-0.097656 0.046875,-0.140625 0.019531,-0.050781 0.039063,-0.097656 0.0625,-0.140625 l 2.71875,-4.59375 C 3.160156,-7.4375 3.1875,-7.460938 3.21875,-7.484375 3.257813,-7.503906 3.3125,-7.519531 3.375,-7.53125 3.4375,-7.550781 3.507813,-7.566406 3.59375,-7.578125 3.675781,-7.585938 3.773438,-7.59375 3.890625,-7.59375 c 0.125,0 0.234375,0.00781 0.328125,0.015625 0.101563,0.011719 0.179688,0.027344 0.234375,0.046875 0.0625,0.011719 0.109375,0.03125 0.140625,0.0625 0.03125,0.023437 0.046875,0.046875 0.046875,0.078125 V -2.5625 h 0.84375 c 0.070313,0 0.128906,0.039062 0.171875,0.109375 0.039063,0.0625 0.0625,0.167969 0.0625,0.3125 z m -2.046875,-4.5625 H 3.65625 L 1.203125,-2.5625 h 2.46875 z m 0,0"
       style="stroke:none" /></symbol><symbol
     id="id-7a55469c-8861-4813-9014-3a83879b7843"
     overflow="visible"><path
       id="id-f5c25ce6-2f34-46c3-b0c1-3d93d4926d7c"
       d="m 5.453125,-4.078125 c 0,0.335937 -0.023437,0.667969 -0.0625,1 C 5.347656,-2.742188 5.28125,-2.421875 5.1875,-2.109375 5.09375,-1.804688 4.96875,-1.519531 4.8125,-1.25 4.65625,-0.976563 4.457031,-0.738281 4.21875,-0.53125 3.976563,-0.332031 3.691406,-0.175781 3.359375,-0.0625 3.035156,0.0507813 2.65625,0.109375 2.21875,0.109375 2.050781,0.109375 1.890625,0.0976563 1.734375,0.078125 1.578125,0.0546875 1.4375,0.03125 1.3125,0 1.1875,-0.03125 1.078125,-0.0625 0.984375,-0.09375 0.898438,-0.132813 0.835938,-0.171875 0.796875,-0.203125 0.765625,-0.234375 0.738281,-0.28125 0.71875,-0.34375 0.695313,-0.40625 0.6875,-0.488281 0.6875,-0.59375 c 0,-0.082031 0.003906,-0.148438 0.015625,-0.203125 0.007813,-0.050781 0.019531,-0.085938 0.03125,-0.109375 0.007813,-0.03125 0.023438,-0.050781 0.046875,-0.0625 0.019531,-0.007813 0.046875,-0.015625 0.078125,-0.015625 0.039063,0 0.097656,0.015625 0.171875,0.046875 0.082031,0.03125 0.179688,0.070312 0.296875,0.109375 0.125,0.03125 0.265625,0.0625 0.421875,0.09375 0.15625,0.023437 0.332031,0.03125 0.53125,0.03125 0.382813,0 0.710938,-0.070313 0.984375,-0.21875 0.269531,-0.144531 0.488281,-0.335938 0.65625,-0.578125 0.164063,-0.25 0.289063,-0.535156 0.375,-0.859375 0.09375,-0.320313 0.144531,-0.660156 0.15625,-1.015625 -0.210937,0.117187 -0.460937,0.21875 -0.75,0.3125 -0.28125,0.09375 -0.609375,0.140625 -0.984375,0.140625 -0.429687,0 -0.789062,-0.054688 -1.078125,-0.171875 C 1.359375,-3.207031 1.128906,-3.363281 0.953125,-3.5625 0.785156,-3.757813 0.664063,-3.992188 0.59375,-4.265625 0.519531,-4.535156 0.484375,-4.832031 0.484375,-5.15625 c 0,-0.332031 0.046875,-0.648438 0.140625,-0.953125 0.09375,-0.300781 0.242188,-0.566406 0.453125,-0.796875 0.207031,-0.226563 0.46875,-0.410156 0.78125,-0.546875 0.320313,-0.132813 0.707031,-0.203125 1.15625,-0.203125 0.3125,0 0.585938,0.042969 0.828125,0.125 0.25,0.074219 0.460938,0.1875 0.640625,0.34375 0.175781,0.148437 0.328125,0.324219 0.453125,0.53125 0.125,0.210937 0.222656,0.449219 0.296875,0.71875 0.082031,0.273437 0.140625,0.5625 0.171875,0.875 0.03125,0.3125 0.046875,0.640625 0.046875,0.984375 z M 4.4375,-4.1875 c 0,-0.5 -0.039062,-0.914063 -0.109375,-1.25 C 4.265625,-5.78125 4.164063,-6.054688 4.03125,-6.265625 3.90625,-6.472656 3.75,-6.625 3.5625,-6.71875 3.375,-6.8125 3.160156,-6.859375 2.921875,-6.859375 c -0.261719,0 -0.480469,0.046875 -0.65625,0.140625 -0.179687,0.085937 -0.324219,0.203125 -0.4375,0.359375 -0.117187,0.15625 -0.199219,0.335937 -0.25,0.53125 C 1.523438,-5.640625 1.5,-5.441406 1.5,-5.234375 c 0,0.230469 0.019531,0.445312 0.0625,0.640625 0.050781,0.1875 0.128906,0.351562 0.234375,0.484375 0.113281,0.125 0.253906,0.226562 0.421875,0.296875 0.175781,0.074219 0.394531,0.109375 0.65625,0.109375 0.289063,0 0.570313,-0.039063 0.84375,-0.125 0.269531,-0.09375 0.507813,-0.210938 0.71875,-0.359375 z m 0,0"
       style="stroke:none" /></symbol><symbol
     id="id-c831a108-8f57-4e54-8786-24dd450f4e06"
     overflow="visible"><path
       id="id-cd87a7d2-6376-4ea2-9377-dcc77eef76c8"
       d="m 5.40625,-0.390625 c 0,0.074219 -0.00781,0.136719 -0.015625,0.1875 C 5.378906,-0.160156 5.363281,-0.125 5.34375,-0.09375 5.320313,-0.0625 5.296875,-0.0351563 5.265625,-0.015625 5.242188,-0.00390625 5.222656,0 5.203125,0 H 1.25 C 1.226563,0 1.203125,-0.00390625 1.171875,-0.015625 1.148438,-0.0351563 1.128906,-0.0625 1.109375,-0.09375 1.085938,-0.125 1.070313,-0.160156 1.0625,-0.203125 1.050781,-0.253906 1.046875,-0.316406 1.046875,-0.390625 c 0,-0.070313 0.00391,-0.132813 0.015625,-0.1875 0.00781,-0.050781 0.019531,-0.09375 0.03125,-0.125 0.019531,-0.03125 0.039063,-0.054688 0.0625,-0.078125 C 1.1875,-0.800781 1.21875,-0.8125 1.25,-0.8125 h 1.578125 v -5.734375 l -1.453125,0.875 c -0.074219,0.03125 -0.136719,0.054687 -0.1875,0.0625 C 1.144531,-5.597656 1.109375,-5.601563 1.078125,-5.625 1.054688,-5.65625 1.039063,-5.695313 1.03125,-5.75 1.019531,-5.8125 1.015625,-5.890625 1.015625,-5.984375 c 0,-0.0625 0,-0.113281 0,-0.15625 0.00781,-0.050781 0.019531,-0.09375 0.03125,-0.125 C 1.054688,-6.296875 1.070313,-6.320313 1.09375,-6.34375 1.113281,-6.375 1.144531,-6.398438 1.1875,-6.421875 L 2.921875,-7.53125 C 2.941406,-7.53906 2.960938,-7.550781 2.984375,-7.5625 3.003906,-7.57031 3.03125,-7.578125 3.0625,-7.578125 3.101563,-7.585935 3.144531,-7.59375 3.1875,-7.59375 3.238281,-7.60156 3.300781,-7.609375 3.375,-7.609375 c 0.082031,0 0.15625,0.00781 0.21875,0.015625 0.0625,0.011719 0.109375,0.023437 0.140625,0.03125 0.039063,0.011719 0.066406,0.03125 0.078125,0.0625 0.00781,0.023437 0.015625,0.042969 0.015625,0.0625 v 6.625 h 1.375 c 0.03125,0 0.054688,0.011719 0.078125,0.03125 0.03125,0.023437 0.050781,0.046875 0.0625,0.078125 0.019531,0.03125 0.035156,0.074219 0.046875,0.125 0.00781,0.054687 0.015625,0.117187 0.015625,0.1875 z m 0,0"
       style="stroke:none" /></symbol><symbol
     id="id-0133db53-3907-4edf-9350-f132f57feb94"
     overflow="visible"><path
       id="id-68ff1a3d-efa3-4dbb-b94f-b321e6b2f3c3"
       d="m 5.390625,-0.4375 c 0,0.074219 -0.00781,0.140625 -0.015625,0.203125 -0.011719,0.054687 -0.027344,0.101562 -0.046875,0.140625 -0.011719,0.03125 -0.03125,0.0585937 -0.0625,0.078125 C 5.234375,-0.00390625 5.203125,0 5.171875,0 H 1 C 0.945313,0 0.898438,-0.00390625 0.859375,-0.015625 0.816406,-0.0351563 0.78125,-0.0625 0.75,-0.09375 0.71875,-0.125 0.695313,-0.164063 0.6875,-0.21875 0.675781,-0.28125 0.671875,-0.351563 0.671875,-0.4375 c 0,-0.070313 0,-0.140625 0,-0.203125 0.007813,-0.0625 0.019531,-0.113281 0.03125,-0.15625 0.019531,-0.039063 0.046875,-0.082031 0.078125,-0.125 0.03125,-0.050781 0.070313,-0.101563 0.125,-0.15625 L 2.359375,-2.625 c 0.34375,-0.351563 0.613281,-0.671875 0.8125,-0.953125 0.207031,-0.289063 0.363281,-0.550781 0.46875,-0.78125 C 3.753906,-4.597656 3.828125,-4.8125 3.859375,-5 c 0.039063,-0.1875 0.0625,-0.363281 0.0625,-0.53125 0,-0.175781 -0.027344,-0.335938 -0.078125,-0.484375 C 3.789063,-6.160156 3.710938,-6.289063 3.609375,-6.40625 3.503906,-6.519531 3.375,-6.609375 3.21875,-6.671875 3.0625,-6.742188 2.878906,-6.78125 2.671875,-6.78125 c -0.230469,0 -0.445312,0.039062 -0.640625,0.109375 -0.1875,0.0625 -0.355469,0.136719 -0.5,0.21875 -0.136719,0.074219 -0.25,0.148437 -0.34375,0.21875 -0.09375,0.0625 -0.167969,0.09375 -0.21875,0.09375 -0.023437,0 -0.042969,-0.00391 -0.0625,-0.015625 C 0.882813,-6.175781 0.863281,-6.203125 0.84375,-6.234375 0.832031,-6.273438 0.820313,-6.320313 0.8125,-6.375 c 0,-0.0625 0,-0.132813 0,-0.21875 0,-0.0625 0,-0.113281 0,-0.15625 0,-0.039063 0.003906,-0.078125 0.015625,-0.109375 0.007813,-0.03125 0.019531,-0.054688 0.03125,-0.078125 0.019531,-0.03125 0.050781,-0.066406 0.09375,-0.109375 0.050781,-0.039063 0.132813,-0.09375 0.25,-0.15625 C 1.316406,-7.273438 1.457031,-7.34375 1.625,-7.40625 1.800781,-7.476563 1.992188,-7.535156 2.203125,-7.578125 2.410156,-7.628906 2.628906,-7.65625 2.859375,-7.65625 c 0.375,0 0.695313,0.054687 0.96875,0.15625 0.269531,0.09375 0.492188,0.234375 0.671875,0.421875 0.1875,0.179687 0.320313,0.386719 0.40625,0.625 0.09375,0.230469 0.140625,0.480469 0.140625,0.75 0,0.242187 -0.023437,0.480469 -0.0625,0.71875 -0.042969,0.242187 -0.136719,0.5 -0.28125,0.78125 -0.136719,0.28125 -0.335937,0.59375 -0.59375,0.9375 -0.261719,0.335937 -0.605469,0.726562 -1.03125,1.171875 L 1.875,-0.859375 h 3.296875 c 0.03125,0 0.054688,0.011719 0.078125,0.03125 0.03125,0.023437 0.054688,0.054687 0.078125,0.09375 0.019531,0.03125 0.035156,0.074219 0.046875,0.125 C 5.382813,-0.554688 5.390625,-0.5 5.390625,-0.4375 Z m 0,0"
       style="stroke:none" /></symbol><symbol
     id="id-2967a600-0f4f-433e-8585-594cd2e316b5"
     overflow="visible"><path
       id="id-7e9e0802-a5d3-46ac-a0ee-7630c89c5aa0"
       d="m 5.328125,-2.15625 c 0,0.34375 -0.0625,0.65625 -0.1875,0.9375 C 5.023438,-0.945313 4.851563,-0.707031 4.625,-0.5 c -0.21875,0.199219 -0.496094,0.351562 -0.828125,0.453125 -0.335937,0.1015625 -0.710937,0.15625 -1.125,0.15625 -0.25,0 -0.484375,-0.0234375 -0.703125,-0.0625 C 1.75,0.00390625 1.550781,-0.0390625 1.375,-0.09375 1.207031,-0.15625 1.066406,-0.210938 0.953125,-0.265625 c -0.117187,-0.0625 -0.1875,-0.101563 -0.21875,-0.125 -0.023437,-0.03125 -0.042969,-0.0625 -0.0625,-0.09375 -0.011719,-0.03125 -0.023437,-0.0625 -0.03125,-0.09375 C 0.628906,-0.617188 0.617188,-0.664063 0.609375,-0.71875 0.597656,-0.78125 0.59375,-0.851563 0.59375,-0.9375 c 0,-0.132813 0.015625,-0.226563 0.046875,-0.28125 0.03125,-0.0625 0.070313,-0.09375 0.125,-0.09375 0.03125,0 0.097656,0.03125 0.203125,0.09375 0.101563,0.0625 0.234375,0.132812 0.390625,0.203125 0.164063,0.074219 0.351563,0.140625 0.5625,0.203125 0.21875,0.0625 0.460938,0.09375 0.734375,0.09375 0.25,0 0.472656,-0.03125 0.671875,-0.09375 C 3.523438,-0.882813 3.6875,-0.976563 3.8125,-1.09375 3.945313,-1.21875 4.046875,-1.363281 4.109375,-1.53125 4.179688,-1.695313 4.21875,-1.875 4.21875,-2.0625 c 0,-0.21875 -0.042969,-0.410156 -0.125,-0.578125 C 4.007813,-2.816406 3.882813,-2.96875 3.71875,-3.09375 3.5625,-3.21875 3.363281,-3.3125 3.125,-3.375 2.882813,-3.4375 2.617188,-3.46875 2.328125,-3.46875 h -0.71875 c -0.03125,0 -0.0625,-0.00391 -0.09375,-0.015625 C 1.484375,-3.503906 1.457031,-3.53125 1.4375,-3.5625 1.414063,-3.59375 1.394531,-3.632813 1.375,-3.6875 1.363281,-3.738281 1.359375,-3.800781 1.359375,-3.875 c 0,-0.070313 0.00391,-0.132813 0.015625,-0.1875 0.019531,-0.050781 0.039063,-0.085938 0.0625,-0.109375 0.019531,-0.03125 0.039063,-0.050781 0.0625,-0.0625 0.03125,-0.019531 0.0625,-0.03125 0.09375,-0.03125 h 0.671875 c 0.25,0 0.472656,-0.03125 0.671875,-0.09375 0.207031,-0.070313 0.382813,-0.171875 0.53125,-0.296875 0.144531,-0.125 0.253906,-0.269531 0.328125,-0.4375 C 3.867188,-5.269531 3.90625,-5.460938 3.90625,-5.671875 3.90625,-5.828125 3.878906,-5.976563 3.828125,-6.125 3.785156,-6.269531 3.710938,-6.394531 3.609375,-6.5 3.503906,-6.601563 3.375,-6.679688 3.21875,-6.734375 c -0.15625,-0.0625 -0.339844,-0.09375 -0.546875,-0.09375 -0.230469,0 -0.4375,0.039062 -0.625,0.109375 -0.1875,0.0625 -0.355469,0.136719 -0.5,0.21875 -0.148437,0.074219 -0.273437,0.148437 -0.375,0.21875 -0.09375,0.0625 -0.164062,0.09375 -0.203125,0.09375 -0.023437,0 -0.042969,-0.00391 -0.0625,-0.015625 -0.023437,-0.00781 -0.042969,-0.03125 -0.0625,-0.0625 -0.011719,-0.03125 -0.023437,-0.070313 -0.03125,-0.125 0,-0.050781 0,-0.117188 0,-0.203125 0,-0.0625 0,-0.113281 0,-0.15625 0.007813,-0.039063 0.019531,-0.078125 0.03125,-0.109375 0.007813,-0.039063 0.019531,-0.070313 0.03125,-0.09375 0.019531,-0.03125 0.046875,-0.0625 0.078125,-0.09375 C 0.992188,-7.085938 1.070313,-7.140625 1.1875,-7.203125 1.300781,-7.273438 1.4375,-7.34375 1.59375,-7.40625 1.757813,-7.476563 1.953125,-7.535156 2.171875,-7.578125 2.390625,-7.628906 2.625,-7.65625 2.875,-7.65625 c 0.34375,0 0.644531,0.046875 0.90625,0.140625 0.269531,0.085937 0.492188,0.210937 0.671875,0.375 0.175781,0.15625 0.304688,0.351562 0.390625,0.578125 0.09375,0.230469 0.140625,0.480469 0.140625,0.75 0,0.242187 -0.03125,0.464844 -0.09375,0.671875 -0.0625,0.199219 -0.15625,0.382812 -0.28125,0.546875 -0.117187,0.15625 -0.261719,0.292969 -0.4375,0.40625 -0.179687,0.105469 -0.382812,0.179687 -0.609375,0.21875 v 0.015625 c 0.257813,0.023437 0.5,0.085937 0.71875,0.1875 C 4.5,-3.660156 4.6875,-3.53125 4.84375,-3.375 5,-3.21875 5.117188,-3.035156 5.203125,-2.828125 c 0.082031,0.210937 0.125,0.433594 0.125,0.671875 z m 0,0"
       style="stroke:none" /></symbol><symbol
     id="id-a5c868f0-ee9e-4cfe-9e76-23b054609a8b"
     overflow="visible"><path
       id="id-244f8768-43f2-4462-b5d6-67a6e4d99b88"
       d="m 5.359375,-2.421875 c 0,0.398437 -0.070312,0.757812 -0.203125,1.078125 -0.136719,0.3125 -0.328125,0.578125 -0.578125,0.796875 C 4.328125,-0.335938 4.03125,-0.175781 3.6875,-0.0625 3.34375,0.0507813 2.957031,0.109375 2.53125,0.109375 2.300781,0.109375 2.082031,0.09375 1.875,0.0625 1.664063,0.03125 1.476563,-0.0078125 1.3125,-0.0625 1.144531,-0.113281 1.007813,-0.160156 0.90625,-0.203125 0.800781,-0.253906 0.734375,-0.289063 0.703125,-0.3125 0.679688,-0.34375 0.660156,-0.367188 0.640625,-0.390625 0.628906,-0.410156 0.617188,-0.4375 0.609375,-0.46875 0.597656,-0.507813 0.59375,-0.550781 0.59375,-0.59375 c 0,-0.050781 0,-0.113281 0,-0.1875 0,-0.0625 0,-0.117188 0,-0.171875 0.007813,-0.050781 0.019531,-0.09375 0.03125,-0.125 0.019531,-0.039063 0.039063,-0.066406 0.0625,-0.078125 0.019531,-0.019531 0.046875,-0.03125 0.078125,-0.03125 0.03125,0 0.085938,0.027344 0.171875,0.078125 0.082031,0.054687 0.191406,0.105469 0.328125,0.15625 0.144531,0.054687 0.316406,0.105469 0.515625,0.15625 0.207031,0.054687 0.453125,0.078125 0.734375,0.078125 0.257813,0 0.492188,-0.03125 0.703125,-0.09375 0.21875,-0.0625 0.40625,-0.15625 0.5625,-0.28125 0.164063,-0.132813 0.289063,-0.300781 0.375,-0.5 0.09375,-0.207031 0.140625,-0.453125 0.140625,-0.734375 0,-0.25 -0.042969,-0.460938 -0.125,-0.640625 -0.074219,-0.1875 -0.1875,-0.34375 -0.34375,-0.46875 -0.15625,-0.125 -0.355469,-0.210938 -0.59375,-0.265625 -0.242187,-0.0625 -0.527344,-0.09375 -0.859375,-0.09375 -0.242187,0 -0.449219,0.011719 -0.625,0.03125 -0.167969,0.023437 -0.324219,0.03125 -0.46875,0.03125 -0.117187,0 -0.199219,-0.019531 -0.25,-0.0625 -0.042969,-0.050781 -0.0625,-0.148438 -0.0625,-0.296875 v -3.078125 c 0,-0.125 0.03125,-0.21875 0.09375,-0.28125 0.0625,-0.0625 0.148438,-0.09375 0.265625,-0.09375 h 3.34375 c 0.03125,0 0.054688,0.011719 0.078125,0.03125 0.03125,0.011719 0.054688,0.039062 0.078125,0.078125 0.019531,0.03125 0.035156,0.074219 0.046875,0.125 0.00781,0.054687 0.015625,0.117187 0.015625,0.1875 0,0.148437 -0.023437,0.261719 -0.0625,0.34375 -0.03125,0.074219 -0.085937,0.109375 -0.15625,0.109375 H 1.84375 V -4.5625 c 0.132813,-0.019531 0.273438,-0.03125 0.421875,-0.03125 0.144531,0 0.3125,0 0.5,0 0.425781,0 0.800781,0.054687 1.125,0.15625 0.320313,0.09375 0.59375,0.242187 0.8125,0.4375 0.21875,0.1875 0.378906,0.417969 0.484375,0.6875 0.113281,0.261719 0.171875,0.558594 0.171875,0.890625 z m 0,0"
       style="stroke:none" /></symbol><symbol
     id="id-4f5edd80-6de7-444f-a6d8-a7fc1ea6f912"
     overflow="visible"><path
       id="id-18af7c60-503f-4594-9fc0-919187464d31"
       d="m 5.578125,-2.453125 c 0,0.335937 -0.054687,0.65625 -0.15625,0.96875 -0.09375,0.3125 -0.246094,0.589844 -0.453125,0.828125 -0.210937,0.230469 -0.476562,0.417969 -0.796875,0.5625 C 3.847656,0.0390625 3.460938,0.109375 3.015625,0.109375 2.703125,0.109375 2.425781,0.0703125 2.1875,0 1.945313,-0.0820313 1.738281,-0.191406 1.5625,-0.328125 1.382813,-0.472656 1.234375,-0.648438 1.109375,-0.859375 0.992188,-1.078125 0.898438,-1.316406 0.828125,-1.578125 0.753906,-1.847656 0.703125,-2.144531 0.671875,-2.46875 0.640625,-2.789063 0.625,-3.132813 0.625,-3.5 c 0,-0.320313 0.015625,-0.644531 0.046875,-0.96875 0.039063,-0.332031 0.101563,-0.648438 0.1875,-0.953125 0.09375,-0.3125 0.210938,-0.601563 0.359375,-0.875 C 1.375,-6.566406 1.566406,-6.800781 1.796875,-7 c 0.238281,-0.207031 0.519531,-0.367188 0.84375,-0.484375 0.320313,-0.113281 0.695313,-0.171875 1.125,-0.171875 0.144531,0 0.289063,0.011719 0.4375,0.03125 0.144531,0.011719 0.28125,0.03125 0.40625,0.0625 0.125,0.03125 0.226563,0.070312 0.3125,0.109375 0.082031,0.03125 0.140625,0.058594 0.171875,0.078125 0.03125,0.023437 0.050781,0.046875 0.0625,0.078125 0.00781,0.023437 0.019531,0.046875 0.03125,0.078125 0.00781,0.023437 0.015625,0.054687 0.015625,0.09375 0.00781,0.03125 0.015625,0.078125 0.015625,0.140625 0,0.0625 -0.00781,0.121094 -0.015625,0.171875 0,0.054687 -0.00781,0.09375 -0.015625,0.125 C 5.175781,-6.65625 5.15625,-6.628906 5.125,-6.609375 5.101563,-6.597656 5.078125,-6.59375 5.046875,-6.59375 5.003906,-6.59375 4.945313,-6.601563 4.875,-6.625 4.800781,-6.65625 4.710938,-6.6875 4.609375,-6.71875 4.503906,-6.757813 4.375,-6.789063 4.21875,-6.8125 4.070313,-6.84375 3.898438,-6.859375 3.703125,-6.859375 c -0.367187,0 -0.679687,0.074219 -0.9375,0.21875 -0.261719,0.148437 -0.476562,0.34375 -0.640625,0.59375 -0.167969,0.25 -0.292969,0.542969 -0.375,0.875 -0.074219,0.324219 -0.117187,0.667969 -0.125,1.03125 0.101563,-0.0625 0.21875,-0.117188 0.34375,-0.171875 0.125,-0.0625 0.257813,-0.113281 0.40625,-0.15625 0.15625,-0.050781 0.316406,-0.09375 0.484375,-0.125 0.164063,-0.03125 0.34375,-0.046875 0.53125,-0.046875 0.40625,0 0.75,0.058594 1.03125,0.171875 0.28125,0.117187 0.503906,0.273437 0.671875,0.46875 0.175781,0.1875 0.300781,0.417969 0.375,0.6875 0.070313,0.273437 0.109375,0.558594 0.109375,0.859375 z M 4.5625,-2.359375 C 4.5625,-2.578125 4.539063,-2.78125 4.5,-2.96875 4.457031,-3.15625 4.382813,-3.3125 4.28125,-3.4375 4.175781,-3.5625 4.035156,-3.660156 3.859375,-3.734375 3.679688,-3.804688 3.460938,-3.84375 3.203125,-3.84375 c -0.136719,0 -0.277344,0.015625 -0.421875,0.046875 -0.148437,0.023437 -0.289062,0.058594 -0.421875,0.109375 -0.136719,0.042969 -0.265625,0.09375 -0.390625,0.15625 -0.117187,0.054687 -0.226562,0.117187 -0.328125,0.1875 0,0.5 0.03125,0.921875 0.09375,1.265625 0.0625,0.335937 0.15625,0.605469 0.28125,0.8125 0.125,0.199219 0.273438,0.34375 0.453125,0.4375 0.1875,0.085937 0.398438,0.125 0.640625,0.125 0.25,0 0.460938,-0.046875 0.640625,-0.140625 C 3.9375,-0.9375 4.09375,-1.0625 4.21875,-1.21875 4.34375,-1.375 4.429688,-1.550781 4.484375,-1.75 4.535156,-1.945313 4.5625,-2.148438 4.5625,-2.359375 Z m 0,0"
       style="stroke:none" /></symbol><symbol
     id="id-a6088dfc-6d25-45eb-b93b-65f93d336f8c"
     overflow="visible"><path
       id="id-4451fca6-21de-4ee4-af5a-8c3d37417baa"
       d="m 5.5,-7.125 c 0,0.074219 -0.00781,0.140625 -0.015625,0.203125 0,0.054687 -0.00781,0.105469 -0.015625,0.15625 -0.011719,0.054687 -0.027344,0.105469 -0.046875,0.15625 C 5.410156,-6.566406 5.394531,-6.519531 5.375,-6.46875 L 2.65625,-0.1875 C 2.632813,-0.144531 2.609375,-0.109375 2.578125,-0.078125 2.546875,-0.046875 2.507813,-0.0195313 2.46875,0 2.425781,0.0078125 2.367188,0.015625 2.296875,0.015625 2.222656,0.0234375 2.132813,0.03125 2.03125,0.03125 1.90625,0.03125 1.800781,0.0234375 1.71875,0.015625 1.644531,0.00390625 1.59375,-0.0078125 1.5625,-0.03125 1.53125,-0.0625 1.515625,-0.09375 1.515625,-0.125 1.523438,-0.164063 1.539063,-0.210938 1.5625,-0.265625 l 2.859375,-6.40625 h -3.625 c -0.074219,0 -0.132812,-0.035156 -0.171875,-0.109375 -0.03125,-0.082031 -0.046875,-0.191406 -0.046875,-0.328125 0,-0.070313 0.003906,-0.132813 0.015625,-0.1875 0.007813,-0.0625 0.023438,-0.109375 0.046875,-0.140625 0.019531,-0.039063 0.039063,-0.066406 0.0625,-0.078125 0.03125,-0.019531 0.0625,-0.03125 0.09375,-0.03125 h 4.40625 c 0.050781,0 0.097656,0.00781 0.140625,0.015625 0.039063,0.011719 0.070313,0.039062 0.09375,0.078125 0.019531,0.03125 0.035156,0.074219 0.046875,0.125 C 5.492188,-7.273438 5.5,-7.207031 5.5,-7.125 Z m 0,0"
       style="stroke:none" /></symbol><symbol
     id="id-58f679f8-5209-4e47-8641-a77abd03e838"
     overflow="visible"><path
       id="id-111ab4d8-2a10-4ced-8c29-48cad34327d0"
       d="m 5.5625,-1.9375 c 0,0.324219 -0.058594,0.617187 -0.171875,0.875 -0.117187,0.25 -0.28125,0.464844 -0.5,0.640625 -0.21875,0.179687 -0.492187,0.3125 -0.8125,0.40625 -0.324219,0.0820313 -0.695312,0.125 -1.109375,0.125 -0.398437,0 -0.75,-0.0429687 -1.0625,-0.125 C 1.601563,-0.0976563 1.34375,-0.21875 1.125,-0.375 0.914063,-0.53125 0.753906,-0.722656 0.640625,-0.953125 c -0.105469,-0.238281 -0.15625,-0.507813 -0.15625,-0.8125 0,-0.238281 0.035156,-0.457031 0.109375,-0.65625 C 0.675781,-2.617188 0.789063,-2.800781 0.9375,-2.96875 1.082031,-3.132813 1.257813,-3.289063 1.46875,-3.4375 1.6875,-3.582031 1.925781,-3.722656 2.1875,-3.859375 1.957031,-3.972656 1.753906,-4.097656 1.578125,-4.234375 1.398438,-4.367188 1.25,-4.515625 1.125,-4.671875 1,-4.828125 0.898438,-4.992188 0.828125,-5.171875 0.765625,-5.359375 0.734375,-5.554688 0.734375,-5.765625 0.734375,-6.023438 0.78125,-6.269531 0.875,-6.5 0.976563,-6.738281 1.125,-6.941406 1.3125,-7.109375 1.507813,-7.273438 1.753906,-7.40625 2.046875,-7.5 2.347656,-7.601563 2.695313,-7.65625 3.09375,-7.65625 c 0.382813,0 0.710938,0.046875 0.984375,0.140625 0.28125,0.085937 0.507813,0.203125 0.6875,0.359375 0.1875,0.15625 0.320313,0.34375 0.40625,0.5625 0.082031,0.210937 0.125,0.4375 0.125,0.6875 0,0.199219 -0.03125,0.390625 -0.09375,0.578125 -0.0625,0.179687 -0.15625,0.351562 -0.28125,0.515625 -0.125,0.167969 -0.28125,0.324219 -0.46875,0.46875 -0.179687,0.136719 -0.382812,0.265625 -0.609375,0.390625 0.269531,0.136719 0.515625,0.277344 0.734375,0.421875 0.21875,0.136719 0.398438,0.289062 0.546875,0.453125 0.144531,0.167969 0.253906,0.34375 0.328125,0.53125 0.070313,0.1875 0.109375,0.390625 0.109375,0.609375 z m -1.25,-3.875 C 4.3125,-5.976563 4.28125,-6.125 4.21875,-6.25 4.164063,-6.382813 4.082031,-6.5 3.96875,-6.59375 3.863281,-6.6875 3.726563,-6.753906 3.5625,-6.796875 3.40625,-6.847656 3.222656,-6.875 3.015625,-6.875 c -0.417969,0 -0.734375,0.09375 -0.953125,0.28125 -0.21875,0.1875 -0.328125,0.449219 -0.328125,0.78125 0,0.15625 0.023438,0.304687 0.078125,0.4375 0.050781,0.125 0.132813,0.246094 0.25,0.359375 0.113281,0.117187 0.253906,0.230469 0.421875,0.34375 0.164063,0.105469 0.367188,0.21875 0.609375,0.34375 C 3.476563,-4.535156 3.773438,-4.757813 3.984375,-5 4.203125,-5.25 4.3125,-5.519531 4.3125,-5.8125 Z m 0.234375,3.984375 c 0,-0.175781 -0.03125,-0.335938 -0.09375,-0.484375 -0.0625,-0.144531 -0.164062,-0.28125 -0.296875,-0.40625 -0.136719,-0.132813 -0.308594,-0.257813 -0.515625,-0.375 -0.199219,-0.125 -0.429687,-0.25 -0.6875,-0.375 -0.25,0.125 -0.46875,0.25 -0.65625,0.375 -0.179687,0.117187 -0.328125,0.242187 -0.453125,0.375 -0.117187,0.125 -0.203125,0.261719 -0.265625,0.40625 C 1.523438,-2.175781 1.5,-2.023438 1.5,-1.859375 c 0,0.375 0.125,0.667969 0.375,0.875 0.257813,0.210937 0.648438,0.3125 1.171875,0.3125 0.488281,0 0.859375,-0.101563 1.109375,-0.3125 0.257813,-0.207031 0.390625,-0.488281 0.390625,-0.84375 z m 0,0"
       style="stroke:none" /></symbol><symbol
     id="id-3afc905a-b533-4507-b7bf-050df5ccc3f1"
     overflow="visible"><path
       id="id-ee67b0f0-df70-4a9f-a4d4-a358200c0d26"
       d="m 5.640625,-3.796875 c 0,0.585937 -0.046875,1.117187 -0.140625,1.59375 C 5.414063,-1.722656 5.265625,-1.3125 5.046875,-0.96875 4.835938,-0.625 4.5625,-0.359375 4.21875,-0.171875 3.875,0.015625 3.453125,0.109375 2.953125,0.109375 c -0.480469,0 -0.882812,-0.0859375 -1.203125,-0.25 -0.324219,-0.164063 -0.585937,-0.414063 -0.78125,-0.75 -0.199219,-0.332031 -0.339844,-0.738281 -0.421875,-1.21875 -0.085937,-0.476563 -0.125,-1.03125 -0.125,-1.65625 0,-0.570313 0.046875,-1.097656 0.140625,-1.578125 C 0.65625,-5.820313 0.804688,-6.234375 1.015625,-6.578125 1.222656,-6.921875 1.5,-7.1875 1.84375,-7.375 2.1875,-7.5625 2.609375,-7.65625 3.109375,-7.65625 c 0.476563,0 0.878906,0.085937 1.203125,0.25 0.320313,0.167969 0.582031,0.417969 0.78125,0.75 0.195313,0.324219 0.335938,0.726562 0.421875,1.203125 0.082031,0.480469 0.125,1.03125 0.125,1.65625 z M 4.609375,-3.71875 C 4.609375,-4.101563 4.59375,-4.441406 4.5625,-4.734375 4.539063,-5.035156 4.503906,-5.300781 4.453125,-5.53125 4.398438,-5.757813 4.332031,-5.957031 4.25,-6.125 4.164063,-6.289063 4.066406,-6.425781 3.953125,-6.53125 c -0.117187,-0.101563 -0.25,-0.179688 -0.40625,-0.234375 -0.148437,-0.050781 -0.3125,-0.078125 -0.5,-0.078125 -0.335937,0 -0.605469,0.078125 -0.8125,0.234375 C 2.035156,-6.453125 1.875,-6.238281 1.75,-5.96875 1.632813,-5.695313 1.554688,-5.375 1.515625,-5 c -0.042969,0.367187 -0.0625,0.757812 -0.0625,1.171875 0,0.5625 0.023438,1.042969 0.078125,1.4375 0.0625,0.398437 0.15625,0.71875 0.28125,0.96875 0.125,0.25 0.285156,0.433594 0.484375,0.546875 0.195313,0.105469 0.4375,0.15625 0.71875,0.15625 0.21875,0 0.40625,-0.03125 0.5625,-0.09375 C 3.742188,-0.882813 3.882813,-0.984375 4,-1.109375 c 0.125,-0.132813 0.222656,-0.289063 0.296875,-0.46875 0.082031,-0.1875 0.144531,-0.390625 0.1875,-0.609375 0.050781,-0.226563 0.082031,-0.46875 0.09375,-0.71875 0.019531,-0.257813 0.03125,-0.53125 0.03125,-0.8125 z m 0,0"
       style="stroke:none" /></symbol></g></defs><sodipodi:namedview
   inkscape:current-layer="Capa_1"
   inkscape:window-maximized="0"
   inkscape:window-y="0"
   inkscape:window-x="952"
   inkscape:cy="23.167686"
   inkscape:cx="16.298424"
   inkscape:zoom="10.390377"
   fit-margin-bottom="0"
   fit-margin-right="0"
   fit-margin-left="0"
   fit-margin-top="0"
   showgrid="true"
   id="namedview37"
   inkscape:window-height="991"
   inkscape:window-width="958"
   inkscape:pageshadow="2"
   inkscape:pageopacity="0"
   guidetolerance="10"
   gridtolerance="10"
   objecttolerance="10"
   borderopacity="1"
   bordercolor="#666666"
   pagecolor="#ffffff"
   inkscape:document-rotation="0"
   inkscape:document-units="mm"
   units="pt"
   inkscape:snap-bbox="true"
   inkscape:snap-nodes="false"
   inkscape:bbox-nodes="true"><inkscape:grid
     type="xygrid"
     id="grid1027"
     units="pt"
     spacingx="0.33333333"
     spacingy="0.33333333"
     empspacing="4" /></sodipodi:namedview>

<g
   transform="translate(-126)"
   id="g6">
</g>
<g
   transform="translate(-126)"
   id="g8">
</g>
<g
   transform="translate(-126)"
   id="g10">
</g>
<g
   transform="translate(-126)"
   id="g12">
</g>
<g
   transform="translate(-126)"
   id="g14">
</g>
<g
   transform="translate(-126)"
   id="g16">
</g>
<g
   transform="translate(-126)"
   id="g18">
</g>
<g
   transform="translate(-126)"
   id="g20">
</g>
<g
   transform="translate(-126)"
   id="g22">
</g>
<g
   transform="translate(-126)"
   id="g24">
</g>
<g
   transform="translate(-126)"
   id="g26">
</g>
<g
   transform="translate(-126)"
   id="g28">
</g>
<g
   transform="translate(-126)"
   id="g30">
</g>
<g
   transform="translate(-126)"
   id="g32">
</g>
<g
   transform="translate(-126)"
   id="g34">
</g>
<g
   transform="matrix(1.33333,0,0,1.33333,19.67762,2.54447)"
   ns16:version="1.0.1"
   ns16:texconverter="lualatex"
   ns16:pdfconverter="inkscape"
   ns16:text="\\setmainfont{Calibri}\n\\fontsize{12pt}{12pt}\\selectfont\ngithubAlias"
   ns16:preamble="C:\\Users\\Nu\\AppData\\Roaming\\inkscape\\extensions\\textext\\packages_opti.tex"
   ns16:scale="1.0000001033466286"
   ns16:alignment="middle center"
   ns16:inkscapeversion="1.0"
   ns16:jacobian_sqrt="1.33333"
   id="g1010"><defs
   id="id-77e3767b-2c03-4841-a066-43dc30136676">
    <g
   id="id-aa0d01ca-1f3e-4ef4-8b20-566f6052cf23">
      <symbol
   id="id-0dc80fed-4644-4cff-8a49-c818c85632e4"
   overflow="visible">
        <path
   id="id-433b5ac4-3824-4794-ad19-053a2ff6ae37"
   d="M 5.703125,-7.546875 V 0 H 0.25 v -7.546875 z m -0.5,7.078125 V -7.078125 H 0.75 v 6.609375 z m -0.71875,-4.515625 c 0,0.230469 -0.039062,0.433594 -0.109375,0.609375 -0.074219,0.179687 -0.171875,0.328125 -0.296875,0.453125 -0.117187,0.125 -0.257812,0.226562 -0.421875,0.296875 -0.167969,0.0625 -0.351562,0.101562 -0.546875,0.109375 L 3.078125,-2.625 c 0,0.042969 -0.03125,0.074219 -0.09375,0.09375 -0.054687,0.011719 -0.132812,0.015625 -0.234375,0.015625 -0.0625,0 -0.117187,0 -0.15625,0 C 2.5625,-2.523438 2.53125,-2.535156 2.5,-2.546875 2.476563,-2.554688 2.460938,-2.566406 2.453125,-2.578125 2.441406,-2.585938 2.4375,-2.601563 2.4375,-2.625 L 2.40625,-3.703125 C 2.394531,-3.816406 2.41406,-3.894531 2.46875,-3.9375 2.53125,-3.988281 2.609375,-4.015625 2.703125,-4.015625 h 0.09375 c 0.175781,0 0.320313,-0.019531 0.4375,-0.0625 0.125,-0.050781 0.21875,-0.117188 0.28125,-0.203125 0.070313,-0.082031 0.125,-0.179688 0.15625,-0.296875 C 3.703125,-4.691406 3.71875,-4.8125 3.71875,-4.9375 c 0,-0.289063 -0.085937,-0.519531 -0.25,-0.6875 C 3.3125,-5.789063 3.054688,-5.875 2.703125,-5.875 2.554688,-5.875 2.425781,-5.859375 2.3125,-5.828125 2.195313,-5.796875 2.09375,-5.757813 2,-5.71875 1.914063,-5.6875 1.84375,-5.65625 1.78125,-5.625 1.726563,-5.59375 1.6875,-5.578125 1.65625,-5.578125 1.644531,-5.578125 1.632813,-5.582031 1.625,-5.59375 1.613281,-5.601563 1.597656,-5.617188 1.578125,-5.640625 1.566406,-5.660156 1.554688,-5.6875 1.546875,-5.71875 c 0,-0.039063 0,-0.09375 0,-0.15625 0,-0.0625 0.00391,-0.113281 0.015625,-0.15625 0.00781,-0.039063 0.03125,-0.078125 0.0625,-0.109375 0.03125,-0.03125 0.082031,-0.0625 0.15625,-0.09375 C 1.863281,-6.273438 1.957031,-6.3125 2.0625,-6.34375 2.164063,-6.375 2.28125,-6.398438 2.40625,-6.421875 2.539063,-6.453125 2.675781,-6.46875 2.8125,-6.46875 c 0.289063,0 0.539063,0.042969 0.75,0.125 0.207031,0.074219 0.378906,0.179687 0.515625,0.3125 0.132813,0.136719 0.234375,0.292969 0.296875,0.46875 0.070313,0.179687 0.109375,0.371094 0.109375,0.578125 z m -1.28125,3.390625 c 0,0.085937 -0.011719,0.152344 -0.03125,0.203125 -0.011719,0.054687 -0.03125,0.101562 -0.0625,0.140625 -0.03125,0.03125 -0.078125,0.058594 -0.140625,0.078125 -0.054687,0.011719 -0.121094,0.015625 -0.203125,0.015625 -0.085937,0 -0.15625,-0.00391 -0.21875,-0.015625 C 2.492188,-1.191406 2.453125,-1.21875 2.421875,-1.25 2.390625,-1.289063 2.363281,-1.335938 2.34375,-1.390625 2.332031,-1.441406 2.328125,-1.507813 2.328125,-1.59375 c 0,-0.082031 0.00391,-0.148438 0.015625,-0.203125 0.019531,-0.0625 0.046875,-0.109375 0.078125,-0.140625 0.03125,-0.03125 0.070313,-0.050781 0.125,-0.0625 0.0625,-0.019531 0.132813,-0.03125 0.21875,-0.03125 0.082031,0 0.148438,0.011719 0.203125,0.03125 0.0625,0.011719 0.109375,0.03125 0.140625,0.0625 0.03125,0.03125 0.050781,0.078125 0.0625,0.140625 0.019531,0.054687 0.03125,0.121094 0.03125,0.203125 z M 0,2.3125 Z m 0,0"
   style="stroke:none" />
      </symbol>
      <symbol
   id="id-3bcaf4a5-7e06-408c-b3dd-a7678d866dfa"
   overflow="visible">
        <path
   id="id-4ac4e7ff-eac3-46e9-bc62-e38318661d15"
   d="m 5.28125,-5.15625 c 0,0.136719 -0.023437,0.234375 -0.0625,0.296875 C 5.1875,-4.804688 5.140625,-4.78125 5.078125,-4.78125 h -0.75 c 0.132813,0.148437 0.226563,0.304687 0.28125,0.46875 0.0625,0.167969 0.09375,0.34375 0.09375,0.53125 0,0.304687 -0.054687,0.574219 -0.15625,0.8125 C 4.453125,-2.738281 4.3125,-2.539063 4.125,-2.375 c -0.179687,0.15625 -0.390625,0.277344 -0.640625,0.359375 -0.25,0.085937 -0.527344,0.125 -0.828125,0.125 -0.210937,0 -0.414062,-0.023438 -0.609375,-0.078125 -0.1875,-0.050781 -0.335937,-0.125 -0.4375,-0.21875 -0.074219,0.074219 -0.136719,0.15625 -0.1875,0.25 -0.042969,0.085937 -0.0625,0.183594 -0.0625,0.296875 0,0.136719 0.0625,0.25 0.1875,0.34375 0.132813,0.09375 0.304688,0.140625 0.515625,0.140625 l 1.375,0.0625 c 0.257813,0.011719 0.5,0.046875 0.71875,0.109375 0.21875,0.0625 0.40625,0.15625 0.5625,0.28125 0.15625,0.117187 0.273438,0.261719 0.359375,0.4375 0.09375,0.1679687 0.140625,0.3632813 0.140625,0.59375 0,0.238281 -0.054687,0.46875 -0.15625,0.6875 C 4.96875,1.234375 4.816406,1.425781 4.609375,1.59375 4.398438,1.757813 4.132813,1.890625 3.8125,1.984375 3.488281,2.078125 3.109375,2.125 2.671875,2.125 2.242188,2.125 1.878906,2.085938 1.578125,2.015625 1.285156,1.953125 1.039063,1.859375 0.84375,1.734375 0.65625,1.609375 0.519531,1.457031 0.4375,1.28125 0.351563,1.101563 0.3125,0.914063 0.3125,0.71875 c 0,-0.125 0.015625,-0.25 0.046875,-0.375 C 0.390625,0.21875 0.4375,0.101563 0.5,0 0.5625,-0.101563 0.640625,-0.207031 0.734375,-0.3125 0.828125,-0.414063 0.9375,-0.515625 1.0625,-0.609375 0.875,-0.703125 0.734375,-0.820313 0.640625,-0.96875 0.546875,-1.125 0.5,-1.285156 0.5,-1.453125 c 0,-0.238281 0.046875,-0.453125 0.140625,-0.640625 0.101563,-0.1875 0.226563,-0.351563 0.375,-0.5 C 0.890625,-2.738281 0.789063,-2.898438 0.71875,-3.078125 0.65625,-3.253906 0.625,-3.472656 0.625,-3.734375 c 0,-0.300781 0.046875,-0.566406 0.140625,-0.796875 0.101563,-0.238281 0.242188,-0.441406 0.421875,-0.609375 0.1875,-0.164063 0.40625,-0.289063 0.65625,-0.375 0.25,-0.09375 0.519531,-0.140625 0.8125,-0.140625 0.164063,0 0.316406,0.011719 0.453125,0.03125 C 3.242188,-5.601563 3.375,-5.578125 3.5,-5.546875 h 1.578125 c 0.070313,0 0.125,0.03125 0.15625,0.09375 0.03125,0.0625 0.046875,0.164062 0.046875,0.296875 z m -1.5,1.375 c 0,-0.351563 -0.101562,-0.628906 -0.296875,-0.828125 -0.199219,-0.207031 -0.480469,-0.3125 -0.84375,-0.3125 -0.1875,0 -0.351562,0.03125 -0.484375,0.09375 -0.136719,0.0625 -0.25,0.152344 -0.34375,0.265625 -0.09375,0.105469 -0.164062,0.230469 -0.203125,0.375 -0.042969,0.148437 -0.0625,0.296875 -0.0625,0.453125 0,0.34375 0.09375,0.617187 0.28125,0.8125 0.195313,0.199219 0.472656,0.296875 0.828125,0.296875 0.195313,0 0.363281,-0.03125 0.5,-0.09375 C 3.300781,-2.78125 3.414063,-2.863281 3.5,-2.96875 3.59375,-3.070313 3.660156,-3.191406 3.703125,-3.328125 3.753906,-3.472656 3.78125,-3.625 3.78125,-3.78125 Z m 0.484375,4.171875 c 0,-0.230469 -0.09375,-0.40625 -0.28125,-0.53125 -0.1875,-0.125 -0.4375,-0.1875 -0.75,-0.1875 L 1.875,-0.375 C 1.75,-0.28125 1.644531,-0.1875 1.5625,-0.09375 1.488281,-0.0078125 1.425781,0.0664063 1.375,0.140625 1.332031,0.222656 1.300781,0.300781 1.28125,0.375 1.257813,0.457031 1.25,0.539063 1.25,0.625 c 0,0.25 0.128906,0.4375 0.390625,0.5625 0.257813,0.132813 0.617188,0.203125 1.078125,0.203125 0.289063,0 0.53125,-0.03125 0.71875,-0.09375 0.195313,-0.054687 0.359375,-0.125 0.484375,-0.21875 0.125,-0.085937 0.210938,-0.1875 0.265625,-0.3125 0.050781,-0.125 0.078125,-0.25 0.078125,-0.375 z m 0,0"
   style="stroke:none" />
      </symbol>
      <symbol
   id="id-e61f139a-3f3f-46c0-bb0b-20ed44f6905c"
   overflow="visible">
        <path
   id="id-f99835b5-c1ea-4b89-ba93-ddad672f7e8b"
   d="m 1.859375,-0.140625 c 0,0.03125 -0.011719,0.0585937 -0.03125,0.078125 C 1.816406,-0.0390625 1.789063,-0.0195313 1.75,0 1.71875,0.0078125 1.671875,0.015625 1.609375,0.015625 1.546875,0.0234375 1.46875,0.03125 1.375,0.03125 1.28125,0.03125 1.203125,0.0234375 1.140625,0.015625 1.078125,0.015625 1.023438,0.0078125 0.984375,0 0.953125,-0.0195313 0.925781,-0.0390625 0.90625,-0.0625 0.894531,-0.0820313 0.890625,-0.109375 0.890625,-0.140625 V -5.40625 c 0,-0.019531 0.003906,-0.039063 0.015625,-0.0625 C 0.925781,-5.5 0.953125,-5.519531 0.984375,-5.53125 1.023438,-5.550781 1.078125,-5.5625 1.140625,-5.5625 1.203125,-5.57031 1.28125,-5.578125 1.375,-5.578125 c 0.09375,0 0.171875,0.00781 0.234375,0.015625 0.0625,0 0.109375,0.011719 0.140625,0.03125 0.039063,0.011719 0.066406,0.03125 0.078125,0.0625 0.019531,0.023437 0.03125,0.042969 0.03125,0.0625 z m 0.109375,-7.03125 c 0,0.230469 -0.046875,0.386719 -0.140625,0.46875 -0.085937,0.074219 -0.242187,0.109375 -0.46875,0.109375 -0.21875,0 -0.371094,-0.035156 -0.453125,-0.109375 -0.085937,-0.082031 -0.125,-0.234375 -0.125,-0.453125 0,-0.226563 0.039063,-0.382813 0.125,-0.46875 0.082031,-0.082031 0.238281,-0.125 0.46875,-0.125 0.226563,0 0.382813,0.042969 0.46875,0.125 0.082031,0.085937 0.125,0.234375 0.125,0.453125 z m 0,0"
   style="stroke:none" />
      </symbol>
      <symbol
   id="id-a3f27687-16dd-4194-8cd2-0d04f2be12de"
   overflow="visible">
        <path
   id="id-69465579-4af9-4161-a539-b1e71596c40e"
   d="m 3.625,-0.53125 c 0,0.117187 -0.011719,0.210937 -0.03125,0.28125 -0.011719,0.0625 -0.03125,0.109375 -0.0625,0.140625 -0.03125,0.03125 -0.078125,0.0625 -0.140625,0.09375 -0.0625,0.01953125 -0.136719,0.0351563 -0.21875,0.046875 -0.074219,0.0195313 -0.15625,0.0351563 -0.25,0.046875 C 2.835938,0.0859375 2.75,0.09375 2.65625,0.09375 2.382813,0.09375 2.148438,0.0625 1.953125,0 1.753906,-0.0703125 1.59375,-0.179688 1.46875,-0.328125 1.351563,-0.472656 1.265625,-0.65625 1.203125,-0.875 1.148438,-1.101563 1.125,-1.375 1.125,-1.6875 V -4.75 H 0.390625 c -0.0625,0 -0.117187,-0.03125 -0.15625,-0.09375 C 0.203125,-4.90625 0.1875,-5.003906 0.1875,-5.140625 c 0,-0.082031 0.003906,-0.144531 0.015625,-0.1875 0.007813,-0.050781 0.019531,-0.09375 0.03125,-0.125 0.019531,-0.039063 0.039063,-0.066406 0.0625,-0.078125 0.03125,-0.00781 0.0625,-0.015625 0.09375,-0.015625 H 1.125 v -1.25 c 0,-0.03125 0.00391,-0.054688 0.015625,-0.078125 0.00781,-0.019531 0.03125,-0.039063 0.0625,-0.0625 0.039063,-0.019531 0.09375,-0.03125 0.15625,-0.03125 0.0625,-0.00781 0.140625,-0.015625 0.234375,-0.015625 0.101563,0 0.1875,0.00781 0.25,0.015625 0.0625,0 0.109375,0.011719 0.140625,0.03125 0.03125,0.023437 0.050781,0.042969 0.0625,0.0625 0.019531,0.023437 0.03125,0.046875 0.03125,0.078125 v 1.25 H 3.4375 c 0.03125,0 0.054688,0.00781 0.078125,0.015625 0.019531,0.011719 0.035156,0.039062 0.046875,0.078125 0.019531,0.03125 0.035156,0.074219 0.046875,0.125 0.00781,0.042969 0.015625,0.105469 0.015625,0.1875 0,0.136719 -0.023437,0.234375 -0.0625,0.296875 C 3.53125,-4.78125 3.488281,-4.75 3.4375,-4.75 H 2.078125 v 2.921875 c 0,0.367187 0.050781,0.640625 0.15625,0.828125 0.113281,0.1875 0.304688,0.28125 0.578125,0.28125 0.09375,0 0.171875,-0.007813 0.234375,-0.03125 0.070313,-0.019531 0.132813,-0.035156 0.1875,-0.046875 0.0625,-0.019531 0.109375,-0.039063 0.140625,-0.0625 0.039063,-0.019531 0.078125,-0.03125 0.109375,-0.03125 0.019531,0 0.039063,0.007812 0.0625,0.015625 0.019531,0.011719 0.03125,0.03125 0.03125,0.0625 0.00781,0.023437 0.019531,0.058594 0.03125,0.109375 C 3.617188,-0.660156 3.625,-0.601563 3.625,-0.53125 Z m 0,0"
   style="stroke:none" />
      </symbol>
      <symbol
   id="id-348a2fb3-23aa-4db1-826e-2545737ffbbb"
   overflow="visible">
        <path
   id="id-6ba496b7-7d11-494b-b763-2afed1b4cfa6"
   d="m 5.421875,-0.140625 c 0,0.03125 -0.011719,0.0585937 -0.03125,0.078125 C 5.378906,-0.0390625 5.351563,-0.0195313 5.3125,0 5.28125,0.0078125 5.234375,0.015625 5.171875,0.015625 5.109375,0.0234375 5.03125,0.03125 4.9375,0.03125 4.84375,0.03125 4.765625,0.0234375 4.703125,0.015625 4.640625,0.015625 4.585938,0.0078125 4.546875,0 4.515625,-0.0195313 4.488281,-0.0390625 4.46875,-0.0625 4.457031,-0.0820313 4.453125,-0.109375 4.453125,-0.140625 V -3.21875 C 4.453125,-3.519531 4.425781,-3.757813 4.375,-3.9375 4.332031,-4.125 4.265625,-4.28125 4.171875,-4.40625 4.085938,-4.539063 3.972656,-4.644531 3.828125,-4.71875 3.691406,-4.789063 3.53125,-4.828125 3.34375,-4.828125 c -0.242187,0 -0.484375,0.089844 -0.734375,0.265625 -0.242187,0.167969 -0.492187,0.417969 -0.75,0.75 v 3.671875 c 0,0.03125 -0.011719,0.0585937 -0.03125,0.078125 C 1.816406,-0.0390625 1.789063,-0.0195313 1.75,0 1.71875,0.0078125 1.671875,0.015625 1.609375,0.015625 1.546875,0.0234375 1.46875,0.03125 1.375,0.03125 1.28125,0.03125 1.203125,0.0234375 1.140625,0.015625 1.078125,0.015625 1.023438,0.0078125 0.984375,0 0.953125,-0.0195313 0.925781,-0.0390625 0.90625,-0.0625 0.894531,-0.0820313 0.890625,-0.109375 0.890625,-0.140625 V -7.9375 c 0,-0.03125 0.003906,-0.054688 0.015625,-0.078125 0.019531,-0.03125 0.046875,-0.050781 0.078125,-0.0625 0.039063,-0.019531 0.09375,-0.03125 0.15625,-0.03125 C 1.203125,-8.117188 1.28125,-8.125 1.375,-8.125 c 0.09375,0 0.171875,0.00781 0.234375,0.015625 0.0625,0 0.109375,0.011719 0.140625,0.03125 0.039063,0.011719 0.066406,0.03125 0.078125,0.0625 0.019531,0.023437 0.03125,0.046875 0.03125,0.078125 v 3.140625 C 2.128906,-5.085938 2.40625,-5.300781 2.6875,-5.4375 2.96875,-5.582031 3.25,-5.65625 3.53125,-5.65625 c 0.351563,0 0.648438,0.058594 0.890625,0.171875 C 4.660156,-5.367188 4.851563,-5.207031 5,-5 c 0.144531,0.199219 0.25,0.433594 0.3125,0.703125 0.070313,0.261719 0.109375,0.578125 0.109375,0.953125 z m 0,0"
   style="stroke:none" />
      </symbol>
      <symbol
   id="id-8ee5b548-631c-4ed8-8669-9f36589e45c4"
   overflow="visible">
        <path
   id="id-1a869bb0-4701-494a-879e-20df063a5007"
   d="m 5.390625,-0.140625 c 0,0.03125 -0.00781,0.0585937 -0.015625,0.078125 C 5.363281,-0.0390625 5.335938,-0.0195313 5.296875,0 5.265625,0.0078125 5.21875,0.015625 5.15625,0.015625 5.101563,0.0234375 5.035156,0.03125 4.953125,0.03125 4.867188,0.03125 4.796875,0.0234375 4.734375,0.015625 4.679688,0.015625 4.632813,0.0078125 4.59375,0 4.5625,-0.0195313 4.539063,-0.0390625 4.53125,-0.0625 4.519531,-0.0820313 4.515625,-0.109375 4.515625,-0.140625 V -0.84375 C 4.210938,-0.507813 3.914063,-0.265625 3.625,-0.109375 3.332031,0.0351563 3.039063,0.109375 2.75,0.109375 2.394531,0.109375 2.097656,0.0507813 1.859375,-0.0625 1.617188,-0.175781 1.425781,-0.332031 1.28125,-0.53125 1.132813,-0.738281 1.023438,-0.972656 0.953125,-1.234375 0.890625,-1.503906 0.859375,-1.832031 0.859375,-2.21875 v -3.1875 c 0,-0.03125 0.003906,-0.054688 0.015625,-0.078125 0.019531,-0.019531 0.046875,-0.035156 0.078125,-0.046875 0.039063,-0.019531 0.09375,-0.03125 0.15625,-0.03125 0.0625,-0.00781 0.140625,-0.015625 0.234375,-0.015625 0.09375,0 0.171875,0.00781 0.234375,0.015625 0.0625,0 0.109375,0.011719 0.140625,0.03125 0.039063,0.011719 0.066406,0.027344 0.078125,0.046875 0.019531,0.023437 0.03125,0.046875 0.03125,0.078125 v 3.0625 c 0,0.3125 0.019531,0.5625 0.0625,0.75 0.050781,0.179687 0.117188,0.335937 0.203125,0.46875 0.09375,0.125 0.207031,0.226562 0.34375,0.296875 0.144531,0.074219 0.3125,0.109375 0.5,0.109375 0.238281,0 0.476563,-0.082031 0.71875,-0.25 0.238281,-0.175781 0.492188,-0.429688 0.765625,-0.765625 V -5.40625 c 0,-0.03125 0.00391,-0.054688 0.015625,-0.078125 0.019531,-0.019531 0.046875,-0.035156 0.078125,-0.046875 0.039063,-0.019531 0.09375,-0.03125 0.15625,-0.03125 0.0625,-0.00781 0.140625,-0.015625 0.234375,-0.015625 0.09375,0 0.171875,0.00781 0.234375,0.015625 0.0625,0 0.109375,0.011719 0.140625,0.03125 0.039063,0.011719 0.066406,0.027344 0.078125,0.046875 0.019531,0.023437 0.03125,0.046875 0.03125,0.078125 z m 0,0"
   style="stroke:none" />
      </symbol>
      <symbol
   id="id-73e8ace4-3018-4bd9-8839-59b7506cb844"
   overflow="visible">
        <path
   id="id-6b7bc5c0-65e0-4fa3-b411-434a4731f4c1"
   d="m 5.71875,-2.84375 c 0,0.460937 -0.054687,0.871094 -0.15625,1.234375 -0.09375,0.367187 -0.242187,0.679687 -0.4375,0.9375 -0.1875,0.25 -0.421875,0.445312 -0.703125,0.578125 C 4.148438,0.0390625 3.832031,0.109375 3.46875,0.109375 3.300781,0.109375 3.144531,0.09375 3,0.0625 2.863281,0.03125 2.722656,-0.0195313 2.578125,-0.09375 2.441406,-0.164063 2.304688,-0.257813 2.171875,-0.375 2.035156,-0.488281 1.894531,-0.625 1.75,-0.78125 v 0.640625 c 0,0.03125 -0.011719,0.0585937 -0.03125,0.078125 C 1.707031,-0.0390625 1.679688,-0.0195313 1.640625,0 1.609375,0.0078125 1.566406,0.015625 1.515625,0.015625 1.460938,0.0234375 1.394531,0.03125 1.3125,0.03125 1.238281,0.03125 1.171875,0.0234375 1.109375,0.015625 1.054688,0.015625 1.007813,0.0078125 0.96875,0 0.9375,-0.0195313 0.914063,-0.0390625 0.90625,-0.0625 0.894531,-0.0820313 0.890625,-0.109375 0.890625,-0.140625 V -7.9375 c 0,-0.03125 0.003906,-0.054688 0.015625,-0.078125 0.019531,-0.03125 0.046875,-0.050781 0.078125,-0.0625 0.039063,-0.019531 0.09375,-0.03125 0.15625,-0.03125 C 1.203125,-8.117188 1.28125,-8.125 1.375,-8.125 c 0.09375,0 0.171875,0.00781 0.234375,0.015625 0.0625,0 0.109375,0.011719 0.140625,0.03125 0.039063,0.011719 0.066406,0.03125 0.078125,0.0625 0.019531,0.023437 0.03125,0.046875 0.03125,0.078125 v 3.140625 c 0.15625,-0.15625 0.304688,-0.285156 0.453125,-0.390625 0.144531,-0.113281 0.285156,-0.203125 0.421875,-0.265625 0.144531,-0.070313 0.285156,-0.125 0.421875,-0.15625 0.144531,-0.03125 0.289063,-0.046875 0.4375,-0.046875 0.382813,0 0.710938,0.078125 0.984375,0.234375 0.269531,0.148437 0.488281,0.351562 0.65625,0.609375 0.164063,0.25 0.285156,0.546875 0.359375,0.890625 0.082031,0.335937 0.125,0.695312 0.125,1.078125 z m -1.015625,0.109375 c 0,-0.269531 -0.023437,-0.53125 -0.0625,-0.78125 C 4.609375,-3.765625 4.539063,-3.988281 4.4375,-4.1875 4.332031,-4.382813 4.195313,-4.539063 4.03125,-4.65625 c -0.167969,-0.113281 -0.375,-0.171875 -0.625,-0.171875 -0.125,0 -0.25,0.015625 -0.375,0.046875 C 2.914063,-4.75 2.796875,-4.691406 2.671875,-4.609375 2.546875,-4.523438 2.414063,-4.414063 2.28125,-4.28125 2.144531,-4.15625 2.003906,-4 1.859375,-3.8125 v 2.109375 c 0.257813,0.324219 0.507813,0.570312 0.75,0.734375 0.25,0.167969 0.503906,0.25 0.765625,0.25 0.238281,0 0.441406,-0.054688 0.609375,-0.171875 C 4.160156,-1.003906 4.300781,-1.15625 4.40625,-1.34375 4.507813,-1.539063 4.582031,-1.757813 4.625,-2 4.675781,-2.238281 4.703125,-2.484375 4.703125,-2.734375 Z m 0,0"
   style="stroke:none" />
      </symbol>
      <symbol
   id="id-2f701843-2497-434a-9b8f-96fac6aa07bb"
   overflow="visible">
        <path
   id="id-b7ca4a4f-9867-41cc-af58-fbb6ecc6e552"
   d="m 6.65625,-0.359375 c 0.03125,0.085937 0.046875,0.15625 0.046875,0.21875 0.00781,0.0546875 0,0.09375 -0.03125,0.125 -0.03125,0.01953125 -0.085937,0.03125 -0.15625,0.03125 C 6.441406,0.0234375 6.34375,0.03125 6.21875,0.03125 6.101563,0.03125 6.007813,0.0234375 5.9375,0.015625 5.863281,0.015625 5.804688,0.0078125 5.765625,0 5.734375,-0.0078125 5.707031,-0.0234375 5.6875,-0.046875 5.664063,-0.078125 5.648438,-0.109375 5.640625,-0.140625 l -0.65625,-1.84375 H 1.84375 l -0.609375,1.8125 C 1.222656,-0.128906 1.207031,-0.0976563 1.1875,-0.078125 1.164063,-0.0546875 1.132813,-0.0351563 1.09375,-0.015625 1.0625,0.00390625 1.007813,0.015625 0.9375,0.015625 0.875,0.0234375 0.785156,0.03125 0.671875,0.03125 0.554688,0.03125 0.460938,0.0234375 0.390625,0.015625 0.328125,0.00390625 0.28125,-0.0078125 0.25,-0.03125 0.21875,-0.0625 0.203125,-0.101563 0.203125,-0.15625 0.203125,-0.207031 0.21875,-0.273438 0.25,-0.359375 L 2.796875,-7.375 C 2.804688,-7.414063 2.820313,-7.445313 2.84375,-7.46875 2.875,-7.5 2.910156,-7.519531 2.953125,-7.53125 3.003906,-7.550781 3.066406,-7.566406 3.140625,-7.578125 3.222656,-7.585938 3.320313,-7.59375 3.4375,-7.59375 c 0.125,0 0.226563,0.00781 0.3125,0.015625 0.082031,0.011719 0.144531,0.027344 0.1875,0.046875 0.050781,0.011719 0.09375,0.03125 0.125,0.0625 0.03125,0.023437 0.050781,0.054687 0.0625,0.09375 z m -3.25,-6.1875 -1.3125,3.765625 h 2.640625 z m 0,0"
   style="stroke:none" />
      </symbol>
      <symbol
   id="id-69de7018-76c8-4c4c-b25f-1d3097e9498d"
   overflow="visible">
        <path
   id="id-457994ae-34b0-43c3-bf94-e9ab7fc89147"
   d="m 1.859375,-0.140625 c 0,0.03125 -0.011719,0.0585937 -0.03125,0.078125 C 1.816406,-0.0390625 1.789063,-0.0195313 1.75,0 1.71875,0.0078125 1.671875,0.015625 1.609375,0.015625 1.546875,0.0234375 1.46875,0.03125 1.375,0.03125 1.28125,0.03125 1.203125,0.0234375 1.140625,0.015625 1.078125,0.015625 1.023438,0.0078125 0.984375,0 0.953125,-0.0195313 0.925781,-0.0390625 0.90625,-0.0625 0.894531,-0.0820313 0.890625,-0.109375 0.890625,-0.140625 V -7.9375 c 0,-0.03125 0.003906,-0.054688 0.015625,-0.078125 0.019531,-0.03125 0.046875,-0.050781 0.078125,-0.0625 0.039063,-0.019531 0.09375,-0.03125 0.15625,-0.03125 C 1.203125,-8.117188 1.28125,-8.125 1.375,-8.125 c 0.09375,0 0.171875,0.00781 0.234375,0.015625 0.0625,0 0.109375,0.011719 0.140625,0.03125 0.039063,0.011719 0.066406,0.03125 0.078125,0.0625 0.019531,0.023437 0.03125,0.046875 0.03125,0.078125 z m 0,0"
   style="stroke:none" />
      </symbol>
      <symbol
   id="id-263d8c76-2936-45c5-b20d-d3c17ae4838b"
   overflow="visible">
        <path
   id="id-17f6ef59-eec3-44eb-8b5d-cb715a21c2fa"
   d="m 4.84375,-0.140625 c 0,0.0546875 -0.015625,0.0898437 -0.046875,0.109375 -0.03125,0.0234375 -0.074219,0.03515625 -0.125,0.046875 C 4.617188,0.0234375 4.539063,0.03125 4.4375,0.03125 4.332031,0.03125 4.25,0.0234375 4.1875,0.015625 4.132813,0.00390625 4.09375,-0.0078125 4.0625,-0.03125 4.03125,-0.0507813 4.015625,-0.0859375 4.015625,-0.140625 v -0.53125 C 3.785156,-0.421875 3.53125,-0.226563 3.25,-0.09375 2.96875,0.0390625 2.671875,0.109375 2.359375,0.109375 2.078125,0.109375 1.820313,0.0703125 1.59375,0 1.375,-0.0703125 1.1875,-0.175781 1.03125,-0.3125 0.875,-0.445313 0.75,-0.613281 0.65625,-0.8125 c -0.085937,-0.195313 -0.125,-0.421875 -0.125,-0.671875 0,-0.300781 0.0625,-0.554688 0.1875,-0.765625 0.125,-0.21875 0.296875,-0.398438 0.515625,-0.546875 C 1.460938,-2.941406 1.738281,-3.050781 2.0625,-3.125 2.394531,-3.195313 2.765625,-3.234375 3.171875,-3.234375 h 0.71875 v -0.40625 c 0,-0.207031 -0.023437,-0.382813 -0.0625,-0.53125 C 3.785156,-4.328125 3.71875,-4.457031 3.625,-4.5625 3.53125,-4.664063 3.40625,-4.742188 3.25,-4.796875 3.09375,-4.847656 2.90625,-4.875 2.6875,-4.875 c -0.242187,0 -0.453125,0.03125 -0.640625,0.09375 -0.1875,0.054687 -0.355469,0.117187 -0.5,0.1875 -0.136719,0.0625 -0.25,0.121094 -0.34375,0.171875 -0.09375,0.054687 -0.167969,0.078125 -0.21875,0.078125 -0.03125,0 -0.058594,-0.00391 -0.078125,-0.015625 C 0.882813,-4.378906 0.863281,-4.40625 0.84375,-4.4375 0.820313,-4.46875 0.804688,-4.503906 0.796875,-4.546875 c 0,-0.050781 0,-0.101563 0,-0.15625 0,-0.101563 0.003906,-0.179688 0.015625,-0.234375 C 0.820313,-5 0.851563,-5.050781 0.90625,-5.09375 0.96875,-5.144531 1.0625,-5.203125 1.1875,-5.265625 c 0.125,-0.070313 0.269531,-0.132813 0.4375,-0.1875 0.164063,-0.0625 0.347656,-0.109375 0.546875,-0.140625 0.195313,-0.039063 0.398438,-0.0625 0.609375,-0.0625 0.375,0 0.691406,0.042969 0.953125,0.125 0.269531,0.085937 0.484375,0.210937 0.640625,0.375 0.164063,0.167969 0.285156,0.375 0.359375,0.625 0.070313,0.242187 0.109375,0.523437 0.109375,0.84375 z M 3.890625,-2.53125 H 3.0625 c -0.261719,0 -0.492187,0.023437 -0.6875,0.0625 -0.1875,0.042969 -0.351562,0.109375 -0.484375,0.203125 -0.125,0.085937 -0.21875,0.1875 -0.28125,0.3125 -0.0625,0.117187 -0.09375,0.257812 -0.09375,0.421875 0,0.273437 0.085938,0.492187 0.265625,0.65625 0.175781,0.15625 0.421875,0.234375 0.734375,0.234375 0.25,0 0.476563,-0.0625 0.6875,-0.1875 0.21875,-0.132813 0.445313,-0.332031 0.6875,-0.59375 z m 0,0"
   style="stroke:none" />
      </symbol>
      <symbol
   id="id-4c75482b-db5b-49f1-9405-97edf86bb978"
   overflow="visible">
        <path
   id="id-f7badc81-1e54-4e3a-8e99-0f379c7078e5"
   d="m 4.1875,-1.578125 c 0,0.273437 -0.054687,0.511719 -0.15625,0.71875 C 3.9375,-0.648438 3.796875,-0.472656 3.609375,-0.328125 3.429688,-0.179688 3.210938,-0.0703125 2.953125,0 2.703125,0.0703125 2.425781,0.109375 2.125,0.109375 1.9375,0.109375 1.757813,0.09375 1.59375,0.0625 1.425781,0.03125 1.273438,-0.00390625 1.140625,-0.046875 c -0.136719,-0.0390625 -0.25,-0.082031 -0.34375,-0.125 C 0.703125,-0.222656 0.632813,-0.269531 0.59375,-0.3125 0.550781,-0.351563 0.519531,-0.40625 0.5,-0.46875 0.476563,-0.539063 0.46875,-0.640625 0.46875,-0.765625 c 0,-0.070313 0.003906,-0.132813 0.015625,-0.1875 0.007813,-0.050781 0.019531,-0.09375 0.03125,-0.125 0.007813,-0.03125 0.023438,-0.050781 0.046875,-0.0625 0.019531,-0.00781 0.046875,-0.015625 0.078125,-0.015625 0.039063,0 0.101563,0.027344 0.1875,0.078125 0.082031,0.054687 0.179688,0.109375 0.296875,0.171875 0.125,0.0625 0.269531,0.121094 0.4375,0.171875 0.175781,0.054687 0.367188,0.078125 0.578125,0.078125 0.164063,0 0.316406,-0.015625 0.453125,-0.046875 0.132813,-0.039063 0.25,-0.09375 0.34375,-0.15625 C 3.03125,-0.929688 3.101563,-1.019531 3.15625,-1.125 3.207031,-1.226563 3.234375,-1.351563 3.234375,-1.5 3.234375,-1.644531 3.195313,-1.769531 3.125,-1.875 3.050781,-1.976563 2.953125,-2.066406 2.828125,-2.140625 2.703125,-2.222656 2.5625,-2.289063 2.40625,-2.34375 2.25,-2.40625 2.085938,-2.46875 1.921875,-2.53125 1.753906,-2.601563 1.59375,-2.679688 1.4375,-2.765625 1.28125,-2.847656 1.140625,-2.945313 1.015625,-3.0625 0.890625,-3.1875 0.785156,-3.332031 0.703125,-3.5 0.628906,-3.664063 0.59375,-3.867188 0.59375,-4.109375 c 0,-0.195313 0.039063,-0.390625 0.125,-0.578125 0.082031,-0.195313 0.203125,-0.363281 0.359375,-0.5 0.15625,-0.144531 0.351563,-0.257813 0.59375,-0.34375 0.238281,-0.082031 0.519531,-0.125 0.84375,-0.125 0.132813,0 0.269531,0.011719 0.40625,0.03125 0.144531,0.023437 0.273438,0.054687 0.390625,0.09375 0.113281,0.03125 0.207031,0.070312 0.28125,0.109375 0.082031,0.042969 0.144531,0.078125 0.1875,0.109375 0.039063,0.03125 0.066406,0.058594 0.078125,0.078125 0.019531,0.023437 0.03125,0.046875 0.03125,0.078125 0.00781,0.03125 0.015625,0.070312 0.015625,0.109375 0.00781,0.042969 0.015625,0.09375 0.015625,0.15625 0,0.0625 -0.00781,0.121094 -0.015625,0.171875 0,0.054687 -0.011719,0.09375 -0.03125,0.125 -0.011719,0.03125 -0.027344,0.054687 -0.046875,0.0625 -0.011719,0.011719 -0.03125,0.015625 -0.0625,0.015625 -0.03125,0 -0.085937,-0.019531 -0.15625,-0.0625 -0.0625,-0.039063 -0.148437,-0.082031 -0.25,-0.125 C 3.253906,-4.753906 3.128906,-4.800781 2.984375,-4.84375 2.847656,-4.894531 2.6875,-4.921875 2.5,-4.921875 c -0.15625,0 -0.296875,0.023437 -0.421875,0.0625 -0.125,0.042969 -0.230469,0.101562 -0.3125,0.171875 -0.085937,0.0625 -0.148437,0.140625 -0.1875,0.234375 -0.042969,0.09375 -0.0625,0.195312 -0.0625,0.296875 0,0.15625 0.035156,0.289062 0.109375,0.390625 0.082031,0.09375 0.1875,0.183594 0.3125,0.265625 0.125,0.074219 0.265625,0.140625 0.421875,0.203125 0.164063,0.0625 0.332031,0.132812 0.5,0.203125 0.164063,0.0625 0.328125,0.136719 0.484375,0.21875 0.164063,0.085937 0.3125,0.183594 0.4375,0.296875 0.125,0.117187 0.222656,0.257812 0.296875,0.421875 C 4.148438,-2 4.1875,-1.804688 4.1875,-1.578125 Z m 0,0"
   style="stroke:none" />
      </symbol>
    </g>
  </defs>
  <g
   transform="translate(-149.025,-126.64)"
   id="id-7c8590d4-60d6-44c7-b8bf-1fbc4b2dcfc7">
    <g
   id="id-ada10ff4-4d99-4da9-8e8e-0c16946e443a"
   style="fill:#000000;fill-opacity:1">
      <g
   transform="translate(148.712,134.765)"
   id="g976"><path
   id="id-de18d3c9-f531-40f6-82a0-f29983c5a588"
   d="m 5.28125,-5.15625 c 0,0.136719 -0.023437,0.234375 -0.0625,0.296875 C 5.1875,-4.804688 5.140625,-4.78125 5.078125,-4.78125 h -0.75 c 0.132813,0.148437 0.226563,0.304687 0.28125,0.46875 0.0625,0.167969 0.09375,0.34375 0.09375,0.53125 0,0.304687 -0.054687,0.574219 -0.15625,0.8125 C 4.453125,-2.738281 4.3125,-2.539063 4.125,-2.375 c -0.179687,0.15625 -0.390625,0.277344 -0.640625,0.359375 -0.25,0.085937 -0.527344,0.125 -0.828125,0.125 -0.210937,0 -0.414062,-0.023438 -0.609375,-0.078125 -0.1875,-0.050781 -0.335937,-0.125 -0.4375,-0.21875 -0.074219,0.074219 -0.136719,0.15625 -0.1875,0.25 -0.042969,0.085937 -0.0625,0.183594 -0.0625,0.296875 0,0.136719 0.0625,0.25 0.1875,0.34375 0.132813,0.09375 0.304688,0.140625 0.515625,0.140625 l 1.375,0.0625 c 0.257813,0.011719 0.5,0.046875 0.71875,0.109375 0.21875,0.0625 0.40625,0.15625 0.5625,0.28125 0.15625,0.117187 0.273438,0.261719 0.359375,0.4375 0.09375,0.1679687 0.140625,0.3632813 0.140625,0.59375 0,0.238281 -0.054687,0.46875 -0.15625,0.6875 C 4.96875,1.234375 4.816406,1.425781 4.609375,1.59375 4.398438,1.757813 4.132813,1.890625 3.8125,1.984375 3.488281,2.078125 3.109375,2.125 2.671875,2.125 2.242188,2.125 1.878906,2.085938 1.578125,2.015625 1.285156,1.953125 1.039063,1.859375 0.84375,1.734375 0.65625,1.609375 0.519531,1.457031 0.4375,1.28125 0.351563,1.101563 0.3125,0.914063 0.3125,0.71875 c 0,-0.125 0.015625,-0.25 0.046875,-0.375 C 0.390625,0.21875 0.4375,0.101563 0.5,0 0.5625,-0.101563 0.640625,-0.207031 0.734375,-0.3125 0.828125,-0.414063 0.9375,-0.515625 1.0625,-0.609375 0.875,-0.703125 0.734375,-0.820313 0.640625,-0.96875 0.546875,-1.125 0.5,-1.285156 0.5,-1.453125 c 0,-0.238281 0.046875,-0.453125 0.140625,-0.640625 0.101563,-0.1875 0.226563,-0.351563 0.375,-0.5 C 0.890625,-2.738281 0.789063,-2.898438 0.71875,-3.078125 0.65625,-3.253906 0.625,-3.472656 0.625,-3.734375 c 0,-0.300781 0.046875,-0.566406 0.140625,-0.796875 0.101563,-0.238281 0.242188,-0.441406 0.421875,-0.609375 0.1875,-0.164063 0.40625,-0.289063 0.65625,-0.375 0.25,-0.09375 0.519531,-0.140625 0.8125,-0.140625 0.164063,0 0.316406,0.011719 0.453125,0.03125 C 3.242188,-5.601563 3.375,-5.578125 3.5,-5.546875 h 1.578125 c 0.070313,0 0.125,0.03125 0.15625,0.09375 0.03125,0.0625 0.046875,0.164062 0.046875,0.296875 z m -1.5,1.375 c 0,-0.351563 -0.101562,-0.628906 -0.296875,-0.828125 -0.199219,-0.207031 -0.480469,-0.3125 -0.84375,-0.3125 -0.1875,0 -0.351562,0.03125 -0.484375,0.09375 -0.136719,0.0625 -0.25,0.152344 -0.34375,0.265625 -0.09375,0.105469 -0.164062,0.230469 -0.203125,0.375 -0.042969,0.148437 -0.0625,0.296875 -0.0625,0.453125 0,0.34375 0.09375,0.617187 0.28125,0.8125 0.195313,0.199219 0.472656,0.296875 0.828125,0.296875 0.195313,0 0.363281,-0.03125 0.5,-0.09375 C 3.300781,-2.78125 3.414063,-2.863281 3.5,-2.96875 3.59375,-3.070313 3.660156,-3.191406 3.703125,-3.328125 3.753906,-3.472656 3.78125,-3.625 3.78125,-3.78125 Z m 0.484375,4.171875 c 0,-0.230469 -0.09375,-0.40625 -0.28125,-0.53125 -0.1875,-0.125 -0.4375,-0.1875 -0.75,-0.1875 L 1.875,-0.375 C 1.75,-0.28125 1.644531,-0.1875 1.5625,-0.09375 1.488281,-0.0078125 1.425781,0.0664063 1.375,0.140625 1.332031,0.222656 1.300781,0.300781 1.28125,0.375 1.257813,0.457031 1.25,0.539063 1.25,0.625 c 0,0.25 0.128906,0.4375 0.390625,0.5625 0.257813,0.132813 0.617188,0.203125 1.078125,0.203125 0.289063,0 0.53125,-0.03125 0.71875,-0.09375 0.195313,-0.054687 0.359375,-0.125 0.484375,-0.21875 0.125,-0.085937 0.210938,-0.1875 0.265625,-0.3125 0.050781,-0.125 0.078125,-0.25 0.078125,-0.375 z m 0,0"
   style="stroke:none" />
      </g><g
   transform="translate(154.339,134.765)"
   id="g979"><path
   id="id-1ad7eb73-ba71-40bb-a076-1388b9f90e12"
   d="m 1.859375,-0.140625 c 0,0.03125 -0.011719,0.0585937 -0.03125,0.078125 C 1.816406,-0.0390625 1.789063,-0.0195313 1.75,0 1.71875,0.0078125 1.671875,0.015625 1.609375,0.015625 1.546875,0.0234375 1.46875,0.03125 1.375,0.03125 1.28125,0.03125 1.203125,0.0234375 1.140625,0.015625 1.078125,0.015625 1.023438,0.0078125 0.984375,0 0.953125,-0.0195313 0.925781,-0.0390625 0.90625,-0.0625 0.894531,-0.0820313 0.890625,-0.109375 0.890625,-0.140625 V -5.40625 c 0,-0.019531 0.003906,-0.039063 0.015625,-0.0625 C 0.925781,-5.5 0.953125,-5.519531 0.984375,-5.53125 1.023438,-5.550781 1.078125,-5.5625 1.140625,-5.5625 1.203125,-5.57031 1.28125,-5.578125 1.375,-5.578125 c 0.09375,0 0.171875,0.00781 0.234375,0.015625 0.0625,0 0.109375,0.011719 0.140625,0.03125 0.039063,0.011719 0.066406,0.03125 0.078125,0.0625 0.019531,0.023437 0.03125,0.042969 0.03125,0.0625 z m 0.109375,-7.03125 c 0,0.230469 -0.046875,0.386719 -0.140625,0.46875 -0.085937,0.074219 -0.242187,0.109375 -0.46875,0.109375 -0.21875,0 -0.371094,-0.035156 -0.453125,-0.109375 -0.085937,-0.082031 -0.125,-0.234375 -0.125,-0.453125 0,-0.226563 0.039063,-0.382813 0.125,-0.46875 0.082031,-0.082031 0.238281,-0.125 0.46875,-0.125 0.226563,0 0.382813,0.042969 0.46875,0.125 0.082031,0.085937 0.125,0.234375 0.125,0.453125 z m 0,0"
   style="stroke:none" />
      </g><g
   transform="translate(157.083,134.765)"
   id="g982"><path
   id="id-6739011b-fb31-4ef0-8a18-5cc51044b799"
   d="m 3.625,-0.53125 c 0,0.117187 -0.011719,0.210937 -0.03125,0.28125 -0.011719,0.0625 -0.03125,0.109375 -0.0625,0.140625 -0.03125,0.03125 -0.078125,0.0625 -0.140625,0.09375 -0.0625,0.01953125 -0.136719,0.0351563 -0.21875,0.046875 -0.074219,0.0195313 -0.15625,0.0351563 -0.25,0.046875 C 2.835938,0.0859375 2.75,0.09375 2.65625,0.09375 2.382813,0.09375 2.148438,0.0625 1.953125,0 1.753906,-0.0703125 1.59375,-0.179688 1.46875,-0.328125 1.351563,-0.472656 1.265625,-0.65625 1.203125,-0.875 1.148438,-1.101563 1.125,-1.375 1.125,-1.6875 V -4.75 H 0.390625 c -0.0625,0 -0.117187,-0.03125 -0.15625,-0.09375 C 0.203125,-4.90625 0.1875,-5.003906 0.1875,-5.140625 c 0,-0.082031 0.003906,-0.144531 0.015625,-0.1875 0.007813,-0.050781 0.019531,-0.09375 0.03125,-0.125 0.019531,-0.039063 0.039063,-0.066406 0.0625,-0.078125 0.03125,-0.00781 0.0625,-0.015625 0.09375,-0.015625 H 1.125 v -1.25 c 0,-0.03125 0.00391,-0.054688 0.015625,-0.078125 0.00781,-0.019531 0.03125,-0.039063 0.0625,-0.0625 0.039063,-0.019531 0.09375,-0.03125 0.15625,-0.03125 0.0625,-0.00781 0.140625,-0.015625 0.234375,-0.015625 0.101563,0 0.1875,0.00781 0.25,0.015625 0.0625,0 0.109375,0.011719 0.140625,0.03125 0.03125,0.023437 0.050781,0.042969 0.0625,0.0625 0.019531,0.023437 0.03125,0.046875 0.03125,0.078125 v 1.25 H 3.4375 c 0.03125,0 0.054688,0.00781 0.078125,0.015625 0.019531,0.011719 0.035156,0.039062 0.046875,0.078125 0.019531,0.03125 0.035156,0.074219 0.046875,0.125 0.00781,0.042969 0.015625,0.105469 0.015625,0.1875 0,0.136719 -0.023437,0.234375 -0.0625,0.296875 C 3.53125,-4.78125 3.488281,-4.75 3.4375,-4.75 H 2.078125 v 2.921875 c 0,0.367187 0.050781,0.640625 0.15625,0.828125 0.113281,0.1875 0.304688,0.28125 0.578125,0.28125 0.09375,0 0.171875,-0.007813 0.234375,-0.03125 0.070313,-0.019531 0.132813,-0.035156 0.1875,-0.046875 0.0625,-0.019531 0.109375,-0.039063 0.140625,-0.0625 0.039063,-0.019531 0.078125,-0.03125 0.109375,-0.03125 0.019531,0 0.039063,0.007812 0.0625,0.015625 0.019531,0.011719 0.03125,0.03125 0.03125,0.0625 0.00781,0.023437 0.019531,0.058594 0.03125,0.109375 C 3.617188,-0.660156 3.625,-0.601563 3.625,-0.53125 Z m 0,0"
   style="stroke:none" />
      </g><g
   transform="translate(161.088,134.765)"
   id="g985"><path
   id="id-6c233af9-e3e6-4bde-8342-70147732ebc6"
   d="m 5.421875,-0.140625 c 0,0.03125 -0.011719,0.0585937 -0.03125,0.078125 C 5.378906,-0.0390625 5.351563,-0.0195313 5.3125,0 5.28125,0.0078125 5.234375,0.015625 5.171875,0.015625 5.109375,0.0234375 5.03125,0.03125 4.9375,0.03125 4.84375,0.03125 4.765625,0.0234375 4.703125,0.015625 4.640625,0.015625 4.585938,0.0078125 4.546875,0 4.515625,-0.0195313 4.488281,-0.0390625 4.46875,-0.0625 4.457031,-0.0820313 4.453125,-0.109375 4.453125,-0.140625 V -3.21875 C 4.453125,-3.519531 4.425781,-3.757813 4.375,-3.9375 4.332031,-4.125 4.265625,-4.28125 4.171875,-4.40625 4.085938,-4.539063 3.972656,-4.644531 3.828125,-4.71875 3.691406,-4.789063 3.53125,-4.828125 3.34375,-4.828125 c -0.242187,0 -0.484375,0.089844 -0.734375,0.265625 -0.242187,0.167969 -0.492187,0.417969 -0.75,0.75 v 3.671875 c 0,0.03125 -0.011719,0.0585937 -0.03125,0.078125 C 1.816406,-0.0390625 1.789063,-0.0195313 1.75,0 1.71875,0.0078125 1.671875,0.015625 1.609375,0.015625 1.546875,0.0234375 1.46875,0.03125 1.375,0.03125 1.28125,0.03125 1.203125,0.0234375 1.140625,0.015625 1.078125,0.015625 1.023438,0.0078125 0.984375,0 0.953125,-0.0195313 0.925781,-0.0390625 0.90625,-0.0625 0.894531,-0.0820313 0.890625,-0.109375 0.890625,-0.140625 V -7.9375 c 0,-0.03125 0.003906,-0.054688 0.015625,-0.078125 0.019531,-0.03125 0.046875,-0.050781 0.078125,-0.0625 0.039063,-0.019531 0.09375,-0.03125 0.15625,-0.03125 C 1.203125,-8.117188 1.28125,-8.125 1.375,-8.125 c 0.09375,0 0.171875,0.00781 0.234375,0.015625 0.0625,0 0.109375,0.011719 0.140625,0.03125 0.039063,0.011719 0.066406,0.03125 0.078125,0.0625 0.019531,0.023437 0.03125,0.046875 0.03125,0.078125 v 3.140625 C 2.128906,-5.085938 2.40625,-5.300781 2.6875,-5.4375 2.96875,-5.582031 3.25,-5.65625 3.53125,-5.65625 c 0.351563,0 0.648438,0.058594 0.890625,0.171875 C 4.660156,-5.367188 4.851563,-5.207031 5,-5 c 0.144531,0.199219 0.25,0.433594 0.3125,0.703125 0.070313,0.261719 0.109375,0.578125 0.109375,0.953125 z m 0,0"
   style="stroke:none" />
      </g><g
   transform="translate(167.369,134.765)"
   id="g988"><path
   id="id-9969773b-2663-4958-a85c-3022117217ec"
   d="m 5.390625,-0.140625 c 0,0.03125 -0.00781,0.0585937 -0.015625,0.078125 C 5.363281,-0.0390625 5.335938,-0.0195313 5.296875,0 5.265625,0.0078125 5.21875,0.015625 5.15625,0.015625 5.101563,0.0234375 5.035156,0.03125 4.953125,0.03125 4.867188,0.03125 4.796875,0.0234375 4.734375,0.015625 4.679688,0.015625 4.632813,0.0078125 4.59375,0 4.5625,-0.0195313 4.539063,-0.0390625 4.53125,-0.0625 4.519531,-0.0820313 4.515625,-0.109375 4.515625,-0.140625 V -0.84375 C 4.210938,-0.507813 3.914063,-0.265625 3.625,-0.109375 3.332031,0.0351563 3.039063,0.109375 2.75,0.109375 2.394531,0.109375 2.097656,0.0507813 1.859375,-0.0625 1.617188,-0.175781 1.425781,-0.332031 1.28125,-0.53125 1.132813,-0.738281 1.023438,-0.972656 0.953125,-1.234375 0.890625,-1.503906 0.859375,-1.832031 0.859375,-2.21875 v -3.1875 c 0,-0.03125 0.003906,-0.054688 0.015625,-0.078125 0.019531,-0.019531 0.046875,-0.035156 0.078125,-0.046875 0.039063,-0.019531 0.09375,-0.03125 0.15625,-0.03125 0.0625,-0.00781 0.140625,-0.015625 0.234375,-0.015625 0.09375,0 0.171875,0.00781 0.234375,0.015625 0.0625,0 0.109375,0.011719 0.140625,0.03125 0.039063,0.011719 0.066406,0.027344 0.078125,0.046875 0.019531,0.023437 0.03125,0.046875 0.03125,0.078125 v 3.0625 c 0,0.3125 0.019531,0.5625 0.0625,0.75 0.050781,0.179687 0.117188,0.335937 0.203125,0.46875 0.09375,0.125 0.207031,0.226562 0.34375,0.296875 0.144531,0.074219 0.3125,0.109375 0.5,0.109375 0.238281,0 0.476563,-0.082031 0.71875,-0.25 0.238281,-0.175781 0.492188,-0.429688 0.765625,-0.765625 V -5.40625 c 0,-0.03125 0.00391,-0.054688 0.015625,-0.078125 0.019531,-0.019531 0.046875,-0.035156 0.078125,-0.046875 0.039063,-0.019531 0.09375,-0.03125 0.15625,-0.03125 0.0625,-0.00781 0.140625,-0.015625 0.234375,-0.015625 0.09375,0 0.171875,0.00781 0.234375,0.015625 0.0625,0 0.109375,0.011719 0.140625,0.03125 0.039063,0.011719 0.066406,0.027344 0.078125,0.046875 0.019531,0.023437 0.03125,0.046875 0.03125,0.078125 z m 0,0"
   style="stroke:none" />
      </g><g
   transform="translate(173.65,134.765)"
   id="g991"><path
   id="id-af88e3a5-76fb-4d6c-bada-0810de943308"
   d="m 5.71875,-2.84375 c 0,0.460937 -0.054687,0.871094 -0.15625,1.234375 -0.09375,0.367187 -0.242187,0.679687 -0.4375,0.9375 -0.1875,0.25 -0.421875,0.445312 -0.703125,0.578125 C 4.148438,0.0390625 3.832031,0.109375 3.46875,0.109375 3.300781,0.109375 3.144531,0.09375 3,0.0625 2.863281,0.03125 2.722656,-0.0195313 2.578125,-0.09375 2.441406,-0.164063 2.304688,-0.257813 2.171875,-0.375 2.035156,-0.488281 1.894531,-0.625 1.75,-0.78125 v 0.640625 c 0,0.03125 -0.011719,0.0585937 -0.03125,0.078125 C 1.707031,-0.0390625 1.679688,-0.0195313 1.640625,0 1.609375,0.0078125 1.566406,0.015625 1.515625,0.015625 1.460938,0.0234375 1.394531,0.03125 1.3125,0.03125 1.238281,0.03125 1.171875,0.0234375 1.109375,0.015625 1.054688,0.015625 1.007813,0.0078125 0.96875,0 0.9375,-0.0195313 0.914063,-0.0390625 0.90625,-0.0625 0.894531,-0.0820313 0.890625,-0.109375 0.890625,-0.140625 V -7.9375 c 0,-0.03125 0.003906,-0.054688 0.015625,-0.078125 0.019531,-0.03125 0.046875,-0.050781 0.078125,-0.0625 0.039063,-0.019531 0.09375,-0.03125 0.15625,-0.03125 C 1.203125,-8.117188 1.28125,-8.125 1.375,-8.125 c 0.09375,0 0.171875,0.00781 0.234375,0.015625 0.0625,0 0.109375,0.011719 0.140625,0.03125 0.039063,0.011719 0.066406,0.03125 0.078125,0.0625 0.019531,0.023437 0.03125,0.046875 0.03125,0.078125 v 3.140625 c 0.15625,-0.15625 0.304688,-0.285156 0.453125,-0.390625 0.144531,-0.113281 0.285156,-0.203125 0.421875,-0.265625 0.144531,-0.070313 0.285156,-0.125 0.421875,-0.15625 0.144531,-0.03125 0.289063,-0.046875 0.4375,-0.046875 0.382813,0 0.710938,0.078125 0.984375,0.234375 0.269531,0.148437 0.488281,0.351562 0.65625,0.609375 0.164063,0.25 0.285156,0.546875 0.359375,0.890625 0.082031,0.335937 0.125,0.695312 0.125,1.078125 z m -1.015625,0.109375 c 0,-0.269531 -0.023437,-0.53125 -0.0625,-0.78125 C 4.609375,-3.765625 4.539063,-3.988281 4.4375,-4.1875 4.332031,-4.382813 4.195313,-4.539063 4.03125,-4.65625 c -0.167969,-0.113281 -0.375,-0.171875 -0.625,-0.171875 -0.125,0 -0.25,0.015625 -0.375,0.046875 C 2.914063,-4.75 2.796875,-4.691406 2.671875,-4.609375 2.546875,-4.523438 2.414063,-4.414063 2.28125,-4.28125 2.144531,-4.15625 2.003906,-4 1.859375,-3.8125 v 2.109375 c 0.257813,0.324219 0.507813,0.570312 0.75,0.734375 0.25,0.167969 0.503906,0.25 0.765625,0.25 0.238281,0 0.441406,-0.054688 0.609375,-0.171875 C 4.160156,-1.003906 4.300781,-1.15625 4.40625,-1.34375 4.507813,-1.539063 4.582031,-1.757813 4.625,-2 4.675781,-2.238281 4.703125,-2.484375 4.703125,-2.734375 Z m 0,0"
   style="stroke:none" />
      </g><g
   transform="translate(179.932,134.765)"
   id="g994"><path
   id="id-fdf53f2e-41b7-4bac-91c2-9a4cbc016e9f"
   d="m 6.65625,-0.359375 c 0.03125,0.085937 0.046875,0.15625 0.046875,0.21875 0.00781,0.0546875 0,0.09375 -0.03125,0.125 -0.03125,0.01953125 -0.085937,0.03125 -0.15625,0.03125 C 6.441406,0.0234375 6.34375,0.03125 6.21875,0.03125 6.101563,0.03125 6.007813,0.0234375 5.9375,0.015625 5.863281,0.015625 5.804688,0.0078125 5.765625,0 5.734375,-0.0078125 5.707031,-0.0234375 5.6875,-0.046875 5.664063,-0.078125 5.648438,-0.109375 5.640625,-0.140625 l -0.65625,-1.84375 H 1.84375 l -0.609375,1.8125 C 1.222656,-0.128906 1.207031,-0.0976563 1.1875,-0.078125 1.164063,-0.0546875 1.132813,-0.0351563 1.09375,-0.015625 1.0625,0.00390625 1.007813,0.015625 0.9375,0.015625 0.875,0.0234375 0.785156,0.03125 0.671875,0.03125 0.554688,0.03125 0.460938,0.0234375 0.390625,0.015625 0.328125,0.00390625 0.28125,-0.0078125 0.25,-0.03125 0.21875,-0.0625 0.203125,-0.101563 0.203125,-0.15625 0.203125,-0.207031 0.21875,-0.273438 0.25,-0.359375 L 2.796875,-7.375 C 2.804688,-7.414063 2.820313,-7.445313 2.84375,-7.46875 2.875,-7.5 2.910156,-7.519531 2.953125,-7.53125 3.003906,-7.550781 3.066406,-7.566406 3.140625,-7.578125 3.222656,-7.585938 3.320313,-7.59375 3.4375,-7.59375 c 0.125,0 0.226563,0.00781 0.3125,0.015625 0.082031,0.011719 0.144531,0.027344 0.1875,0.046875 0.050781,0.011719 0.09375,0.03125 0.125,0.0625 0.03125,0.023437 0.050781,0.054687 0.0625,0.09375 z m -3.25,-6.1875 -1.3125,3.765625 h 2.640625 z m 0,0"
   style="stroke:none" />
      </g><g
   transform="translate(186.849,134.765)"
   id="g997"><path
   id="id-87052b04-a725-463d-91ae-623aa29e885c"
   d="m 1.859375,-0.140625 c 0,0.03125 -0.011719,0.0585937 -0.03125,0.078125 C 1.816406,-0.0390625 1.789063,-0.0195313 1.75,0 1.71875,0.0078125 1.671875,0.015625 1.609375,0.015625 1.546875,0.0234375 1.46875,0.03125 1.375,0.03125 1.28125,0.03125 1.203125,0.0234375 1.140625,0.015625 1.078125,0.015625 1.023438,0.0078125 0.984375,0 0.953125,-0.0195313 0.925781,-0.0390625 0.90625,-0.0625 0.894531,-0.0820313 0.890625,-0.109375 0.890625,-0.140625 V -7.9375 c 0,-0.03125 0.003906,-0.054688 0.015625,-0.078125 0.019531,-0.03125 0.046875,-0.050781 0.078125,-0.0625 0.039063,-0.019531 0.09375,-0.03125 0.15625,-0.03125 C 1.203125,-8.117188 1.28125,-8.125 1.375,-8.125 c 0.09375,0 0.171875,0.00781 0.234375,0.015625 0.0625,0 0.109375,0.011719 0.140625,0.03125 0.039063,0.011719 0.066406,0.03125 0.078125,0.0625 0.019531,0.023437 0.03125,0.046875 0.03125,0.078125 z m 0,0"
   style="stroke:none" />
      </g><g
   transform="translate(189.593,134.765)"
   id="g1000"><path
   id="id-428bb24e-2c98-4458-815e-c5dae9149d13"
   d="m 1.859375,-0.140625 c 0,0.03125 -0.011719,0.0585937 -0.03125,0.078125 C 1.816406,-0.0390625 1.789063,-0.0195313 1.75,0 1.71875,0.0078125 1.671875,0.015625 1.609375,0.015625 1.546875,0.0234375 1.46875,0.03125 1.375,0.03125 1.28125,0.03125 1.203125,0.0234375 1.140625,0.015625 1.078125,0.015625 1.023438,0.0078125 0.984375,0 0.953125,-0.0195313 0.925781,-0.0390625 0.90625,-0.0625 0.894531,-0.0820313 0.890625,-0.109375 0.890625,-0.140625 V -5.40625 c 0,-0.019531 0.003906,-0.039063 0.015625,-0.0625 C 0.925781,-5.5 0.953125,-5.519531 0.984375,-5.53125 1.023438,-5.550781 1.078125,-5.5625 1.140625,-5.5625 1.203125,-5.57031 1.28125,-5.578125 1.375,-5.578125 c 0.09375,0 0.171875,0.00781 0.234375,0.015625 0.0625,0 0.109375,0.011719 0.140625,0.03125 0.039063,0.011719 0.066406,0.03125 0.078125,0.0625 0.019531,0.023437 0.03125,0.042969 0.03125,0.0625 z m 0.109375,-7.03125 c 0,0.230469 -0.046875,0.386719 -0.140625,0.46875 -0.085937,0.074219 -0.242187,0.109375 -0.46875,0.109375 -0.21875,0 -0.371094,-0.035156 -0.453125,-0.109375 -0.085937,-0.082031 -0.125,-0.234375 -0.125,-0.453125 0,-0.226563 0.039063,-0.382813 0.125,-0.46875 0.082031,-0.082031 0.238281,-0.125 0.46875,-0.125 0.226563,0 0.382813,0.042969 0.46875,0.125 0.082031,0.085937 0.125,0.234375 0.125,0.453125 z m 0,0"
   style="stroke:none" />
      </g><g
   transform="translate(192.336,134.765)"
   id="g1003"><path
   id="id-a33a54c1-943c-44fc-9899-fe86b3670df9"
   d="m 4.84375,-0.140625 c 0,0.0546875 -0.015625,0.0898437 -0.046875,0.109375 -0.03125,0.0234375 -0.074219,0.03515625 -0.125,0.046875 C 4.617188,0.0234375 4.539063,0.03125 4.4375,0.03125 4.332031,0.03125 4.25,0.0234375 4.1875,0.015625 4.132813,0.00390625 4.09375,-0.0078125 4.0625,-0.03125 4.03125,-0.0507813 4.015625,-0.0859375 4.015625,-0.140625 v -0.53125 C 3.785156,-0.421875 3.53125,-0.226563 3.25,-0.09375 2.96875,0.0390625 2.671875,0.109375 2.359375,0.109375 2.078125,0.109375 1.820313,0.0703125 1.59375,0 1.375,-0.0703125 1.1875,-0.175781 1.03125,-0.3125 0.875,-0.445313 0.75,-0.613281 0.65625,-0.8125 c -0.085937,-0.195313 -0.125,-0.421875 -0.125,-0.671875 0,-0.300781 0.0625,-0.554688 0.1875,-0.765625 0.125,-0.21875 0.296875,-0.398438 0.515625,-0.546875 C 1.460938,-2.941406 1.738281,-3.050781 2.0625,-3.125 2.394531,-3.195313 2.765625,-3.234375 3.171875,-3.234375 h 0.71875 v -0.40625 c 0,-0.207031 -0.023437,-0.382813 -0.0625,-0.53125 C 3.785156,-4.328125 3.71875,-4.457031 3.625,-4.5625 3.53125,-4.664063 3.40625,-4.742188 3.25,-4.796875 3.09375,-4.847656 2.90625,-4.875 2.6875,-4.875 c -0.242187,0 -0.453125,0.03125 -0.640625,0.09375 -0.1875,0.054687 -0.355469,0.117187 -0.5,0.1875 -0.136719,0.0625 -0.25,0.121094 -0.34375,0.171875 -0.09375,0.054687 -0.167969,0.078125 -0.21875,0.078125 -0.03125,0 -0.058594,-0.00391 -0.078125,-0.015625 C 0.882813,-4.378906 0.863281,-4.40625 0.84375,-4.4375 0.820313,-4.46875 0.804688,-4.503906 0.796875,-4.546875 c 0,-0.050781 0,-0.101563 0,-0.15625 0,-0.101563 0.003906,-0.179688 0.015625,-0.234375 C 0.820313,-5 0.851563,-5.050781 0.90625,-5.09375 0.96875,-5.144531 1.0625,-5.203125 1.1875,-5.265625 c 0.125,-0.070313 0.269531,-0.132813 0.4375,-0.1875 0.164063,-0.0625 0.347656,-0.109375 0.546875,-0.140625 0.195313,-0.039063 0.398438,-0.0625 0.609375,-0.0625 0.375,0 0.691406,0.042969 0.953125,0.125 0.269531,0.085937 0.484375,0.210937 0.640625,0.375 0.164063,0.167969 0.285156,0.375 0.359375,0.625 0.070313,0.242187 0.109375,0.523437 0.109375,0.84375 z M 3.890625,-2.53125 H 3.0625 c -0.261719,0 -0.492187,0.023437 -0.6875,0.0625 -0.1875,0.042969 -0.351562,0.109375 -0.484375,0.203125 -0.125,0.085937 -0.21875,0.1875 -0.28125,0.3125 -0.0625,0.117187 -0.09375,0.257812 -0.09375,0.421875 0,0.273437 0.085938,0.492187 0.265625,0.65625 0.175781,0.15625 0.421875,0.234375 0.734375,0.234375 0.25,0 0.476563,-0.0625 0.6875,-0.1875 0.21875,-0.132813 0.445313,-0.332031 0.6875,-0.59375 z m 0,0"
   style="stroke:none" />
      </g><g
   transform="translate(198.063,134.765)"
   id="g1006"><path
   id="id-3a13ffac-34e8-428e-bde0-96fbffb10efc"
   d="m 4.1875,-1.578125 c 0,0.273437 -0.054687,0.511719 -0.15625,0.71875 C 3.9375,-0.648438 3.796875,-0.472656 3.609375,-0.328125 3.429688,-0.179688 3.210938,-0.0703125 2.953125,0 2.703125,0.0703125 2.425781,0.109375 2.125,0.109375 1.9375,0.109375 1.757813,0.09375 1.59375,0.0625 1.425781,0.03125 1.273438,-0.00390625 1.140625,-0.046875 c -0.136719,-0.0390625 -0.25,-0.082031 -0.34375,-0.125 C 0.703125,-0.222656 0.632813,-0.269531 0.59375,-0.3125 0.550781,-0.351563 0.519531,-0.40625 0.5,-0.46875 0.476563,-0.539063 0.46875,-0.640625 0.46875,-0.765625 c 0,-0.070313 0.003906,-0.132813 0.015625,-0.1875 0.007813,-0.050781 0.019531,-0.09375 0.03125,-0.125 0.007813,-0.03125 0.023438,-0.050781 0.046875,-0.0625 0.019531,-0.00781 0.046875,-0.015625 0.078125,-0.015625 0.039063,0 0.101563,0.027344 0.1875,0.078125 0.082031,0.054687 0.179688,0.109375 0.296875,0.171875 0.125,0.0625 0.269531,0.121094 0.4375,0.171875 0.175781,0.054687 0.367188,0.078125 0.578125,0.078125 0.164063,0 0.316406,-0.015625 0.453125,-0.046875 0.132813,-0.039063 0.25,-0.09375 0.34375,-0.15625 C 3.03125,-0.929688 3.101563,-1.019531 3.15625,-1.125 3.207031,-1.226563 3.234375,-1.351563 3.234375,-1.5 3.234375,-1.644531 3.195313,-1.769531 3.125,-1.875 3.050781,-1.976563 2.953125,-2.066406 2.828125,-2.140625 2.703125,-2.222656 2.5625,-2.289063 2.40625,-2.34375 2.25,-2.40625 2.085938,-2.46875 1.921875,-2.53125 1.753906,-2.601563 1.59375,-2.679688 1.4375,-2.765625 1.28125,-2.847656 1.140625,-2.945313 1.015625,-3.0625 0.890625,-3.1875 0.785156,-3.332031 0.703125,-3.5 0.628906,-3.664063 0.59375,-3.867188 0.59375,-4.109375 c 0,-0.195313 0.039063,-0.390625 0.125,-0.578125 0.082031,-0.195313 0.203125,-0.363281 0.359375,-0.5 0.15625,-0.144531 0.351563,-0.257813 0.59375,-0.34375 0.238281,-0.082031 0.519531,-0.125 0.84375,-0.125 0.132813,0 0.269531,0.011719 0.40625,0.03125 0.144531,0.023437 0.273438,0.054687 0.390625,0.09375 0.113281,0.03125 0.207031,0.070312 0.28125,0.109375 0.082031,0.042969 0.144531,0.078125 0.1875,0.109375 0.039063,0.03125 0.066406,0.058594 0.078125,0.078125 0.019531,0.023437 0.03125,0.046875 0.03125,0.078125 0.00781,0.03125 0.015625,0.070312 0.015625,0.109375 0.00781,0.042969 0.015625,0.09375 0.015625,0.15625 0,0.0625 -0.00781,0.121094 -0.015625,0.171875 0,0.054687 -0.011719,0.09375 -0.03125,0.125 -0.011719,0.03125 -0.027344,0.054687 -0.046875,0.0625 -0.011719,0.011719 -0.03125,0.015625 -0.0625,0.015625 -0.03125,0 -0.085937,-0.019531 -0.15625,-0.0625 -0.0625,-0.039063 -0.148437,-0.082031 -0.25,-0.125 C 3.253906,-4.753906 3.128906,-4.800781 2.984375,-4.84375 2.847656,-4.894531 2.6875,-4.921875 2.5,-4.921875 c -0.15625,0 -0.296875,0.023437 -0.421875,0.0625 -0.125,0.042969 -0.230469,0.101562 -0.3125,0.171875 -0.085937,0.0625 -0.148437,0.140625 -0.1875,0.234375 -0.042969,0.09375 -0.0625,0.195312 -0.0625,0.296875 0,0.15625 0.035156,0.289062 0.109375,0.390625 0.082031,0.09375 0.1875,0.183594 0.3125,0.265625 0.125,0.074219 0.265625,0.140625 0.421875,0.203125 0.164063,0.0625 0.332031,0.132812 0.5,0.203125 0.164063,0.0625 0.328125,0.136719 0.484375,0.21875 0.164063,0.085937 0.3125,0.183594 0.4375,0.296875 0.125,0.117187 0.222656,0.257812 0.296875,0.421875 C 4.148438,-2 4.1875,-1.804688 4.1875,-1.578125 Z m 0,0"
   style="stroke:none" />
      </g></g>
  </g>
</g><path
   id="path16"
   style="fill:#1b1817;fill-opacity:1;fill-rule:evenodd;stroke:none;stroke-width:0.0503541"
   d="M 8.201702,-2.8174154e-7 C 3.6728399,-2.8174154e-7 0,3.6723367 0,8.2027087 0,11.826202 2.3500334,14.900833 5.6094648,15.985968 6.019852,16.060998 6.169404,15.807714 6.169404,15.590183 c 0,-0.194871 -0.007,-0.710498 -0.01108,-1.394813 C 3.8767761,14.690856 3.3953894,13.095633 3.3953894,13.095633 3.0222643,12.147966 2.4844808,11.895691 2.4844808,11.895691 c -0.7447396,-0.508578 0.056397,-0.498507 0.056397,-0.498507 0.8232922,0.05791 1.2563387,0.845448 1.2563387,0.845448 0.7316477,1.253317 1.9200081,0.89127 2.3872955,0.681293 0.07452,-0.529727 0.286516,-0.89127 0.520663,-1.096212 -1.8213132,-0.20746 -3.7362859,-0.910909 -3.7362859,-4.0540223 0,-0.895802 0.3197496,-1.62745 0.8444409,-2.200985 -0.084595,-0.207459 -0.3660754,-1.041326 0.080567,-2.170772 0,0 0.6883429,-0.220552 2.255367,0.840413 0.654102,-0.181779 1.356041,-0.272417 2.053447,-0.275942 0.696904,0.0035 1.398338,0.09416 2.053447,0.275942 1.566018,-1.060965 2.253354,-0.840413 2.253354,-0.840413 0.447649,1.129446 0.166169,1.963313 0.08208,2.170772 0.525698,0.573535 0.84293,1.305183 0.84293,2.200985 0,3.1511703 -1.917993,3.8445483 -3.744846,4.0474763 0.294069,0.253282 0.556414,0.753803 0.556414,1.519188 0,1.096212 -0.01007,1.980936 -0.01007,2.249828 0,0.219545 0.148042,0.474841 0.563968,0.394778 3.256913,-1.087149 5.604933,-4.159262 5.604933,-7.7822523 0,-4.530372 -3.67284,-8.20270898174154 -8.203213,-8.20270898174154" /></svg>
