<?xml version="1.0" encoding="UTF-8" standalone="no"?>
<svg
   xmlns:dc="http://purl.org/dc/elements/1.1/"
   xmlns:cc="http://creativecommons.org/ns#"
   xmlns:rdf="http://www.w3.org/1999/02/22-rdf-syntax-ns#"
   xmlns:svg="http://www.w3.org/2000/svg"
   xmlns="http://www.w3.org/2000/svg"
   xmlns:sodipodi="http://sodipodi.sourceforge.net/DTD/sodipodi-0.dtd"
   xmlns:inkscape="http://www.inkscape.org/namespaces/inkscape"
   inkscape:export-ydpi="200"
   inkscape:export-xdpi="200"
   inkscape:export-filename="C:\Users\Nu\Project-Support\B_Berkeley\P_Proposal_Berkeley\c_content\symbol_name.png"
   sodipodi:docname="icon_name_inverted.svg"
   inkscape:version="1.0 (4035a4fb49, 2020-05-01)"
   id="svg8"
   version="1.1"
   viewBox="0 0 3.5277779 4.2333335"
   height="12pt"
   width="10pt">
  <defs
     id="defs2" />
  <sodipodi:namedview
     inkscape:snap-nodes="false"
     inkscape:bbox-nodes="true"
     inkscape:snap-bbox="true"
     units="pt"
     inkscape:window-maximized="0"
     inkscape:window-y="0"
     inkscape:window-x="0"
     inkscape:window-height="991"
     inkscape:window-width="958"
     fit-margin-bottom="0"
     fit-margin-right="0"
     fit-margin-left="0"
     fit-margin-top="0"
     showgrid="true"
     inkscape:document-rotation="0"
     inkscape:current-layer="layer1"
     inkscape:document-units="mm"
     inkscape:cy="21.361385"
     inkscape:cx="6.1682589"
     inkscape:zoom="2.3954135"
     inkscape:pageshadow="2"
     inkscape:pageopacity="0"
     borderopacity="1.0"
     bordercolor="#666666"
     pagecolor="#000000"
     id="base">
    <inkscape:grid
       empspacing="4"
       spacingy="0.088194447"
       spacingx="0.088194447"
       units="pt"
       id="grid838"
       type="xygrid" />
  </sodipodi:namedview>
  <metadata
     id="metadata5">
    <rdf:RDF>
      <cc:Work
         rdf:about="">
        <dc:format>image/svg+xml</dc:format>
        <dc:type
           rdf:resource="http://purl.org/dc/dcmitype/StillImage" />
        <dc:title></dc:title>
      </cc:Work>
    </rdf:RDF>
  </metadata>
  <g
     transform="translate(-189.09833,-181.5388)"
     id="layer1"
     inkscape:groupmode="layer"
     inkscape:label="Layer 1">
    <path
       id="path847"
       d="m 190.38677,185.76318 c -0.32348,-0.0211 -0.68269,-0.0807 -0.85187,-0.14141 -0.2208,-0.0793 -0.37193,-0.19864 -0.41478,-0.32763 -0.0366,-0.11022 -0.026,-0.28866 0.0236,-0.39501 0.10303,-0.22121 0.49473,-0.49413 1.00067,-0.69724 0.18071,-0.0726 0.23176,-0.10501 0.26785,-0.17029 0.0666,-0.12037 0.0486,-0.24533 -0.0522,-0.36351 -0.17479,-0.20483 -0.29523,-0.44369 -0.37754,-0.74877 -0.026,-0.0966 -0.0307,-0.14943 -0.0306,-0.34928 8e-5,-0.26635 0.0181,-0.35429 0.11074,-0.54187 0.0905,-0.18323 0.27918,-0.35131 0.4766,-0.42463 0.37813,-0.14042 0.81728,-0.0471 1.07271,0.22797 0.0985,0.10606 0.15633,0.20702 0.209,0.36475 0.0306,0.0915 0.0382,0.14412 0.0442,0.30453 0.008,0.21387 -0.005,0.32398 -0.0586,0.51356 -0.0459,0.16088 -0.18058,0.43044 -0.27644,0.55299 -0.14535,0.18582 -0.14721,0.18943 -0.15566,0.30114 -0.0131,0.17384 0.031,0.24658 0.17897,0.29523 0.17892,0.0588 0.46492,0.18982 0.6361,0.29138 0.23907,0.14183 0.40762,0.29447 0.47755,0.43249 0.0343,0.0677 0.0406,0.0979 0.0447,0.21522 0.007,0.20902 -0.0401,0.30233 -0.20978,0.41217 -0.16628,0.10765 -0.39201,0.17133 -0.78539,0.22156 -0.24355,0.0311 -1.02162,0.0467 -1.32974,0.0266 z"
       style="fill:#ffffff;fill-opacity:1;fill-rule:evenodd;stroke-width:0.0138732;stroke-dasharray:0.0138732, 0.08323920000000000" />
  </g>
</svg>
